<?xml version="1.0" standalone="no"?>
<!DOCTYPE svg PUBLIC "-//W3C//DTD SVG 1.1//EN" "http://www.w3.org/Graphics/SVG/1.1/DTD/svg11.dtd" >
<svg xmlns="http://www.w3.org/2000/svg">
<metadata>Generated by IcoMoon</metadata>
<defs>
<font id="icomoon" horiz-adv-x="1024">
<font-face units-per-em="1024" ascent="960" descent="-64" />
<missing-glyph horiz-adv-x="1024" />
<glyph unicode="&#x20;" horiz-adv-x="512" d="" />
<glyph unicode="&#xe06c;" glyph-name="call_to_action" d="M896 128.667v128h-768v-128h768zM896 810.667c46 0 86-40 86-86v-596c0-46-40-86-86-86h-768c-46 0-86 40-86 86v596c0 46 40 86 86 86h768z" />
<glyph unicode="&#xe227;" glyph-name="attach_money" d="M504 472.667c96-26 200-64 200-186 0-88-66-136-150-152v-92h-128v92c-82 18-150 70-156 164h94c4-50 38-90 126-90 94 0 116 46 116 76 0 40-22 78-128 104-120 28-200 78-200 176 0 82 66 136 148 154v92h128v-94c90-22 136-88 138-162h-94c-2 54-32 90-108 90-72 0-114-34-114-80 0-40 32-66 128-92z" />
<glyph unicode="&#xe263;" glyph-name="monetization_on" d="M572 166.667c74 14 134 56 134 134 0 108-94 146-180 168s-112 46-112 82c0 40 38 70 102 70 68 0 92-32 94-80h84c-2 66-42 124-122 144v84h-114v-84c-74-16-132-62-132-136 0-88 72-130 178-156 96-22 114-56 114-92 0-26-18-68-102-68-78 0-110 36-114 80h-84c4-82 68-128 140-144v-84h114v82zM512 852.667c236 0 426-190 426-426s-190-426-426-426-426 190-426 426 190 426 426 426z" />
<glyph unicode="&#xe41d;" glyph-name="style" d="M250 96.667v270l148-356h-62c-46 0-86 40-86 86zM336 564.667c24 0 42 20 42 44s-18 42-42 42-42-18-42-42 18-44 42-44zM940 258.667c18-44-2-94-46-112l-314-130c-10-4-22-6-34-6-34 0-64 20-78 52l-212 512c-4 12-6 22-6 34 0 32 20 62 52 76l316 130c12 4 22 6 34 6 32 0 62-20 76-52zM108 100.667c-44 18-64 66-46 110l104 250v-384z" />
<glyph unicode="&#xe53e;" glyph-name="local_atm" d="M854 170.667v512h-684v-512h684zM854 768.667c48 0 84-38 84-86v-512c0-48-36-86-84-86h-684c-48 0-84 38-84 86v512c0 48 36 86 84 86h684zM470 212.667v44h-86v84h170v44h-128c-24 0-42 18-42 42v128c0 24 18 42 42 42h44v44h84v-44h86v-84h-170v-44h128c24 0 42-18 42-42v-128c0-24-18-42-42-42h-44v-44h-84z" />
<glyph unicode="&#xe54e;" glyph-name="local_offer" d="M234 640.667c36 0 64 28 64 64s-28 64-64 64-64-28-64-64 28-64 64-64zM914 444.667c16-16 24-36 24-60s-8-44-24-60l-300-300c-16-16-36-24-60-24s-44 8-60 24l-384 384c-16 16-24 36-24 60v300c0 46 38 84 84 84h300c24 0 44-8 60-24z" />
<glyph unicode="&#xe897;" glyph-name="lock" d="M644 596.667v86c0 72-60 132-132 132s-132-60-132-132v-86h264zM512 212.667c46 0 86 40 86 86s-40 86-86 86-86-40-86-86 40-86 86-86zM768 596.667c46 0 86-38 86-84v-428c0-46-40-84-86-84h-512c-46 0-86 38-86 84v428c0 46 40 84 86 84h42v86c0 118 96 214 214 214s214-96 214-214v-86h42z" />
<glyph unicode="&#xe898;" glyph-name="lock_open" d="M768 84.667v428h-512v-428h512zM768 596.667c46 0 86-38 86-84v-428c0-46-40-84-86-84h-512c-46 0-86 38-86 84v428c0 46 40 84 86 84h388v86c0 72-60 132-132 132s-132-60-132-132h-82c0 118 96 214 214 214s214-96 214-214v-86h42zM512 212.667c-46 0-86 40-86 86s40 86 86 86 86-40 86-86-40-86-86-86z" />
<glyph unicode="&#xe899;" glyph-name="lock_outline" d="M768 84.667v428h-512v-428h512zM380 682.667v-86h264v86c0 72-60 132-132 132s-132-60-132-132zM768 596.667c46 0 86-38 86-84v-428c0-46-40-84-86-84h-512c-46 0-86 38-86 84v428c0 46 40 84 86 84h42v86c0 118 96 214 214 214s214-96 214-214v-86h42zM512 212.667c-46 0-86 40-86 86s40 86 86 86 86-40 86-86-40-86-86-86z" />
<glyph unicode="&#xe89a;" glyph-name="loyalty" d="M736 286.667c20 20 32 46 32 76 0 58-48 106-106 106-30 0-56-10-76-30l-32-32-30 32c-20 20-46 30-76 30-58 0-106-48-106-106 0-30 10-56 30-76l182-182zM234 640.667c36 0 64 28 64 64s-28 64-64 64-64-28-64-64 28-64 64-64zM914 444.667c16-16 24-36 24-60s-8-44-24-60l-300-300c-16-16-36-24-60-24s-44 8-60 24l-384 384c-16 16-24 36-24 60v300c0 46 38 84 84 84h300c24 0 44-8 60-24z" />
<glyph unicode="&#xe8cc;" glyph-name="shopping_cart" d="M726 170.667c46 0 84-40 84-86s-38-84-84-84-86 38-86 84 40 86 86 86zM42 852.667h140l40-84h632c24 0 42-20 42-44 0-8-2-14-6-20l-152-276c-14-26-42-44-74-44h-318l-38-70-2-6c0-6 4-10 10-10h494v-86h-512c-46 0-84 40-84 86 0 14 4 28 10 40l58 106-154 324h-86v84zM298 170.667c46 0 86-40 86-86s-40-84-86-84-84 38-84 84 38 86 84 86z" />
<glyph unicode="&#xe90d;" glyph-name="fingerprint" d="M636 0.667h-6c-68 18-112 44-158 90-60 60-92 138-92 222 0 70 58 126 130 126s132-56 132-126c0-46 38-82 88-82s90 36 90 82c0 160-140 292-310 292-122 0-232-68-282-172-16-34-24-76-24-120 0-34 2-86 28-154 9.157-27.471-30.939-36.654-40-14-20 56-32 110-32 168 0 52 10 98 30 138 56 120 182 198 320 198 194 0 352-152 352-336 0-70-60-124-132-124s-130 54-130 124c0 46-40 84-90 84s-88-38-88-84c0-72 28-140 80-192 40-40 80-62 140-78 12-2 16-14 14-26-2-10-12-16-20-16zM530 312.667c0-97.515 80.578-182 192-182 19.928 0 65.546 14.722 70-12 2-12-6-24-18-26-24-4-46-4-52-4-50 0-96 12-132 38-64 44-102 112-102 186 0 12 10 22 22 22s20-10 20-22zM416 8.667c-6 0-10 2-14 6-38 38-58 62-86 114-30 52-46 116-46 184 0 126 108 230 242 230s242-104 242-230c0-12-10-20-22-20s-22 8-22 20c0 104-88 188-198 188s-198-84-198-188c0-62 12-118 38-164 28-50 48-70 80-104 8-8 8-22 0-30-4-4-10-6-16-6zM150 524.667c-17.624 0-27.785 15.691-18 32 42 60 96 108 160 140 134 70 306 70 440 0 64-32 118-78 160-138 6-10 4-24-6-30s-24-4-30 6c-38 54-86 94-144 124-122 62-278 64-400 0-58-30-108-72-146-126-4-6-10-8-16-8zM760 748.667c-4 0-8 0-10 2-82 42-154 60-238 60s-166-20-238-60c-23.381-14.029-43.278 24.033-20 38 80 44 166 64 258 64 90 0 170-20 258-64 18.211-10.927 10.406-40-10-40z" />
<glyph unicode="&#xe926;" glyph-name="euro_symbol" d="M640 148.667c70 0 132 26 180 68l76-76c-68-62-158-98-256-98-168 0-310 108-362 256h-150v86h130c-2 14-2 28-2 42s0 28 2 42h-130v86h150c52 148 194 256 362 256 98 0 188-36 256-98l-76-76c-48 42-112 68-180 68-106 0-200-62-246-150h246v-86h-274c-2-14-4-28-4-42s2-28 4-42h274v-86h-246c46-88 138-150 246-150z" />
<glyph unicode="&#xe935;" glyph-name="price-tag" d="M976 960h-384c-26.4 0-63.274-15.274-81.942-33.942l-476.116-476.116c-18.668-18.668-18.668-49.214 0-67.882l412.118-412.118c18.668-18.668 49.214-18.668 67.882 0l476.118 476.118c18.666 18.666 33.94 55.54 33.94 81.94v384c0 26.4-21.6 48-48 48zM736 576c-53.020 0-96 42.98-96 96s42.98 96 96 96 96-42.98 96-96-42.98-96-96-96z" />
<glyph unicode="&#xe936;" glyph-name="price-tags" horiz-adv-x="1280" d="M1232 960h-384c-26.4 0-63.274-15.274-81.942-33.942l-476.116-476.116c-18.668-18.668-18.668-49.214 0-67.882l412.118-412.118c18.668-18.668 49.214-18.668 67.882 0l476.118 476.118c18.666 18.666 33.94 55.54 33.94 81.94v384c0 26.4-21.6 48-48 48zM992 576c-53.020 0-96 42.98-96 96s42.98 96 96 96 96-42.98 96-96-42.98-96-96-96zM128 416l544 544h-80c-26.4 0-63.274-15.274-81.942-33.942l-476.116-476.116c-18.668-18.668-18.668-49.214 0-67.882l412.118-412.118c18.668-18.668 49.214-18.668 67.882 0l30.058 30.058-416 416z" />
<glyph unicode="&#xe937;" glyph-name="barcode" d="M0 832h128v-640h-128zM192 832h64v-640h-64zM320 832h64v-640h-64zM512 832h64v-640h-64zM768 832h64v-640h-64zM960 832h64v-640h-64zM640 832h32v-640h-32zM448 832h32v-640h-32zM864 832h32v-640h-32zM0 128h64v-64h-64zM192 128h64v-64h-64zM320 128h64v-64h-64zM640 128h64v-64h-64zM960 128h64v-64h-64zM768 128h128v-64h-128zM448 128h128v-64h-128z" />
<glyph unicode="&#xe938;" glyph-name="qrcode" d="M320 896h-256v-256h256v256zM384 960v0-384h-384v384h384zM128 832h128v-128h-128zM960 896h-256v-256h256v256zM1024 960v0-384h-384v384h384zM768 832h128v-128h-128zM320 256h-256v-256h256v256zM384 320v0-384h-384v384h384zM128 192h128v-128h-128zM448 960h64v-64h-64zM512 896h64v-64h-64zM448 832h64v-64h-64zM512 768h64v-64h-64zM448 704h64v-64h-64zM512 640h64v-64h-64zM448 576h64v-64h-64zM448 448h64v-64h-64zM512 384h64v-64h-64zM448 320h64v-64h-64zM512 256h64v-64h-64zM448 192h64v-64h-64zM512 128h64v-64h-64zM448 64h64v-64h-64zM512 0h64v-64h-64zM960 448h64v-64h-64zM64 448h64v-64h-64zM128 512h64v-64h-64zM0 512h64v-64h-64zM256 512h64v-64h-64zM320 448h64v-64h-64zM384 512h64v-64h-64zM576 448h64v-64h-64zM640 512h64v-64h-64zM704 448h64v-64h-64zM768 512h64v-64h-64zM832 448h64v-64h-64zM896 512h64v-64h-64zM960 320h64v-64h-64zM576 320h64v-64h-64zM640 384h64v-64h-64zM704 320h64v-64h-64zM832 320h64v-64h-64zM896 384h64v-64h-64zM960 192h64v-64h-64zM576 192h64v-64h-64zM640 256h64v-64h-64zM768 256h64v-64h-64zM832 192h64v-64h-64zM896 256h64v-64h-64zM960 64h64v-64h-64zM640 128h64v-64h-64zM704 64h64v-64h-64zM768 128h64v-64h-64zM832 64h64v-64h-64zM640 0h64v-64h-64zM768 0h64v-64h-64zM896 0h64v-64h-64z" />
<glyph unicode="&#xe939;" glyph-name="ticket" d="M575.996 640l127.998-127.998-255.994-255.994-127.998 127.998zM1001.526 662.496l-73.516 73.516-32.008-32.008c-16.378-16.38-39.010-26.51-64-26.51-49.988 0-90.514 40.522-90.514 90.51 0 25.002 10.14 47.638 26.534 64.018l31.988 31.986-73.518 73.516c-29.968 29.968-79.008 29.968-108.976 0l-595.040-595.038c-29.966-29.968-29.966-79.010 0-108.976l73.52-73.518 31.962 31.964c16.382 16.406 39.030 26.552 64.044 26.552 49.988 0 90.51-40.524 90.51-90.51 0-25.006-10.14-47.64-26.534-64.022l-31.984-31.986 73.516-73.518c29.966-29.966 79.008-29.966 108.976 0l595.040 595.040c29.964 29.976 29.964 79.016 0 108.984zM448.002 128.004l-256 256 384 384 256-256-384-384z" />
<glyph unicode="&#xe93a;" glyph-name="cart" d="M384 32c0-53.019-42.981-96-96-96s-96 42.981-96 96c0 53.019 42.981 96 96 96s96-42.981 96-96zM1024 32c0-53.019-42.981-96-96-96s-96 42.981-96 96c0 53.019 42.981 96 96 96s96-42.981 96-96zM1024 448v384h-768c0 35.346-28.654 64-64 64h-192v-64h128l48.074-412.054c-29.294-23.458-48.074-59.5-48.074-99.946 0-70.696 57.308-128 128-128h768v64h-768c-35.346 0-64 28.654-64 64 0 0.218 0.014 0.436 0.016 0.656l831.984 127.344z" />
<glyph unicode="&#xe93b;" glyph-name="coin-dollar" d="M480 896c-265.096 0-480-214.904-480-480 0-265.098 214.904-480 480-480 265.098 0 480 214.902 480 480 0 265.096-214.902 480-480 480zM480 32c-212.078 0-384 171.922-384 384s171.922 384 384 384c212.078 0 384-171.922 384-384s-171.922-384-384-384zM512 448v128h128v64h-128v64h-64v-64h-128v-256h128v-128h-128v-64h128v-64h64v64h128.002l-0.002 256h-128zM448 448h-64v128h64v-128zM576.002 256h-64.002v128h64.002v-128z" />
<glyph unicode="&#xe93c;" glyph-name="coin-euro" d="M480 896c-265.096 0-480-214.904-480-480s214.904-480 480-480c265.098 0 480 214.902 480 480s-214.902 480-480 480zM480 32c-212.078 0-384 171.922-384 384s171.922 384 384 384c212.076 0 384-171.922 384-384s-171.924-384-384-384zM670.824 315.66c-15.27 8.884-34.862 3.708-43.75-11.57-17.256-29.662-49.088-48.090-83.074-48.090h-128c-41.716 0-77.286 26.754-90.496 64h154.496c17.672 0 32 14.326 32 32s-14.328 32-32 32h-160v64h160c17.672 0 32 14.328 32 32s-14.328 32-32 32h-154.496c13.21 37.246 48.78 64 90.496 64h128c33.986 0 65.818-18.426 83.074-48.090 8.888-15.276 28.478-20.456 43.752-11.568 15.276 8.888 20.456 28.476 11.568 43.752-28.672 49.288-81.702 79.906-138.394 79.906h-128c-77.268 0-141.914-55.056-156.78-128h-35.22c-17.672 0-32-14.328-32-32s14.328-32 32-32h32v-64h-32c-17.672 0-32-14.326-32-32s14.328-32 32-32h35.22c14.866-72.944 79.512-128 156.78-128h128c56.692 0 109.72 30.62 138.394 79.91 8.888 15.276 3.708 34.864-11.57 43.75z" />
<glyph unicode="&#xe93d;" glyph-name="coin-pound" d="M480 896c-265.096 0-480-214.904-480-480s214.904-480 480-480c265.098 0 480 214.902 480 480s-214.902 480-480 480zM480 32c-212.078 0-384 171.922-384 384s171.922 384 384 384c212.074 0 384-171.922 384-384s-171.926-384-384-384zM608 256h-224v128h96c17.672 0 32 14.326 32 32s-14.328 32-32 32h-96v32c0 52.934 43.066 96 96 96 34.17 0 66.042-18.404 83.18-48.030 8.85-15.298 28.426-20.526 43.722-11.676 15.296 8.848 20.526 28.424 11.676 43.722-28.538 49.336-81.638 79.984-138.578 79.984-88.224 0-160-71.776-160-160v-32h-32c-17.672 0-32-14.326-32-32s14.328-32 32-32h32v-192h288c17.674 0 32 14.326 32 32s-14.326 32-32 32z" />
<glyph unicode="&#xe93e;" glyph-name="coin-yen" d="M480 896c-265.096 0-480-214.904-480-480s214.904-480 480-480c265.098 0 480 214.902 480 480s-214.902 480-480 480zM480 32c-212.078 0-384 171.922-384 384s171.922 384 384 384c212.076 0 384-171.922 384-384s-171.924-384-384-384zM608 384c17.674 0 32 14.326 32 32s-14.326 32-32 32h-68.208l94.832 142.25c9.804 14.704 5.83 34.572-8.876 44.376-14.704 9.802-34.572 5.83-44.376-8.876l-101.372-152.062-101.374 152.062c-9.804 14.706-29.672 18.68-44.376 8.876-14.706-9.804-18.678-29.672-8.876-44.376l94.834-142.25h-68.208c-17.672 0-32-14.326-32-32s14.328-32 32-32h96v-64h-96c-17.672 0-32-14.326-32-32s14.328-32 32-32h96v-96c0-17.674 14.328-32 32-32s32 14.326 32 32v96h96c17.674 0 32 14.326 32 32s-14.326 32-32 32h-96v64h96z" />
<glyph unicode="&#xe93f;" glyph-name="credit-card" d="M928 832h-832c-52.8 0-96-43.2-96-96v-576c0-52.8 43.2-96 96-96h832c52.8 0 96 43.2 96 96v576c0 52.8-43.2 96-96 96zM96 768h832c17.346 0 32-14.654 32-32v-96h-896v96c0 17.346 14.654 32 32 32zM928 128h-832c-17.346 0-32 14.654-32 32v288h896v-288c0-17.346-14.654-32-32-32zM128 320h64v-128h-64zM256 320h64v-128h-64zM384 320h64v-128h-64z" />
<glyph unicode="&#xe940;" glyph-name="calculator" d="M384 896h-320c-35.2 0-64-28.8-64-64v-320c0-35.2 28.796-64 64-64h320c35.2 0 64 28.8 64 64v320c0 35.2-28.8 64-64 64zM384 640h-320v64h320v-64zM896 896h-320c-35.204 0-64-28.8-64-64v-832c0-35.2 28.796-64 64-64h320c35.2 0 64 28.8 64 64v832c0 35.2-28.8 64-64 64zM896 320h-320v64h320v-64zM896 512h-320v64h320v-64zM384 384h-320c-35.2 0-64-28.8-64-64v-320c0-35.2 28.796-64 64-64h320c35.2 0 64 28.8 64 64v320c0 35.2-28.8 64-64 64zM384 128h-128v-128h-64v128h-128v64h128v128h64v-128h128v-64z" />
<glyph unicode="&#xf02a;" glyph-name="barcode2" d="M36 73.143h-36v804.571h36v-804.571zM72 73.714h-18.286v804h18.286v-804zM125.714 73.714h-17.714v804h17.714v-804zM215.429 73.714h-17.714v804h17.714v-804zM305.143 73.714h-35.429v804h35.429v-804zM377.143 73.714h-17.714v804h17.714v-804zM413.143 73.714h-17.714v804h17.714v-804zM449.143 73.714h-17.714v804h17.714v-804zM538.857 73.714h-36v804h36v-804zM628.571 73.714h-36v804h36v-804zM700.571 73.714h-36v804h36v-804zM772.571 73.714h-36v804h36v-804zM826.286 73.714h-36v804h36v-804zM934.286 73.714h-53.714v804h53.714v-804zM970.286 73.714h-18.286v804h18.286v-804zM1024 73.143h-36v804.571h36v-804.571z" />
<glyph unicode="&#xf02b;" glyph-name="tag" horiz-adv-x="866" d="M256 694.857c0 40.571-32.571 73.143-73.143 73.143s-73.143-32.571-73.143-73.143 32.571-73.143 73.143-73.143 73.143 32.571 73.143 73.143zM865.714 365.714c0-19.429-8-38.286-21.143-51.429l-280.571-281.143c-13.714-13.143-32.571-21.143-52-21.143s-38.286 8-51.429 21.143l-408.571 409.143c-29.143 28.571-52 84-52 124.571v237.714c0 40 33.143 73.143 73.143 73.143h237.714c40.571 0 96-22.857 125.143-52l408.571-408c13.143-13.714 21.143-32.571 21.143-52z" />
<glyph unicode="&#xf02c;" glyph-name="tags" horiz-adv-x="1085" d="M256 694.857c0 40.571-32.571 73.143-73.143 73.143s-73.143-32.571-73.143-73.143 32.571-73.143 73.143-73.143 73.143 32.571 73.143 73.143zM865.714 365.714c0-19.429-8-38.286-21.143-51.429l-280.571-281.143c-13.714-13.143-32.571-21.143-52-21.143s-38.286 8-51.429 21.143l-408.571 409.143c-29.143 28.571-52 84-52 124.571v237.714c0 40 33.143 73.143 73.143 73.143h237.714c40.571 0 96-22.857 125.143-52l408.571-408c13.143-13.714 21.143-32.571 21.143-52zM1085.143 365.714c0-19.429-8-38.286-21.143-51.429l-280.571-281.143c-13.714-13.143-32.571-21.143-52-21.143-29.714 0-44.571 13.714-64 33.714l268.571 268.571c13.143 13.143 21.143 32 21.143 51.429s-8 38.286-21.143 52l-408.571 408c-29.143 29.143-84.571 52-125.143 52h128c40.571 0 96-22.857 125.143-52l408.571-408c13.143-13.714 21.143-32.571 21.143-52z" />
<glyph unicode="&#xf09c;" glyph-name="unlock" horiz-adv-x="951" d="M950.857 621.714v-146.286c0-20-16.571-36.571-36.571-36.571h-36.571c-20 0-36.571 16.571-36.571 36.571v146.286c0 80.571-65.714 146.286-146.286 146.286s-146.286-65.714-146.286-146.286v-109.714h54.857c30.286 0 54.857-24.571 54.857-54.857v-329.143c0-30.286-24.571-54.857-54.857-54.857h-548.571c-30.286 0-54.857 24.571-54.857 54.857v329.143c0 30.286 24.571 54.857 54.857 54.857h384v109.714c0 141.143 114.857 256 256 256s256-114.857 256-256z" />
<glyph unicode="&#xf09d;" glyph-name="credit-card2" horiz-adv-x="1097" d="M1005.714 877.714c50.286 0 91.429-41.143 91.429-91.429v-694.857c0-50.286-41.143-91.429-91.429-91.429h-914.286c-50.286 0-91.429 41.143-91.429 91.429v694.857c0 50.286 41.143 91.429 91.429 91.429h914.286zM91.429 804.571c-9.714 0-18.286-8.571-18.286-18.286v-128h950.857v128c0 9.714-8.571 18.286-18.286 18.286h-914.286zM1005.714 73.143c9.714 0 18.286 8.571 18.286 18.286v347.429h-950.857v-347.429c0-9.714 8.571-18.286 18.286-18.286h914.286zM146.286 146.286v73.143h146.286v-73.143h-146.286zM365.714 146.286v73.143h219.429v-73.143h-219.429z" />
<glyph unicode="&#xf1ec;" glyph-name="calculator2" horiz-adv-x="951" d="M219.429 73.143c0 40.571-32.571 73.143-73.143 73.143s-73.143-32.571-73.143-73.143 32.571-73.143 73.143-73.143 73.143 32.571 73.143 73.143zM438.857 73.143c0 40.571-32.571 73.143-73.143 73.143s-73.143-32.571-73.143-73.143 32.571-73.143 73.143-73.143 73.143 32.571 73.143 73.143zM219.429 292.571c0 40.571-32.571 73.143-73.143 73.143s-73.143-32.571-73.143-73.143 32.571-73.143 73.143-73.143 73.143 32.571 73.143 73.143zM658.286 73.143c0 40.571-32.571 73.143-73.143 73.143s-73.143-32.571-73.143-73.143 32.571-73.143 73.143-73.143 73.143 32.571 73.143 73.143zM438.857 292.571c0 40.571-32.571 73.143-73.143 73.143s-73.143-32.571-73.143-73.143 32.571-73.143 73.143-73.143 73.143 32.571 73.143 73.143zM219.429 512c0 40.571-32.571 73.143-73.143 73.143s-73.143-32.571-73.143-73.143 32.571-73.143 73.143-73.143 73.143 32.571 73.143 73.143zM658.286 292.571c0 40.571-32.571 73.143-73.143 73.143s-73.143-32.571-73.143-73.143 32.571-73.143 73.143-73.143 73.143 32.571 73.143 73.143zM438.857 512c0 40.571-32.571 73.143-73.143 73.143s-73.143-32.571-73.143-73.143 32.571-73.143 73.143-73.143 73.143 32.571 73.143 73.143zM877.714 73.143v219.429c0 40-33.143 73.143-73.143 73.143v0c-40 0-73.143-33.143-73.143-73.143v-219.429c0-40 33.143-73.143 73.143-73.143v0c40 0 73.143 33.143 73.143 73.143zM658.286 512c0 40.571-32.571 73.143-73.143 73.143s-73.143-32.571-73.143-73.143 32.571-73.143 73.143-73.143 73.143 32.571 73.143 73.143zM877.714 694.857v146.286c0 20-16.571 36.571-36.571 36.571h-731.429c-20 0-36.571-16.571-36.571-36.571v-146.286c0-20 16.571-36.571 36.571-36.571h731.429c20 0 36.571 16.571 36.571 36.571zM877.714 512c0 40.571-32.571 73.143-73.143 73.143s-73.143-32.571-73.143-73.143 32.571-73.143 73.143-73.143 73.143 32.571 73.143 73.143zM950.857 877.714v-877.714c0-40-33.143-73.143-73.143-73.143h-804.571c-40 0-73.143 33.143-73.143 73.143v877.714c0 40 33.143 73.143 73.143 73.143h804.571c40 0 73.143-33.143 73.143-73.143z" />
<glyph unicode="&#xf1ed;" glyph-name="paypal" horiz-adv-x="878" d="M868 581.714v0c7.429-34.286 5.714-73.714-2.286-116.571-37.143-188.571-162.286-253.714-322.857-253.714h-25.143c-19.429 0-35.429-14.286-38.857-33.714l-2.286-10.857-31.429-197.714-1.143-8.571c-4-19.429-20-33.714-39.429-33.714h-143.429c-16 0-26.286 13.143-24 29.143 10.286 64 20 128 30.286 192s20.571 127.429 30.857 191.429c1.714 13.714 10.857 21.143 24.571 21.143 22.857 0 45.714 0.571 74.857 0 41.143-0.571 88.571 1.714 134.857 12 61.714 13.714 117.714 38.857 164 82.286 41.714 38.857 69.714 86.857 88.571 140.571 8.571 25.143 15.429 50.286 20 76 1.143 6.857 2.857 5.714 6.857 2.857 31.429-23.429 49.143-54.857 56-92.571zM769.714 742.857c0-46.857-10.857-91.429-26.286-134.857-29.714-86.286-85.714-148-172.571-180-46.286-16.571-94.857-23.429-144-24-34.286-0.571-68.571 0-102.857 0-37.143 0-60.571-18.286-67.429-54.857-8-43.429-39.429-245.714-48.571-302.857-0.571-4-2.286-5.714-6.857-5.714h-168.571c-17.143 0-29.714 14.857-27.429 31.429l132.571 840.571c3.429 21.714 22.857 38.286 45.143 38.286h341.714c24.571 0 81.143-10.857 119.429-25.714 81.143-31.429 125.714-95.429 125.714-182.286z" />
<glyph unicode="&#xf1ee;" glyph-name="google-wallet" horiz-adv-x="1039" d="M252 566.857c11.429 0 22.857-5.714 29.714-14.857 100-136.571 169.714-282.857 206.857-442.286h-254.857c-45.714 158.857-113.143 304-209.714 428-9.143 12 0 29.143 14.857 29.143h213.143zM571.429 362.857c-18.857-77.143-42.857-152-71.429-224.571-30.286 119.429-78.857 231.429-146.286 339.429 14.857 82.857 23.429 168 25.143 256.571 80.571-129.714 144.571-253.143 192.571-371.429zM628 768c170.857-235.429 297.714-525.714 325.143-841.143h-257.714c-18.857 305.143-159.429 594.286-316 841.143h248.571zM1024 438.857c0-158.857-21.714-325.714-57.714-464-25.143 211.429-94.857 421.714-205.143 618.857-9.714 115.429-30.286 227.429-60.571 333.714-2.857 12 5.714 23.429 17.714 23.429h205.143c16 0 30.857-10.857 34.857-26.286 43.429-154.286 65.714-317.714 65.714-485.714z" />
<glyph unicode="&#xf1f0;" glyph-name="cc-visa" horiz-adv-x="1317" d="M1128.571 385.143h-78.857c0 0 8 21.143 37.714 102.286-0.571-0.571 8 21.143 12.571 34.857l6.857-31.429c17.714-87.429 21.714-105.714 21.714-105.714zM303.429 422.286l-33.143 168.571c-4.571 23.429-22.286 30.857-42.857 30.857h-153.143l-1.143-7.429c105.143-26.857 191.429-84 230.286-192zM405.714 621.714l-92.571-250.286-9.714 50.857c-20 53.143-68.571 102.286-123.429 124.571l77.143-291.429h100l149.143 366.286h-100.571zM485.143 254.857h94.857l59.429 366.857h-94.857zM924 612.571c-18.857 7.429-48.571 15.429-85.143 15.429-93.714 0-159.429-49.714-160-121.143-0.571-52.571 46.857-81.714 82.857-99.429 37.143-17.714 49.143-29.714 49.143-45.714 0-24.571-29.714-35.429-56.571-35.429-38.286 0-58.857 4.571-89.143 18.857l-12.571 6.286-13.143-82.286c22.286-10.286 62.857-19.429 105.714-19.429 99.429-0.571 164 49.143 165.143 125.143 0 41.714-25.714 73.143-80 99.429-33.143 16.571-53.143 28.571-53.143 45.714 0 15.429 17.143 31.429 54.286 31.429 30.857 0.571 53.714-5.714 70.857-13.714l8.571-4.571zM1166.857 621.714h-73.143c-22.857 0-40-6.857-49.714-30.857l-140.571-336h99.429c16 45.143 20 54.857 20 54.857h121.143c0 0 2.857-12.571 11.429-54.857h88zM1316.571 804.571v-731.429c0-40-33.143-73.143-73.143-73.143h-1170.286c-40 0-73.143 33.143-73.143 73.143v731.429c0 40 33.143 73.143 73.143 73.143h1170.286c40 0 73.143-33.143 73.143-73.143z" />
<glyph unicode="&#xf1f1;" glyph-name="cc-mastercard" horiz-adv-x="1317" d="M639.429 756c-47.429 31.429-103.429 48.571-160.571 48.571-160.571 0-290.857-130.286-290.857-290.286 0-160.571 130.286-290.857 290.857-290.857 57.143 0 113.143 17.143 160.571 48.571-153.143 124.571-152 359.429 0 484zM658.286 742.286c-147.429-116-148-341.143 0-456.571 148 115.429 147.429 340.571 0 456.571zM677.143 756c151.429-124.571 153.714-360 0-484 47.429-31.429 104-48.571 160.571-48.571 160.571 0 290.857 130.286 290.857 290.857 0 160-130.286 290.286-290.857 290.286-57.143 0-113.143-17.143-160.571-48.571zM1100.571 343.428h4v1.714h-9.714v-1.714h4v-9.714h1.714v9.714zM1117.143 333.714h2.286v11.429h-2.857l-3.429-7.429-3.429 7.429h-2.857v-11.429h1.714v8.571l3.429-7.429h2.286l2.857 7.429v-8.571zM1112.571 82.286v-1.143h-2.857v1.714h2.857v-0.571zM1112.571 77.143h1.714l-2.286 2.857c1.143 0 1.143 0.571 1.714 0.571 0.571 0.571 0.571 1.143 0.571 1.714s0 1.143-0.571 1.714c-0.571 0-1.143 0.571-2.286 0.571h-3.429v-7.429h1.714v2.857h0.571zM391.429 116c0 13.714 8.571 24.571 23.429 24.571 13.714 0 22.857-10.857 22.857-24.571 0-14.286-9.143-24.571-22.857-24.571-14.857 0-23.429 10.857-23.429 24.571zM661.714 141.143c10.857 0 18.286-6.286 20-18.286h-40c1.714 10.857 8.571 18.286 20 18.286zM865.143 116c0 13.714 8.571 24.571 22.857 24.571s23.429-10.857 23.429-24.571c0-14.286-9.143-24.571-23.429-24.571s-22.857 10.857-22.857 24.571zM1020.571 116c0 13.714 9.143 24.571 23.429 24.571 13.714 0 23.429-10.857 23.429-24.571 0-14.286-9.714-24.571-23.429-24.571-14.286 0-23.429 10.857-23.429 24.571zM1110.857 74.857c-0.571 0-1.143 0-2.286 0.571-0.571 0-1.143 0.571-1.714 1.143s-1.143 1.143-1.143 1.714-0.571 1.714-0.571 2.286 0 1.714 0.571 2.286c0 1.143 0.571 1.714 1.143 2.286s1.143 0.571 1.714 1.143 1.714 0.571 2.286 0.571 1.714 0 2.286-0.571 1.714-0.571 2.286-1.143 0.571-1.143 1.143-2.286c0-0.571 0.571-1.143 0.571-2.286 0-0.571-0.571-1.143-0.571-2.286-0.571-0.571-0.571-1.143-1.143-1.714s-1.143-1.143-2.286-1.143c-0.571-0.571-1.143-0.571-2.286-0.571zM342.286 77.143h17.143v48.571c0 18.286-12 30.286-30.857 30.857-9.714 0-20-2.857-26.857-13.714-5.143 8.571-13.714 13.714-25.714 13.714-8 0-16-2.857-22.286-11.429v9.143h-17.143v-77.143h17.143v42.857c0 13.714 7.429 20.571 18.857 20.571s17.143-7.429 17.143-20.571v-42.857h16.571v42.857c0 13.714 8 20.571 18.857 20.571 11.429 0 17.143-7.429 17.143-20.571v-42.857zM437.143 77.143h16.571v77.143h-16.571v-9.143c-5.714 6.857-13.714 11.429-24.571 11.429-21.714 0-38.286-17.143-38.286-40.571s16.571-40.571 38.286-40.571c10.857 0 18.857 4 24.571 11.429v-9.714zM538.857 100.571c0 13.714-10.286 20.571-26.857 22.857l-8 1.143c-7.429 1.143-13.143 2.857-13.143 8s5.143 8.571 14.286 8.571c10.286 0 19.429-3.429 24.571-6.286l6.857 13.714c-8 5.143-18.857 8-31.429 8-19.429 0-32-9.714-32-25.143 0-12.571 9.143-20 26.857-22.286l7.429-1.143c9.714-1.714 13.714-4 13.714-8 0-6.286-6.286-9.714-17.714-9.714s-20 4-25.714 8l-7.429-13.143c9.143-6.286 20.571-9.714 33.143-9.714 22.286 0 35.429 10.286 35.429 25.143zM613.143 81.143l-4.571 14.286c-5.143-2.857-10.286-4-14.857-4-8.571 0-10.857 5.143-10.857 12.571v34.857h27.429v15.429h-27.429v23.429h-17.143v-23.429h-16v-15.429h16v-34.857c0-17.714 6.857-28.571 26.857-28.571 6.857 0 15.429 2.286 20.571 5.714zM662.286 156.571c-22.286 0-38.286-16.571-38.286-40.571 0-24.571 16.571-40.571 39.429-40.571 11.429 0 22.286 2.857 31.429 10.857l-8 12.571c-6.286-5.143-14.857-8.571-22.286-8.571-10.857 0-20.571 5.143-23.429 18.857h57.714v6.857c0 24-14.857 40.571-36.571 40.571zM753.143 156.571c-9.714 0-16-4.571-20-11.429v9.143h-17.143v-77.143h17.143v43.429c0 12.571 5.143 20 16.571 20 3.429 0 6.857-0.571 10.286-2.286l5.143 16c-4 1.714-8.571 2.286-12 2.286zM770.286 116c0-23.429 16-40.571 41.143-40.571 11.429 0 19.429 2.286 27.429 9.143l-8 13.714c-6.286-4.571-12.571-7.429-20-6.857-13.714 0-23.429 9.714-23.429 24.571s9.714 24.571 23.429 24.571c7.429 0 13.714-2.286 20-6.857l8 13.714c-8 6.286-16 9.143-27.429 9.143-25.143 0-41.143-17.143-41.143-40.571zM910.286 77.143h17.143v77.143h-17.143v-9.143c-5.143 6.857-13.143 11.429-24 11.429-21.714 0-38.857-17.143-38.857-40.571s17.143-40.571 38.857-40.571c10.857 0 18.857 4 24 11.429v-9.714zM986.286 156.571c-9.714 0-16-4.571-20-11.429v9.143h-16.571v-77.143h16.571v43.429c0 12.571 5.714 20 16.571 20 3.429 0 6.857-0.571 10.286-2.286l5.143 16c-3.429 1.714-8.571 2.286-12 2.286zM1066.286 77.143h16.571v108.571h-16.571v-40.571c-5.143 6.857-13.143 11.429-24.571 11.429-21.143 0-38.286-17.143-38.286-40.571s17.143-40.571 38.286-40.571c11.429 0 19.429 4 24.571 11.429v-9.714zM1110.857 88.571c-0.571 0-1.714-0.571-2.857-0.571-1.143-0.571-1.714-1.143-2.286-1.714-1.143-0.571-1.714-1.714-1.714-2.286-0.571-1.143-0.571-2.286-0.571-3.429 0-0.571 0-1.714 0.571-2.857 0-0.571 0.571-1.714 1.714-2.286 0.571-0.571 1.143-1.143 2.286-1.714s2.286-0.571 2.857-0.571c1.143 0 2.286 0 3.429 0.571 0.571 0.571 1.714 1.143 2.286 1.714s1.143 1.714 1.714 2.286c0.571 1.143 0.571 2.286 0.571 2.857 0 1.143 0 2.286-0.571 3.429-0.571 0.571-1.143 1.714-1.714 2.286s-1.714 1.143-2.286 1.714c-1.143 0-2.286 0.571-3.429 0.571zM1316.571 804.571v-731.429c0-40-33.143-73.143-73.143-73.143h-1170.286c-40 0-73.143 33.143-73.143 73.143v731.429c0 40 33.143 73.143 73.143 73.143h1170.286c40 0 73.143-33.143 73.143-73.143z" />
<glyph unicode="&#xf1f2;" glyph-name="cc-discover" horiz-adv-x="1317" d="M178.857 506.857c0-18.286-7.429-36-20.571-48-11.429-10.286-26.857-14.857-50.857-14.857h-9.714v125.714h9.714c24 0 38.857-4 50.857-15.429 13.143-11.429 20.571-29.143 20.571-47.429zM1193.714 544c0-19.429-12.571-29.714-36.571-29.714h-10.857v57.714h11.429c23.429 0 36-9.714 36-28zM217.143 506.857c0 56-41.714 95.429-102.286 95.429h-54.286v-190.286h54.286c28.571 0 49.714 6.286 68 21.714 21.714 18.286 34.286 45.143 34.286 73.143zM234.286 412h37.143v190.286h-37.143v-190.286zM417.143 469.714c0 30.286-12.571 44-54.857 59.429-22.286 8-28.571 13.714-28.571 24 0 12 11.429 21.143 27.429 21.143 11.429 0 20.571-4.571 30.286-15.429l19.429 25.143c-16 14.286-35.429 21.143-56 21.143-33.714 0-59.429-23.429-59.429-54.286 0-26.286 12-40 46.857-52.571 14.286-5.143 21.714-8 25.714-10.857 7.429-4.571 10.857-11.429 10.857-19.429 0-15.429-12-26.857-28.571-26.857-17.714 0-32 8.571-40.571 25.143l-24-22.857c17.143-25.143 37.714-36.571 65.714-36.571 38.857 0 65.714 25.714 65.714 62.857zM576 418.286v44c-14.857-14.857-28-21.143-44.571-21.143-37.714 0-64 27.429-64 65.714 0 36.571 27.429 65.714 62.286 65.714 17.714 0 30.857-6.286 46.286-21.714v44c-16 8-29.714 11.429-45.714 11.429-56 0-101.143-44-101.143-99.429 0-56 44-99.429 100.571-99.429 16 0 29.714 2.857 46.286 10.857zM1280 73.143v301.143c-91.429-57.143-413.143-240-933.143-337.714h896.571c20 0 36.571 16.571 36.571 36.571zM793.714 505.714c0 57.143-46.286 103.429-103.429 103.429s-103.429-46.286-103.429-103.429 46.286-103.429 103.429-103.429 103.429 46.286 103.429 103.429zM880.571 406.857l82.286 195.429h-40.571l-51.429-128-50.857 128h-40.571l81.143-195.429h20zM979.429 412h105.143v32h-68v51.429h65.714v32h-65.714v42.286h68v32.571h-105.143v-190.286zM1202.857 412h45.714l-60 80c28 5.714 43.429 24.571 43.429 53.714 0 36-24.571 56.571-67.429 56.571h-55.429v-190.286h37.143v76h5.143zM1316.571 801.143v-724.571c0-42.286-33.714-76.571-75.429-76.571h-1165.714c-41.714 0-75.429 34.286-75.429 76.571v724.571c0 42.286 33.714 76.571 75.429 76.571h1165.714c41.714 0 75.429-34.286 75.429-76.571z" />
<glyph unicode="&#xf1f3;" glyph-name="cc-amex" horiz-adv-x="1317" d="M68 561.143h50.857l-25.714 61.714zM422.857 260.571l42.286 45.143-40 45.143h-93.143v-28h81.143v-31.429h-81.143v-30.857h90.857zM513.143 305.143l56.571-62.857v124zM677.714 332c0 13.714-10.286 18.857-22.857 18.857h-48v-39.429h47.429c13.143 0 23.429 6.286 23.429 20.571zM842.857 334.286c0 14.286-12.571 16.571-24 16.571h-46.857v-34.857h46.286c12.571 0 24.571 2.857 24.571 18.286zM684 600.571c0 14.286-12.571 16.571-24 16.571h-46.857v-34.286h46.286c12.571 0 24.571 2.857 24.571 17.714zM946.286 561.143h50.857l-25.143 61.714zM399.429 649.714v-154.857h-37.714v121.143l-53.714-121.143h-32.571l-53.714 121.143v-121.143h-75.429l-14.286 34.286h-77.143l-14.286-34.286h-40l66.286 154.857h54.857l62.857-146.857v146.857h60.571l48.571-105.143 44 105.143h61.714zM717.143 332c0-62.286-68-52-110.286-52v-52h-72l-45.714 51.429-47.429-51.429h-146.286v154.857h148.571l45.714-50.857 46.857 50.857h118.286c34.857 0 62.286-12 62.286-50.857zM550.857 526.857v-32h-124v154.857h124v-32.571h-86.857v-28h84.571v-31.429h-84.571v-30.857h86.857zM1316.571 207.428v-130.857c0-41.714-33.714-76.571-75.429-76.571h-1165.714c-41.714 0-75.429 34.857-75.429 76.571v387.429h63.429l14.286 34.857h31.429l14.286-34.857h124.571v26.286l10.857-26.286h64.571l11.429 26.857v-26.857h309.143v56.571l5.714 0.571c5.143 0 5.714-4 5.714-8v-49.143h159.429v13.143c37.143-19.429 88-13.143 126.857-13.143l14.286 34.857h32l14.286-34.857h129.714v33.143l19.429-33.143h104v216h-102.857v-25.143l-14.286 25.143h-105.714v-25.143l-13.143 25.143h-142.286c-21.143 0-43.429-2.286-62.286-12.571v12.571h-98.286v-12.571c-11.429 10.286-26.857 12.571-41.714 12.571h-358.857l-24.571-55.429-24.571 55.429h-113.143v-25.143l-12.571 25.143h-96.571l-44.571-102.286v223.429c0 41.714 33.714 76.571 75.429 76.571h1165.714c41.714 0 75.429-34.857 75.429-76.571v-387.429h-68.571c-16 0-33.143-2.857-46.286-12.571v12.571h-101.143c-14.286 0-33.714-2.286-44.571-12.571v12.571h-180.571v-12.571c-13.714 9.714-33.714 12.571-49.714 12.571h-119.429v-12.571c-12 11.429-36.571 12.571-52 12.571h-133.714l-30.857-33.143-28.571 33.143h-199.429v-216h196l31.429 33.714 29.714-33.714h120.571v50.857h12c17.143 0 34.857 0.571 51.429 7.429v-58.286h99.429v56.571h4.571c5.714 0 6.857-0.571 6.857-6.857v-49.714h302.286c16.571 0 37.143 3.429 50.286 13.714v-13.714h96c18.286 0 37.714 1.714 54.286 9.714zM883.429 341.143c0-17.143-9.143-34.286-26.286-41.143 20.571-7.429 24.571-21.143 24.571-41.143v-30.857h-37.143v25.714c0 26.286-8.571 30.857-33.143 30.857h-39.429v-56.571h-37.143v154.857h88c29.143 0 60.571-5.143 60.571-41.714zM725.143 608c0-17.714-9.714-34.857-26.286-41.714 21.143-7.429 24.571-20.571 24.571-41.143v-30.286h-37.143c-0.571 33.143 8 56-33.143 56h-40v-56h-36.571v154.857l87.429-0.571c29.714 0 61.143-4.571 61.143-41.143zM1027.429 260v-32h-123.429v154.857h123.429v-32h-86.286v-28h84.571v-31.429h-84.571v-30.857zM784 649.714v-154.857h-37.714v154.857h37.714zM1180 277.143c0-36.571-25.143-49.143-58.286-49.143h-72v33.143h72c9.143 0 19.429 2.286 19.429 14.286 0 33.143-95.429-12.571-95.429 61.143 0 31.429 24 46.286 52.571 46.286h74.286v-32.571h-68c-9.714 0-20.571-1.714-20.571-14.286 0-33.714 96 15.429 96-58.857zM1316.571 305.714v-57.714c-10.857-16-32-20-50.286-20h-71.429v33.143h71.429c9.143 0 18.857 2.857 18.857 14.286 0 32.571-95.429-12.571-95.429 61.143 0 31.429 24.571 46.286 53.143 46.286h73.714v-32.571h-67.429c-10.286 0-20.571-1.714-20.571-14.286 0-27.429 64.571 0.571 88-30.286zM1222.286 649.143v-154.286h-52.571l-69.714 116v-116h-75.429l-14.857 34.286h-76.571l-14.286-34.286h-42.857c-50.857 0-73.714 26.286-73.714 76 0 52 23.429 78.857 76 78.857h36v-33.714c-38.857 0.571-74.286 9.143-74.286-44 0-26.286 6.286-44.571 36-44.571h16.571l52.571 121.714h55.429l62.286-146.286v146.286h56.571l65.143-107.429v107.429h37.714z" />
<glyph unicode="&#xf1f4;" glyph-name="cc-paypal" horiz-adv-x="1317" d="M425.714 433.143c0-28-22.286-49.143-50.286-49.143-21.143 0-36.571 12-36.571 34.286 0 28 21.714 50.286 49.714 50.286 21.143 0 37.143-13.143 37.143-35.429zM874.286 518.286c0-34.286-20.571-41.143-50.286-41.143l-18.286-0.571 9.714 61.143c0.571 4 3.429 6.286 7.429 6.286h10.286c19.429 0 41.143-1.143 41.143-25.714zM1074.857 433.143c0-28-22.286-49.143-49.714-49.143-21.143 0-37.143 12-37.143 34.286 0 28 21.714 50.286 49.714 50.286 21.143 0 37.143-13.143 37.143-35.429zM293.143 530.857c0 48-37.143 64-79.429 64h-91.429c-5.714 0-11.429-4.571-12-10.857l-37.143-233.143c-0.571-4.571 2.857-9.143 7.429-9.143h43.429c6.286 0 12 4.571 12.571 10.857l10.286 62.857c2.286 16.571 30.286 10.857 41.143 10.857 65.143 0 105.143 38.857 105.143 104.571zM469.714 352.571l23.429 149.143c0.571 4.571-2.857 9.143-7.429 9.143h-43.429c-8.571 0-9.143-12.571-9.714-18.857-13.143 19.429-32.571 22.857-54.286 22.857-56 0-98.857-49.143-98.857-103.429 0-44.571 28-73.714 72.571-73.714 20.571 0 46.286 9.143 60.571 25.143-1.143-3.429-2.286-8.571-2.286-12 0-5.143 2.286-9.143 7.429-9.143h39.429c6.286 0 11.429 4.571 12.571 10.857zM725.143 502.857c0 4-3.429 8-7.429 8h-44c-4 0-8-2.286-10.286-5.714l-60.571-89.143-25.143 85.714c-1.714 5.143-6.857 9.143-12.571 9.143h-42.857c-4 0-7.429-4-7.429-8 0-2.857 44.571-132 48.571-144-6.286-8.571-46.857-61.714-46.857-68.571 0-4 3.429-7.429 7.429-7.429h44c4 0 8 2.286 10.286 5.714l145.714 210.286c1.143 1.143 1.143 2.286 1.143 4zM942.286 530.857c0 48-37.143 64-79.429 64h-90.857c-6.286 0-12-4.571-12.571-10.857l-37.143-233.143c-0.571-4.571 2.857-9.143 7.429-9.143h46.857c4.571 0 8 3.429 9.143 7.429l10.286 66.286c2.286 16.571 30.286 10.857 41.143 10.857 65.143 0 105.143 38.857 105.143 104.571zM1118.857 352.571l23.429 149.143c0.571 4.571-2.857 9.143-7.429 9.143h-43.429c-8.571 0-9.143-12.571-9.714-18.857-12.571 19.429-32 22.857-54.286 22.857-56 0-98.857-49.143-98.857-103.429 0-44.571 28-73.714 72.571-73.714 21.143 0 46.857 9.143 60.571 25.143-0.571-3.429-2.286-8.571-2.286-12 0-5.143 2.286-9.143 7.429-9.143h39.429c6.286 0 11.429 4.571 12.571 10.857zM1243.429 586.286v0.571c0 4.571-3.429 8-7.429 8h-42.286c-3.429 0-6.857-2.857-7.429-6.286l-37.143-237.714-0.571-1.143c0-4 3.429-8 8-8h37.714c5.714 0 11.429 4.571 12 10.857zM224 509.714c-4.571-29.143-24-32.571-49.143-32.571l-18.857-0.571 9.714 61.143c0.571 4 4 6.286 7.429 6.286h10.857c25.714 0 45.143-3.429 40-34.286zM1316.571 804.571v-731.429c0-40-33.143-73.143-73.143-73.143h-1170.286c-40 0-73.143 33.143-73.143 73.143v731.429c0 40 33.143 73.143 73.143 73.143h1170.286c40 0 73.143-33.143 73.143-73.143z" />
<glyph unicode="&#xf1f5;" glyph-name="cc-stripe" horiz-adv-x="1317" d="M912.571 434.857c0-26.286-4-46.286-12-60.571-6.857-12.571-17.714-20-29.714-20-8.571 0-16.571 1.714-23.429 5.143v128c14.857 15.429 28 17.143 32.571 17.143 21.714 0 32.571-24 32.571-69.714zM1162.857 455.428h-62.857c2.286 38.286 12.571 56 32 56s29.714-18.286 30.857-56zM272 378.286c0 48-29.143 68-76.571 85.143v0c-25.143 9.143-38.857 16.571-38.857 28 0 9.714 8 14.857 21.714 14.857 26.286 0 52.571-9.714 70.857-18.857l10.286 64c-14.286 6.857-44 18.286-85.143 18.286-29.143 0-53.143-7.429-70.286-21.714-18.286-14.857-27.429-36.571-27.429-62.286 0-46.857 28.571-67.429 75.429-84 29.714-10.857 40-18.286 40-30.286 0-11.429-9.714-17.714-27.429-17.714-21.714 0-57.714 10.857-81.143 24.571l-10.286-64.571c20-11.429 57.143-23.429 96-23.429 30.857 0 56 7.429 73.714 21.143 19.429 15.429 29.143 37.714 29.143 66.857zM440.571 501.143l10.857 63.429h-54.857v77.143l-73.714-12-10.286-65.143-26.286-4.571-9.714-58.857h35.429v-125.143c0-32.571 8.571-54.857 25.143-68.571 14.286-11.429 34.857-17.143 63.429-17.143 22.286 0 35.429 4 45.143 6.286v67.429c-5.143-1.143-17.143-4-25.143-4-16.571 0-24 9.143-24 28.571v112.571h44zM621.143 486.857v79.429c-5.714 1.143-10.857 1.714-16 1.714-24 0-43.429-12.571-50.857-35.429l-5.714 32h-74.857v-269.143h85.714v174.857c10.857 13.143 26.286 17.714 46.857 17.714 4.571 0 9.143 0 14.857-1.143zM642.286 295.428h85.714v269.143h-85.714v-269.143zM997.714 437.714c0 45.714-8.571 80.571-25.714 102.286-15.429 20-36.571 29.714-63.429 29.714-24.571 0-46.286-10.286-66.857-32l-4.571 26.857h-75.429v-368.571l85.714 14.286v86.286c13.143-4 26.857-6.286 38.857-6.286 21.143 0 52.571 5.714 76.571 32 23.429 25.143 34.857 64 34.857 115.429zM730.286 636.571c0 25.143-20 45.143-45.143 45.143s-45.143-20-45.143-45.143 20-45.714 45.143-45.714 45.143 20.571 45.143 45.714zM1243.429 432.571c0 42.857-9.143 76.571-27.429 100.571-18.857 24-46.857 36.571-82.286 36.571-73.143 0-118.286-53.714-118.286-140.571 0-48 12-84.571 36-107.429 21.143-21.143 52-31.429 92-31.429 36.571 0 70.286 8.571 91.429 22.857l-9.143 58.857c-21.143-11.429-45.714-17.714-73.143-17.714-16.571 0-28 3.429-36 10.857-9.143 7.429-14.286 20-16 37.714h141.714c0.571 4 1.143 23.429 1.143 29.714zM1316.571 804.571v-731.429c0-40-33.143-73.143-73.143-73.143h-1170.286c-40 0-73.143 33.143-73.143 73.143v731.429c0 40 33.143 73.143 73.143 73.143h1170.286c40 0 73.143-33.143 73.143-73.143z" />
</font></defs></svg>