{
  "IcoMoonType": "selection",
  "icons": [
    {
      "icon": {
        "paths": [
          "M896 682l-342-106v234l86 64v64l-150-42-148 42v-64l84-64v-234l-340 106v-84l340-214v-234c0-36 28-64 64-64s64 28 64 64v234l342 214v84z"
        ],
        "attrs": [],
        "isMulticolor": false,
        "isMulticolor2": false,
        "tags": [
          "flight"
        ],
        "defaultCode": 58681,
        "grid": 24
      },
      "attrs": [],
      "properties": {
        "ligatures": "airplanemode_active, flight",
        "id": 32,
        "order": 2,
        "prevSize": 24,
        "code": 58681,
        "name": "flight"
      },
      "setIdx": 0,
      "setId": 2,
      "iconIdx": 32
    },
    {
      "icon": {
        "paths": [
          "M128 224l54-54 672 672-54 54-246-244v158l86 64v64l-150-42-148 42v-64l84-64v-234l-340 106v-84l254-160zM554 384l342 214v84l-136-42-334-334v-156c0-36 28-64 64-64s64 28 64 64v234z"
        ],
        "attrs": [],
        "isMulticolor": false,
        "isMulticolor2": false,
        "tags": [
          "airplanemode_inactive"
        ],
        "defaultCode": 57748,
        "grid": 24
      },
      "attrs": [],
      "properties": {
        "ligatures": "airplanemode_inactive",
        "id": 33,
        "order": 3,
        "prevSize": 24,
        "code": 57748,
        "name": "airplanemode_inactive"
      },
      "setIdx": 0,
      "setId": 2,
      "iconIdx": 33
    },
    {
      "icon": {
        "paths": [
          "M640 470h214l-172-172h-42v172zM746 746c36 0 64-28 64-64s-28-64-64-64-64 28-64 64 28 64 64 64zM554 470v-172h-170v172h170zM256 746c36 0 64-28 64-64s-28-64-64-64-64 28-64 64 28 64 64 64zM128 470h170v-172h-170v172zM726 214l256 256v212h-108c0 70-58 128-128 128s-128-58-128-128h-234c0 70-58 128-128 128s-128-58-128-128h-86v-384c0-48 40-84 86-84h598z"
        ],
        "attrs": [],
        "isMulticolor": false,
        "isMulticolor2": false,
        "tags": [
          "airport_shuttle"
        ],
        "defaultCode": 60220,
        "grid": 24
      },
      "attrs": [],
      "properties": {
        "ligatures": "airport_shuttle",
        "id": 35,
        "order": 4,
        "prevSize": 24,
        "code": 60220,
        "name": "airport_shuttle"
      },
      "setIdx": 0,
      "setId": 2,
      "iconIdx": 35
    },
    {
      "icon": {
        "paths": [
          "M810 874c82 0 150-66 150-148s-68-150-150-150-148 68-148 150 66 148 148 148zM810 512c120 0 214 94 214 214s-94 212-214 212-212-92-212-212 92-214 212-214zM460 448l94 98v264h-84v-212l-138-120c-18-12-24-34-24-60 0-22 6-42 24-60l120-120c12-18 34-24 60-24s46 6 68 24l82 82c38 38 88 64 152 64v86c-90 0-160-34-216-90l-34-34zM214 874c82 0 148-66 148-148s-66-150-148-150-150 68-150 150 68 148 150 148zM214 512c120 0 212 94 212 214s-92 212-212 212-214-92-214-212 94-214 214-214zM662 234c-46 0-86-38-86-84s40-86 86-86 84 40 84 86-38 84-84 84z"
        ],
        "attrs": [],
        "isMulticolor": false,
        "isMulticolor2": false,
        "tags": [
          "directions_bike"
        ],
        "defaultCode": 58671,
        "grid": 24
      },
      "attrs": [],
      "properties": {
        "ligatures": "directions_bike",
        "id": 217,
        "order": 5,
        "prevSize": 24,
        "code": 58671,
        "name": "directions_bike"
      },
      "setIdx": 0,
      "setId": 2,
      "iconIdx": 217
    },
    {
      "icon": {
        "paths": [
          "M256 256v170l256-84 256 84v-170h-512zM168 810l-80-284c-9.564-28.693 7.98-47.327 28-54l54-18v-198c0-46 40-86 86-86h128v-128h256v128h128c46 0 86 40 86 86v198l54 18c20.040 6.68 37.574 25.277 28 54l-80 284h-2c-68 0-130-36-172-84-42 48-102 84-170 84s-128-36-170-84c-42 48-104 84-172 84h-2zM854 896h84v86h-84c-58 0-118-14-172-42-108 56-232 56-340 0-54 28-114 42-172 42h-84v-86h84c60 0 120-20 172-56 104 72 236 72 340 0 52 36 112 56 172 56z"
        ],
        "attrs": [],
        "isMulticolor": false,
        "isMulticolor2": false,
        "tags": [
          "directions_boat"
        ],
        "defaultCode": 58674,
        "grid": 24
      },
      "attrs": [],
      "properties": {
        "ligatures": "directions_boat",
        "id": 218,
        "order": 6,
        "prevSize": 24,
        "code": 58674,
        "name": "directions_boat"
      },
      "setIdx": 0,
      "setId": 2,
      "iconIdx": 218
    },
    {
      "icon": {
        "paths": [
          "M768 470v-214h-512v214h512zM704 726c36 0 64-28 64-64s-28-64-64-64-64 28-64 64 28 64 64 64zM320 726c36 0 64-28 64-64s-28-64-64-64-64 28-64 64 28 64 64 64zM170 682v-426c0-150 154-170 342-170s342 20 342 170v426c0 38-18 72-44 96v76c0 24-18 42-42 42h-42c-24 0-44-18-44-42v-44h-340v44c0 24-20 42-44 42h-42c-24 0-42-18-42-42v-76c-26-24-44-58-44-96z"
        ],
        "attrs": [],
        "isMulticolor": false,
        "isMulticolor2": false,
        "tags": [
          "directions_bus"
        ],
        "defaultCode": 58672,
        "grid": 24
      },
      "attrs": [],
      "properties": {
        "ligatures": "directions_bus",
        "id": 219,
        "order": 7,
        "prevSize": 24,
        "code": 58672,
        "name": "directions_bus"
      },
      "setIdx": 0,
      "setId": 2,
      "iconIdx": 219
    },
    {
      "icon": {
        "paths": [
          "M214 470h596l-64-192h-468zM746 682c36 0 64-28 64-64s-28-64-64-64-64 28-64 64 28 64 64 64zM278 682c36 0 64-28 64-64s-28-64-64-64-64 28-64 64 28 64 64 64zM808 256l88 256v342c0 24-18 42-42 42h-44c-24 0-42-18-42-42v-44h-512v44c0 24-18 42-42 42h-44c-24 0-42-18-42-42v-342l88-256c8-26 34-42 62-42h468c28 0 54 16 62 42z"
        ],
        "attrs": [],
        "isMulticolor": false,
        "isMulticolor2": false,
        "tags": [
          "directions_car"
        ],
        "defaultCode": 58673,
        "grid": 24
      },
      "attrs": [],
      "properties": {
        "ligatures": "directions_car",
        "id": 220,
        "order": 8,
        "prevSize": 24,
        "code": 58673,
        "name": "directions_car"
      },
      "setIdx": 0,
      "setId": 2,
      "iconIdx": 220
    },
    {
      "icon": {
        "paths": [
          "M768 426v-212h-512v212h512zM512 726c46 0 86-40 86-86s-40-86-86-86-86 40-86 86 40 86 86 86zM170 662v-448c0-150 154-172 342-172s342 22 342 172v448c0 82-68 148-150 148l64 64v22h-512v-22l64-64c-82 0-150-66-150-148z"
        ],
        "attrs": [],
        "isMulticolor": false,
        "isMulticolor2": false,
        "tags": [
          "directions_railway"
        ],
        "defaultCode": 58676,
        "grid": 24
      },
      "attrs": [],
      "properties": {
        "ligatures": "directions_railway",
        "id": 221,
        "order": 9,
        "prevSize": 24,
        "code": 58676,
        "name": "directions_railway"
      },
      "setIdx": 0,
      "setId": 2,
      "iconIdx": 221
    },
    {
      "icon": {
        "paths": [
          "M422 826l-298-58 16-86 210 42 68-346-78 30v146h-84v-200l222-94c12 0 22-4 34-4 30 0 54 16 72 42l42 68c34 60 102 102 184 102v86c-94 0-178-42-234-106l-26 128 90 84v320h-86v-256l-90-84zM576 234c-46 0-86-40-86-86s40-84 86-84 84 38 84 84-38 86-84 86z"
        ],
        "attrs": [],
        "isMulticolor": false,
        "isMulticolor2": false,
        "tags": [
          "directions_run"
        ],
        "defaultCode": 58726,
        "grid": 24
      },
      "attrs": [],
      "properties": {
        "ligatures": "directions_run",
        "id": 222,
        "order": 10,
        "prevSize": 24,
        "code": 58726,
        "name": "directions_run"
      },
      "setIdx": 0,
      "setId": 2,
      "iconIdx": 222
    },
    {
      "icon": {
        "paths": [
          "M768 470v-214h-214v214h214zM704 726c36 0 64-28 64-64s-28-64-64-64-64 28-64 64 28 64 64 64zM470 470v-214h-214v214h214zM320 726c36 0 64-28 64-64s-28-64-64-64-64 28-64 64 28 64 64 64zM512 86c188 0 342 20 342 170v406c0 82-68 148-150 148l64 64v22h-512v-22l64-64c-82 0-150-66-150-148v-406c0-150 154-170 342-170z"
        ],
        "attrs": [],
        "isMulticolor": false,
        "isMulticolor2": false,
        "tags": [
          "directions_transit"
        ],
        "defaultCode": 58677,
        "grid": 24
      },
      "attrs": [],
      "properties": {
        "ligatures": "directions_subway, directions_transit",
        "id": 223,
        "order": 11,
        "prevSize": 24,
        "code": 58677,
        "name": "directions_transit"
      },
      "setIdx": 0,
      "setId": 2,
      "iconIdx": 223
    },
    {
      "icon": {
        "paths": [
          "M418 380l-120 602h90l78-342 88 86v256h86v-320l-90-86 26-128c56 64 140 106 234 106v-84c-82 0-148-44-182-104l-44-68c-18-26-42-42-72-42-12 0-22 4-34 4l-222 94v200h86v-144l76-30zM576 234c-46 0-86-38-86-84s40-86 86-86 86 40 86 86-40 84-86 84z"
        ],
        "attrs": [],
        "isMulticolor": false,
        "isMulticolor2": false,
        "tags": [
          "directions_walk"
        ],
        "defaultCode": 58678,
        "grid": 24
      },
      "attrs": [],
      "properties": {
        "ligatures": "directions_walk",
        "id": 224,
        "order": 12,
        "prevSize": 24,
        "code": 58678,
        "name": "directions_walk"
      },
      "setIdx": 0,
      "setId": 2,
      "iconIdx": 224
    },
    {
      "icon": {
        "paths": [
          "M214 426h596l-64-192h-468zM746 640c36 0 64-28 64-64s-28-64-64-64-64 28-64 64 28 64 64 64zM278 640c36 0 64-28 64-64s-28-64-64-64-64 28-64 64 28 64 64 64zM808 214l88 256v340c0 24-18 44-42 44h-44c-24 0-42-20-42-44v-42h-512v42c0 24-18 44-42 44h-44c-24 0-42-20-42-44v-340l88-256c8-26 34-44 62-44h468c28 0 54 18 62 44z"
        ],
        "attrs": [],
        "isMulticolor": false,
        "isMulticolor2": false,
        "tags": [
          "time_to_leave"
        ],
        "defaultCode": 58924,
        "grid": 24
      },
      "attrs": [],
      "properties": {
        "ligatures": "drive_eta, time_to_leave",
        "id": 238,
        "order": 13,
        "prevSize": 24,
        "code": 58924,
        "name": "time_to_leave"
      },
      "setIdx": 0,
      "setId": 2,
      "iconIdx": 238
    },
    {
      "icon": {
        "paths": [
          "M626 250c44 42 62 100 54 158l-2 18h-82l6-24c6.113-34.638-6.812-70.812-32-96-44-44-64-102-56-160l2-18h82l-4 26c-6 34 4 68 28 94zM796 250c44 42 64 100 56 158l-4 18h-80l4-24c6-34-4-68-28-94l-4-2c-44-44-64-102-56-160l4-18h80l-4 26c-6 34 4 68 28 94zM810 854v-256h-84v256h84zM640 854v-256h-86v256h86zM470 854v-256h-86v256h86zM298 854v-256h-84v256h84zM476 512h462v342c0 46-38 84-84 84h-684c-46 0-84-38-84-84v-342h128v-32c0-52 44-96 96-96 30.769 0 56.308 16.308 72 32l58 66c10 12 22 20 36 30zM214 256c0-48 36-86 84-86s86 38 86 86-38 86-86 86-84-38-84-86z"
        ],
        "attrs": [],
        "isMulticolor": false,
        "isMulticolor2": false,
        "tags": [
          "hot_tub"
        ],
        "defaultCode": 60230,
        "grid": 24
      },
      "attrs": [],
      "properties": {
        "ligatures": "hot_tub",
        "id": 387,
        "order": 16,
        "prevSize": 24,
        "code": 60230,
        "name": "hot_tub"
      },
      "setIdx": 0,
      "setId": 2,
      "iconIdx": 387
    },
    {
      "icon": {
        "paths": [
          "M810 298c94 0 172 78 172 172v384h-86v-128h-768v128h-86v-640h86v384h342v-300h340zM298 554c-70 0-128-58-128-128s58-128 128-128 128 58 128 128-58 128-128 128z"
        ],
        "attrs": [],
        "isMulticolor": false,
        "isMulticolor2": false,
        "tags": [
          "local_hotel"
        ],
        "defaultCode": 58697,
        "grid": 24
      },
      "attrs": [],
      "properties": {
        "ligatures": "hotel, local_hotel",
        "id": 388,
        "order": 15,
        "prevSize": 24,
        "code": 58697,
        "name": "local_hotel"
      },
      "setIdx": 0,
      "setId": 2,
      "iconIdx": 388
    },
    {
      "icon": {
        "paths": [
          "M896 682l-342-106v234l86 64v64l-150-42-148 42v-64l84-64v-234l-340 106v-84l340-214v-234c0-36 28-64 64-64s64 28 64 64v234l342 214v84z"
        ],
        "attrs": [],
        "isMulticolor": false,
        "isMulticolor2": false,
        "tags": [
          "local_airport"
        ],
        "defaultCode": 58685,
        "grid": 24
      },
      "attrs": [],
      "properties": {
        "ligatures": "local_airport",
        "id": 446,
        "order": 17,
        "prevSize": 24,
        "code": 58685,
        "name": "local_airport"
      },
      "setIdx": 0,
      "setId": 2,
      "iconIdx": 446
    },
    {
      "icon": {
        "paths": [
          "M768 790c36 0 64-28 64-64s-28-64-64-64-64 28-64 64 28 64 64 64zM832 406h-106v106h190zM256 790c36 0 64-28 64-64s-28-64-64-64-64 28-64 64 28 64 64 64zM854 342l128 170v214h-86c0 70-58 128-128 128s-128-58-128-128h-256c0 70-58 128-128 128s-128-58-128-128h-86v-470c0-46 40-86 86-86h598v172h128z"
        ],
        "attrs": [],
        "isMulticolor": false,
        "isMulticolor2": false,
        "tags": [
          "local_shipping"
        ],
        "defaultCode": 58712,
        "grid": 24
      },
      "attrs": [],
      "properties": {
        "ligatures": "local_shipping",
        "id": 467,
        "order": 20,
        "prevSize": 24,
        "code": 58712,
        "name": "local_shipping"
      },
      "setIdx": 0,
      "setId": 2,
      "iconIdx": 467
    },
    {
      "icon": {
        "paths": [
          "M214 470h596l-64-192h-468zM746 682c36 0 64-28 64-64s-28-64-64-64-64 28-64 64 28 64 64 64zM278 682c36 0 64-28 64-64s-28-64-64-64-64 28-64 64 28 64 64 64zM808 256l88 256v342c0 24-18 42-42 42h-44c-24 0-42-18-42-42v-44h-512v44c0 24-18 42-42 42h-44c-24 0-42-18-42-42v-342l88-256c8-26 34-42 62-42h106v-86h256v86h106c28 0 54 16 62 42z"
        ],
        "attrs": [],
        "isMulticolor": false,
        "isMulticolor2": false,
        "tags": [
          "local_taxi"
        ],
        "defaultCode": 58713,
        "grid": 24
      },
      "attrs": [],
      "properties": {
        "ligatures": "local_taxi",
        "id": 468,
        "order": 21,
        "prevSize": 24,
        "code": 58713,
        "name": "local_taxi"
      },
      "setIdx": 0,
      "setId": 2,
      "iconIdx": 468
    },
    {
      "icon": {
        "paths": [
          "M810 726c70 0 128-58 128-128s-58-128-128-128-128 58-128 128 58 128 128 128zM334 640h-120v-86h120c-18-50-66-84-120-84-70 0-128 58-128 128s58 128 128 128c54 0 102-36 120-86zM830 386c110 8 194 98 194 212 0 120-94 212-214 212s-212-92-212-212c0-26 4-52 12-76l-118 118h-70c-20 98-104 170-208 170-120 0-214-92-214-212s94-214 214-214h494l-86-86h-152v-84h188z"
        ],
        "attrs": [],
        "isMulticolor": false,
        "isMulticolor2": false,
        "tags": [
          "motorcycle"
        ],
        "defaultCode": 59675,
        "grid": 24
      },
      "attrs": [],
      "properties": {
        "ligatures": "motorcycle",
        "id": 503,
        "order": 22,
        "prevSize": 24,
        "code": 59675,
        "name": "motorcycle"
      },
      "setIdx": 0,
      "setId": 2,
      "iconIdx": 503
    },
    {
      "icon": {
        "paths": [
          "M896 896l-128 128-128-128v-64l-302-302c-14 2-28 2-40 2v-92c70 2 154-36 200-86l60-66c15.214-15.214 40.308-32 70-32h2c52 0 96 44 96 96v246c0 36-16 68-40 92l-152-152v-98c-26 22-62 44-98 60l268 268h64zM640 42c46 0 86 40 86 86s-40 86-86 86-86-40-86-86 40-86 86-86zM362 618l108 108h-86l-150 148-64-64z"
        ],
        "attrs": [],
        "isMulticolor": false,
        "isMulticolor2": false,
        "tags": [
          "rowing"
        ],
        "defaultCode": 59681,
        "grid": 24
      },
      "attrs": [],
      "properties": {
        "ligatures": "rowing",
        "id": 642,
        "order": 23,
        "prevSize": 24,
        "code": 59681,
        "name": "rowing"
      },
      "setIdx": 0,
      "setId": 2,
      "iconIdx": 642
    },
    {
      "icon": {
        "paths": [
          "M512 384c48 0 86-40 86-86 0-48-40-84-86-84-48 0-86 36-86 84 0 46 38 86 86 86zM512 598c48 0 86-40 86-86s-40-86-86-86c-48 0-86 40-86 86s38 86 86 86zM512 810c48 0 86-38 86-84s-40-86-86-86c-48 0-86 40-86 86s38 84 86 84zM854 426c0 80-54 146-128 166v48h128c0 80-54 144-128 164v50c0 24-20 42-44 42h-340c-24 0-44-18-44-42v-50c-74-20-128-84-128-164h128v-48c-74-20-128-86-128-166h128v-48c-74-20-128-84-128-164h128v-44c0-24 20-42 44-42h340c24 0 44 18 44 42v44h128c0 80-54 144-128 164v48h128z"
        ],
        "attrs": [],
        "isMulticolor": false,
        "isMulticolor2": false,
        "tags": [
          "traffic"
        ],
        "defaultCode": 58725,
        "grid": 24
      },
      "attrs": [],
      "properties": {
        "ligatures": "traffic",
        "id": 772,
        "order": 26,
        "prevSize": 24,
        "code": 58725,
        "name": "traffic"
      },
      "setIdx": 0,
      "setId": 2,
      "iconIdx": 772
    },
    {
      "icon": {
        "paths": [
          "M704 726c36 0 64-28 64-64s-28-64-64-64-64 28-64 64 28 64 64 64zM554 426h214v-170h-214v170zM470 426v-170h-214v170h214zM320 726c36 0 64-28 64-64s-28-64-64-64-64 28-64 64 28 64 64 64zM512 86c188 0 342 20 342 170v406c0 82-68 148-150 148l64 64v22h-86l-84-86h-162l-84 86h-96v-22l64-64c-82 0-150-66-150-148v-406c0-150 172-170 342-170z"
        ],
        "attrs": [],
        "isMulticolor": false,
        "isMulticolor2": false,
        "tags": [
          "train"
        ],
        "defaultCode": 58736,
        "grid": 24
      },
      "attrs": [],
      "properties": {
        "ligatures": "train",
        "id": 773,
        "order": 24,
        "prevSize": 24,
        "code": 58736,
        "name": "train"
      },
      "setIdx": 0,
      "setId": 2,
      "iconIdx": 773
    },
    {
      "icon": {
        "paths": [
          "M726 598v-214h-428v214h428zM512 790c36 0 64-28 64-64s-28-64-64-64-64 28-64 64 28 64 64 64zM810 722c0 72-38 132-110 132h4l64 64v20h-86l-84-84h-162l-84 84h-96v-20l68-68c-60-14-110-66-110-128v-360c0-118 120-144 254-148l34-64h-204v-64h428v64h-140l-32 64c146 4 256 28 256 148v360z"
        ],
        "attrs": [],
        "isMulticolor": false,
        "isMulticolor2": false,
        "tags": [
          "tram"
        ],
        "defaultCode": 58737,
        "grid": 24
      },
      "attrs": [],
      "properties": {
        "ligatures": "tram",
        "id": 774,
        "order": 25,
        "prevSize": 24,
        "code": 58737,
        "name": "tram"
      },
      "setIdx": 0,
      "setId": 2,
      "iconIdx": 774
    },
    {
      "icon": {
        "paths": [
          "M365.714 804.571c0-40-33.143-73.143-73.143-73.143s-73.143 33.143-73.143 73.143 33.143 73.143 73.143 73.143 73.143-33.143 73.143-73.143zM146.286 512h219.429v-146.286h-90.286c-2.286 0-10.857 3.429-12.571 5.143l-111.429 111.429c-1.714 1.714-5.143 10.286-5.143 12.571v17.143zM877.714 804.571c0-40-33.143-73.143-73.143-73.143s-73.143 33.143-73.143 73.143 33.143 73.143 73.143 73.143 73.143-33.143 73.143-73.143zM1024 182.857v585.143c0 42.286-44.571 36.571-73.143 36.571 0 80.571-65.714 146.286-146.286 146.286s-146.286-65.714-146.286-146.286h-219.429c0 80.571-65.714 146.286-146.286 146.286s-146.286-65.714-146.286-146.286h-36.571c-28.571 0-73.143 5.714-73.143-36.571 0-20 16.571-36.571 36.571-36.571v-182.857c0-40.571-5.714-85.714 25.714-117.143l113.143-113.143c14.286-14.286 41.714-25.714 62.286-25.714h91.429v-109.714c0-20 16.571-36.571 36.571-36.571h585.143c20 0 36.571 16.571 36.571 36.571z"
        ],
        "width": 1060.5714285714284,
        "attrs": [],
        "isMulticolor": false,
        "isMulticolor2": false,
        "tags": [
          "truck"
        ],
        "defaultCode": 61649,
        "grid": 14
      },
      "attrs": [],
      "properties": {
        "name": "truck",
        "id": 185,
        "order": 28,
        "prevSize": 28,
        "code": 61649
      },
      "setIdx": 1,
      "setId": 1,
      "iconIdx": 185
    },
    {
      "icon": {
        "paths": [
          "M274.286 621.714c0-50.286-41.143-91.429-91.429-91.429s-91.429 41.143-91.429 91.429 41.143 91.429 91.429 91.429 91.429-41.143 91.429-91.429zM294.857 438.857h580.571l-50.857-204c-1.714-6.286-13.143-15.429-20-15.429h-438.857c-6.857 0-18.286 9.143-20 15.429zM1078.857 621.714c0-50.286-41.143-91.429-91.429-91.429s-91.429 41.143-91.429 91.429 41.143 91.429 91.429 91.429 91.429-41.143 91.429-91.429zM1170.286 566.857v219.429c0 10.286-8 18.286-18.286 18.286h-54.857v73.143c0 60.571-49.143 109.714-109.714 109.714s-109.714-49.143-109.714-109.714v-73.143h-585.143v73.143c0 60.571-49.143 109.714-109.714 109.714s-109.714-49.143-109.714-109.714v-73.143h-54.857c-10.286 0-18.286-8-18.286-18.286v-219.429c0-70.857 57.143-128 128-128h16l60-239.429c17.714-72 87.429-126.286 161.714-126.286h438.857c74.286 0 144 54.286 161.714 126.286l60 239.429h16c70.857 0 128 57.143 128 128z"
        ],
        "width": 1170.2857142857142,
        "attrs": [],
        "isMulticolor": false,
        "isMulticolor2": false,
        "tags": [
          "automobile",
          "car"
        ],
        "defaultCode": 61881,
        "grid": 14
      },
      "attrs": [],
      "properties": {
        "name": "automobile, car",
        "id": 400,
        "order": 30,
        "prevSize": 28,
        "code": 61881
      },
      "setIdx": 1,
      "setId": 1,
      "iconIdx": 400
    },
    {
      "icon": {
        "paths": [
          "M1042.286 512c70.857 0 128 57.143 128 128v219.429c0 10.286-8 18.286-18.286 18.286h-54.857v36.571c0 60.571-49.143 109.714-109.714 109.714s-109.714-49.143-109.714-109.714v-36.571h-585.143v36.571c0 60.571-49.143 109.714-109.714 109.714s-109.714-49.143-109.714-109.714v-36.571h-54.857c-10.286 0-18.286-8-18.286-18.286v-219.429c0-70.857 57.143-128 128-128h16l60-239.429c17.714-72 87.429-126.286 161.714-126.286h73.143v-128c0-10.286 8-18.286 18.286-18.286h256c10.286 0 18.286 8 18.286 18.286v128h73.143c74.286 0 144 54.286 161.714 126.286l60 239.429h16zM182.857 786.286c50.286 0 91.429-41.143 91.429-91.429s-41.143-91.429-91.429-91.429-91.429 41.143-91.429 91.429 41.143 91.429 91.429 91.429zM294.857 512h580.571l-50.857-204c-1.714-6.286-13.143-15.429-20-15.429h-438.857c-6.857 0-18.286 9.143-20 15.429zM987.429 786.286c50.286 0 91.429-41.143 91.429-91.429s-41.143-91.429-91.429-91.429-91.429 41.143-91.429 91.429 41.143 91.429 91.429 91.429z"
        ],
        "width": 1170.2857142857142,
        "attrs": [],
        "isMulticolor": false,
        "isMulticolor2": false,
        "tags": [
          "cab",
          "taxi"
        ],
        "defaultCode": 61882,
        "grid": 14
      },
      "attrs": [],
      "properties": {
        "name": "cab, taxi",
        "id": 401,
        "order": 31,
        "prevSize": 28,
        "code": 61882
      },
      "setIdx": 1,
      "setId": 1,
      "iconIdx": 401
    },
    {
      "icon": {
        "paths": [
          "M435.429 658.286h-179.429c-30.286 0-47.429-34.286-29.143-58.286l107.429-143.429c-24-11.429-50.286-17.714-78.286-17.714-100.571 0-182.857 82.286-182.857 182.857s82.286 182.857 182.857 182.857c88.571 0 162.286-62.857 179.429-146.286zM329.143 585.143h106.286c-6.857-32-21.714-61.143-42.857-84.571zM603.429 585.143l164.571-219.429h-274.286l-56.571 75.429c38.286 37.714 64 88 72 144h94.286zM1243.429 621.714c0-100.571-82.286-182.857-182.857-182.857-24.571 0-47.429 5.143-69.143 13.714l99.429 148.571c11.429 17.143 6.857 40-9.714 50.857-6.286 4.571-13.714 6.286-20.571 6.286-12 0-23.429-5.714-30.286-16.571l-99.429-148.571c-32.571 33.143-53.143 78.286-53.143 128.571 0 100.571 82.286 182.857 182.857 182.857s182.857-82.286 182.857-182.857zM1316.571 621.714c0 141.143-114.857 256-256 256s-256-114.857-256-256c0-75.429 33.143-143.429 85.143-190.286l-37.143-56-201.714 268c-6.857 9.714-17.714 14.857-29.143 14.857h-112.571c-17.714 124-124 219.429-253.143 219.429-141.143 0-256-114.857-256-256s114.857-256 256-256c44.571 0 86.286 11.429 122.857 31.429l78.286-104.571h-128c-20 0-36.571-16.571-36.571-36.571s16.571-36.571 36.571-36.571h219.429v73.143h248.571l-48.571-73.143h-126.857c-20 0-36.571-16.571-36.571-36.571s16.571-36.571 36.571-36.571h146.286c12 0 23.429 6.286 30.286 16l152.571 228.571c33.143-16 70.286-25.143 109.714-25.143 141.143 0 256 114.857 256 256z"
        ],
        "width": 1316.5714285714284,
        "attrs": [],
        "isMulticolor": false,
        "isMulticolor2": false,
        "tags": [
          "bicycle"
        ],
        "defaultCode": 61958,
        "grid": 14
      },
      "attrs": [],
      "properties": {
        "name": "bicycle",
        "id": 472,
        "order": 35,
        "prevSize": 28,
        "code": 61958
      },
      "setIdx": 1,
      "setId": 1,
      "iconIdx": 472
    },
    {
      "icon": {
        "paths": [
          "M219.429 694.857c0-40.571-32.571-73.143-73.143-73.143s-73.143 32.571-73.143 73.143 32.571 73.143 73.143 73.143 73.143-32.571 73.143-73.143zM804.571 694.857c0-40.571-32.571-73.143-73.143-73.143s-73.143 32.571-73.143 73.143 32.571 73.143 73.143 73.143 73.143-32.571 73.143-73.143zM778.286 468.571l-41.143-219.429c-3.429-17.143-18.286-29.714-36-29.714h-524.571c-17.714 0-32.571 12.571-36 29.714l-41.143 219.429c-4 22.857 13.143 43.429 36 43.429h606.857c22.857 0 40-20.571 36-43.429zM649.143 118.857c0-15.429-12-27.429-27.429-27.429h-365.714c-14.857 0-27.429 12-27.429 27.429s12.571 27.429 27.429 27.429h365.714c15.429 0 27.429-12 27.429-27.429zM877.714 533.143v344.571h-73.143v73.143c0 40.571-32.571 73.143-73.143 73.143s-73.143-32.571-73.143-73.143v-73.143h-438.857v73.143c0 40.571-32.571 73.143-73.143 73.143s-73.143-32.571-73.143-73.143v-73.143h-73.143v-344.571c0-46.857 4-81.714 14.286-127.429l58.857-259.429c10.857-91.429 170.857-146.286 365.714-146.286s354.857 54.857 365.714 146.286l60 259.429c10.286 45.714 13.143 80.571 13.143 127.429z"
        ],
        "width": 877.7142857142857,
        "attrs": [],
        "isMulticolor": false,
        "isMulticolor2": false,
        "tags": [
          "bus"
        ],
        "defaultCode": 61959,
        "grid": 14
      },
      "attrs": [],
      "properties": {
        "name": "bus",
        "id": 473,
        "order": 34,
        "prevSize": 28,
        "code": 61959
      },
      "setIdx": 1,
      "setId": 1,
      "iconIdx": 473
    },
    {
      "icon": {
        "paths": [
          "M1034.857 888.571c14.286-14.286 37.143-14.286 51.429 0l73.143 73.143-51.429 51.429-47.429-47.429-47.429 47.429c-6.857 7.429-16.571 10.857-25.714 10.857s-18.857-3.429-25.714-10.857l-47.429-47.429-47.429 47.429c-14.286 14.286-37.143 14.286-51.429 0l-47.429-47.429-47.429 47.429c-14.286 14.286-37.143 14.286-51.429 0l-47.429-47.429-47.429 47.429c-14.286 14.286-37.143 14.286-51.429 0l-47.429-47.429-47.429 47.429c-14.286 14.286-37.143 14.286-51.429 0l-47.429-47.429-47.429 47.429c-14.286 14.286-37.143 14.286-51.429 0l-47.429-47.429-47.429 47.429c-14.286 14.286-37.143 14.286-51.429 0l-73.143-73.143 51.429-51.429 47.429 47.429 47.429-47.429c14.286-14.286 37.143-14.286 51.429 0l47.429 47.429 47.429-47.429c14.286-14.286 37.143-14.286 51.429 0l47.429 47.429 47.429-47.429c14.286-14.286 37.143-14.286 51.429 0l47.429 47.429 47.429-47.429c14.286-14.286 37.143-14.286 51.429 0l47.429 47.429 47.429-47.429c14.286-14.286 37.143-14.286 51.429 0l47.429 47.429 47.429-47.429c14.286-14.286 37.143-14.286 51.429 0l47.429 47.429zM135.429 866.857c-14.286 14.286-37.143 14.286-51.429 0l-73.143-73.143 51.429-51.429 47.429 46.857 47.429-46.857c14.286-14.286 37.143-14.286 51.429 0l47.429 46.857 36.571-36.571v-167.429l-120-179.429c-13.143-20-4-47.429 18.857-55.429l101.143-33.143v-170.857h73.143v-73.143h146.286v-73.143h146.286v73.143h146.286v73.143h73.143v170.857l101.143 33.143c22.857 8 32 35.429 18.857 55.429l-120 179.429v167.429l10.857-10.286c14.286-14.286 37.143-14.286 51.429 0l47.429 46.857 47.429-46.857c14.286-14.286 37.143-14.286 51.429 0l73.143 73.143-51.429 51.429-47.429-47.429-47.429 47.429c-6.857 7.429-16.571 10.857-25.714 10.857s-18.857-3.429-25.714-10.857l-47.429-47.429-47.429 47.429c-14.286 14.286-37.143 14.286-51.429 0l-47.429-47.429-47.429 47.429c-14.286 14.286-37.143 14.286-51.429 0l-47.429-47.429-47.429 47.429c-14.286 14.286-37.143 14.286-51.429 0l-47.429-47.429-47.429 47.429c-14.286 14.286-37.143 14.286-51.429 0l-47.429-47.429-47.429 47.429c-14.286 14.286-37.143 14.286-51.429 0l-47.429-47.429zM365.714 219.429v73.143l219.429-73.143 219.429 73.143v-73.143h-73.143v-73.143h-292.571v73.143h-73.143z"
        ],
        "width": 1170.2857142857142,
        "attrs": [],
        "isMulticolor": false,
        "isMulticolor2": false,
        "tags": [
          "ship"
        ],
        "defaultCode": 61978,
        "grid": 14
      },
      "attrs": [],
      "properties": {
        "name": "ship",
        "id": 491,
        "order": 37,
        "prevSize": 28,
        "code": 61978
      },
      "setIdx": 1,
      "setId": 1,
      "iconIdx": 491
    },
    {
      "icon": {
        "paths": [
          "M1314.857 592c18.286 160.571-112.571 295.429-272 285.143-122.286-8-224-105.714-236.571-228-9.143-86.857 25.143-165.143 83.429-217.714l-40.571-61.143c-72 60-117.714 149.714-117.714 250.286 0 20.571-16 37.714-36.571 37.714h-185.714c-17.714 124-124 219.429-253.143 219.429-141.143 0-256-114.857-256-256s114.857-256 256-256c30.286 0 59.429 5.714 86.857 15.429l13.714-25.714c-44-39.429-101.714-62.857-173.714-62.857h-36.571c-20 0-36.571-16.571-36.571-36.571s16.571-36.571 36.571-36.571h73.143c128 0 193.143 52.571 219.429 73.143h358.286l-48.571-73.143h-126.857c-22.286 0-40-20-36-42.857 2.857-17.714 20-30.286 37.714-30.286h144.571c12 0 23.429 6.286 30.286 16l40 60 65.143-65.143c6.857-6.857 16.571-10.857 26.286-10.857h57.714c20 0 36.571 16.571 36.571 36.571v73.143c0 20-16.571 36.571-36.571 36.571h-102.286l65.714 98.286c46.286-22.286 100-31.429 157.143-20.571 109.143 20 194.286 111.429 206.857 221.714zM256 804.571c88.571 0 162.286-62.857 179.429-146.286h-179.429c-12.571 0-24.571-6.857-31.429-17.714-6.286-10.857-6.857-24.571-0.571-36l84-158.286c-16.571-4.571-33.714-7.429-52-7.429-100.571 0-182.857 82.286-182.857 182.857s82.286 182.857 182.857 182.857zM1060.571 804.571c100.571 0 182.857-82.286 182.857-182.857s-82.286-182.857-182.857-182.857c-24.571 0-47.429 5.143-69.143 13.714l99.429 148.571c11.429 17.143 6.857 40-9.714 50.857-6.286 4.571-13.714 6.286-20.571 6.286-12 0-23.429-5.714-30.286-16.571l-99.429-148.571c-32.571 33.143-53.143 78.286-53.143 128.571 0 100.571 82.286 182.857 182.857 182.857z"
        ],
        "width": 1333.174857142857,
        "attrs": [],
        "isMulticolor": false,
        "isMulticolor2": false,
        "tags": [
          "motorcycle"
        ],
        "defaultCode": 61980,
        "grid": 14
      },
      "attrs": [],
      "properties": {
        "name": "motorcycle2",
        "id": 493,
        "order": 36,
        "prevSize": 28,
        "code": 61980
      },
      "setIdx": 1,
      "setId": 1,
      "iconIdx": 493
    },
    {
      "icon": {
        "paths": [
          "M621.714 0c141.143 0 256 81.714 256 182.857v512c0 98.857-109.143 178.857-246.286 182.286l121.714 115.429c12 11.429 4 31.429-12.571 31.429h-603.429c-16.571 0-24.571-20-12.571-31.429l121.714-115.429c-137.143-3.429-246.286-83.429-246.286-182.286v-512c0-101.143 114.857-182.857 256-182.857h365.714zM438.857 768c60.571 0 109.714-49.143 109.714-109.714s-49.143-109.714-109.714-109.714-109.714 49.143-109.714 109.714 49.143 109.714 109.714 109.714zM768 438.857v-292.571h-658.286v292.571h658.286z"
        ],
        "width": 877.7142857142857,
        "attrs": [],
        "isMulticolor": false,
        "isMulticolor2": false,
        "tags": [
          "train"
        ],
        "defaultCode": 62008,
        "grid": 14
      },
      "attrs": [],
      "properties": {
        "name": "train2",
        "id": 517,
        "order": 33,
        "prevSize": 28,
        "code": 62008
      },
      "setIdx": 1,
      "setId": 1,
      "iconIdx": 517
    },
    {
      "icon": {
        "paths": [
          "M621.714 0c141.143 0 256 81.714 256 182.857v512c0 98.857-109.143 178.857-246.286 182.286l121.714 115.429c12 11.429 4 31.429-12.571 31.429h-603.429c-16.571 0-24.571-20-12.571-31.429l121.714-115.429c-137.143-3.429-246.286-83.429-246.286-182.286v-512c0-101.143 114.857-182.857 256-182.857h365.714zM164.571 749.714c50.286 0 91.429-41.143 91.429-91.429s-41.143-91.429-91.429-91.429-91.429 41.143-91.429 91.429 41.143 91.429 91.429 91.429zM402.286 438.857v-292.571h-310.857v292.571h310.857zM713.143 749.714c50.286 0 91.429-41.143 91.429-91.429s-41.143-91.429-91.429-91.429-91.429 41.143-91.429 91.429 41.143 91.429 91.429 91.429zM804.571 438.857v-292.571h-329.143v292.571h329.143z"
        ],
        "width": 877.7142857142857,
        "attrs": [],
        "isMulticolor": false,
        "isMulticolor2": false,
        "tags": [
          "subway"
        ],
        "defaultCode": 62009,
        "grid": 14
      },
      "attrs": [],
      "properties": {
        "name": "subway",
        "id": 518,
        "order": 32,
        "prevSize": 28,
        "code": 62009
      },
      "setIdx": 1,
      "setId": 1,
      "iconIdx": 518
    },
    {
      "icon": {
        "paths": [
          "M768 639.968l-182.82-182.822 438.82-329.15-128.010-127.996-548.52 219.442-172.7-172.706c-49.78-49.778-119.302-61.706-154.502-26.508-35.198 35.198-23.268 104.726 26.51 154.5l172.686 172.684-219.464 548.582 127.99 128.006 329.19-438.868 182.826 182.828v255.98h127.994l63.992-191.988 191.988-63.996v-127.992l-255.98 0.004z"
        ],
        "attrs": [],
        "isMulticolor": false,
        "isMulticolor2": false,
        "tags": [
          "airplane",
          "travel",
          "flight",
          "plane",
          "transport",
          "fly",
          "vacation"
        ],
        "defaultCode": 59823,
        "grid": 16
      },
      "attrs": [],
      "properties": {
        "ligatures": "airplane, travel",
        "name": "airplane",
        "id": 175,
        "order": 38,
        "prevSize": 32,
        "code": 59823
      },
      "setIdx": 2,
      "setId": 0,
      "iconIdx": 175
    },
    {
      "icon": {
        "paths": [
          "M1024 576l-128-256h-192v-128c0-35.2-28.8-64-64-64h-576c-35.2 0-64 28.8-64 64v512l64 64h81.166c-10.898 18.832-17.166 40.678-17.166 64 0 70.692 57.308 128 128 128s128-57.308 128-128c0-23.322-6.268-45.168-17.166-64h354.334c-10.898 18.832-17.168 40.678-17.168 64 0 70.692 57.308 128 128 128s128-57.308 128-128c0-23.322-6.27-45.168-17.168-64h81.168v-192zM704 576v-192h132.668l96 192h-228.668z"
        ],
        "attrs": [],
        "isMulticolor": false,
        "isMulticolor2": false,
        "tags": [
          "truck",
          "transit",
          "transport",
          "delivery",
          "vehicle"
        ],
        "defaultCode": 59824,
        "grid": 16
      },
      "attrs": [],
      "properties": {
        "ligatures": "truck, transit",
        "name": "truck2",
        "id": 176,
        "order": 39,
        "prevSize": 32,
        "code": 59824
      },
      "setIdx": 2,
      "setId": 0,
      "iconIdx": 176
    }
  ],
  "height": 1024,
  "metadata": {
    "name": "icomoon"
  },
  "preferences": {
    "showGlyphs": true,
    "showCodes": true,
    "showQuickUse": true,
    "showQuickUse2": true,
    "showSVGs": true,
    "fontPref": {
      "prefix": "icon-",
      "metadata": {
        "fontFamily": "icomoon"
      },
      "metrics": {
        "emSize": 1024,
        "baseline": 6.25,
        "whitespace": 50
      },
      "embed": false
    },
    "imagePref": {
      "prefix": "icon-",
      "png": true,
      "useClassSelector": true,
      "color": 0,
      "bgColor": 16777215
    },
    "historySize": 50
  }
}