{
  "IcoMoonType": "selection",
  "icons": [
    {
      "icon": {
        "paths": [
          "M512 1024c-282.77 0-512-229.23-512-512s229.23-512 512-512v0c282.77 0 512 229.23 512 512s-229.23 512-512 512v0zM512 921.6c226.216 0 409.6-183.384 409.6-409.6s-183.384-409.6-409.6-409.6v0c-226.216 0-409.6 183.384-409.6 409.6s183.384 409.6 409.6 409.6v0zM409.6 512v-256h204.8v256h153.6l-256 256-256-256h153.6z"
        ],
        "attrs": [],
        "isMulticolor": false,
        "isMulticolor2": false,
        "tags": [
          "arrow-outline-down"
        ],
        "grid": 20
      },
      "attrs": [],
      "properties": {
        "id": 15,
        "order": 4,
        "prevSize": 20,
        "code": 59648,
        "name": "arrow-outline-down"
      },
      "setIdx": 0,
      "setId": 4,
      "iconIdx": 14
    },
    {
      "icon": {
        "paths": [
          "M0 512c0-282.77 229.23-512 512-512s512 229.23 512 512v0c0 282.77-229.23 512-512 512s-512-229.23-512-512v0zM102.4 512c0 226.216 183.384 409.6 409.6 409.6s409.6-183.384 409.6-409.6v0c0-226.216-183.384-409.6-409.6-409.6s-409.6 183.384-409.6 409.6v0zM512 409.6h256v204.8h-256v153.6l-256-256 256-256v153.6z"
        ],
        "attrs": [],
        "isMulticolor": false,
        "isMulticolor2": false,
        "tags": [
          "arrow-outline-left"
        ],
        "grid": 20
      },
      "attrs": [],
      "properties": {
        "id": 16,
        "order": 5,
        "prevSize": 20,
        "code": 59649,
        "name": "arrow-outline-left"
      },
      "setIdx": 0,
      "setId": 4,
      "iconIdx": 15
    },
    {
      "icon": {
        "paths": [
          "M1024 512c0 282.77-229.23 512-512 512s-512-229.23-512-512v0c0-282.77 229.23-512 512-512s512 229.23 512 512v0zM921.6 512c0-226.216-183.384-409.6-409.6-409.6s-409.6 183.384-409.6 409.6v0c0 226.216 183.384 409.6 409.6 409.6s409.6-183.384 409.6-409.6v0zM512 614.4h-256v-204.8h256v-153.6l256 256-256 256v-153.6z"
        ],
        "attrs": [],
        "isMulticolor": false,
        "isMulticolor2": false,
        "tags": [
          "arrow-outline-right"
        ],
        "grid": 20
      },
      "attrs": [],
      "properties": {
        "id": 17,
        "order": 6,
        "prevSize": 20,
        "code": 59650,
        "name": "arrow-outline-right"
      },
      "setIdx": 0,
      "setId": 4,
      "iconIdx": 16
    },
    {
      "icon": {
        "paths": [
          "M512 0c282.77 0 512 229.23 512 512s-229.23 512-512 512v0c-282.77 0-512-229.23-512-512s229.23-512 512-512v0zM512 102.4c-226.216 0-409.6 183.384-409.6 409.6s183.384 409.6 409.6 409.6v0c226.216 0 409.6-183.384 409.6-409.6s-183.384-409.6-409.6-409.6v0zM614.4 512v256h-204.8v-256h-153.6l256-256 256 256h-153.6z"
        ],
        "attrs": [],
        "isMulticolor": false,
        "isMulticolor2": false,
        "tags": [
          "arrow-outline-up"
        ],
        "grid": 20
      },
      "attrs": [],
      "properties": {
        "id": 18,
        "order": 7,
        "prevSize": 20,
        "code": 59651,
        "name": "arrow-outline-up"
      },
      "setIdx": 0,
      "setId": 4,
      "iconIdx": 17
    },
    {
      "icon": {
        "paths": [
          "M358.4 512v-409.6h307.2v409.6h256l-409.6 409.6-409.6-409.6h256z"
        ],
        "attrs": [],
        "isMulticolor": false,
        "isMulticolor2": false,
        "tags": [
          "arrow-thick-down"
        ],
        "grid": 20
      },
      "attrs": [],
      "properties": {
        "id": 20,
        "order": 9,
        "prevSize": 20,
        "code": 59652,
        "name": "arrow-thick-down"
      },
      "setIdx": 0,
      "setId": 4,
      "iconIdx": 19
    },
    {
      "icon": {
        "paths": [
          "M512 665.6h409.6v-307.2h-409.6v-256l-409.6 409.6 409.6 409.6v-256z"
        ],
        "attrs": [],
        "isMulticolor": false,
        "isMulticolor2": false,
        "tags": [
          "arrow-thick-left"
        ],
        "grid": 20
      },
      "attrs": [],
      "properties": {
        "id": 21,
        "order": 10,
        "prevSize": 20,
        "code": 59653,
        "name": "arrow-thick-left"
      },
      "setIdx": 0,
      "setId": 4,
      "iconIdx": 20
    },
    {
      "icon": {
        "paths": [
          "M512 358.4h-409.6v307.2h409.6v256l409.6-409.6-409.6-409.6v256z"
        ],
        "attrs": [],
        "isMulticolor": false,
        "isMulticolor2": false,
        "tags": [
          "arrow-thick-right"
        ],
        "grid": 20
      },
      "attrs": [],
      "properties": {
        "id": 22,
        "order": 11,
        "prevSize": 20,
        "code": 59654,
        "name": "arrow-thick-right"
      },
      "setIdx": 0,
      "setId": 4,
      "iconIdx": 21
    },
    {
      "icon": {
        "paths": [
          "M358.4 512v409.6h307.2v-409.6h256l-409.6-409.6-409.6 409.6h256z"
        ],
        "attrs": [],
        "isMulticolor": false,
        "isMulticolor2": false,
        "tags": [
          "arrow-thick-up"
        ],
        "grid": 20
      },
      "attrs": [],
      "properties": {
        "id": 23,
        "order": 12,
        "prevSize": 20,
        "code": 59655,
        "name": "arrow-thick-up"
      },
      "setIdx": 0,
      "setId": 4,
      "iconIdx": 22
    },
    {
      "icon": {
        "paths": [
          "M460.8 828.006l-310.835-310.835-72.397 72.397 434.432 434.432 434.432-434.432-72.397-72.397-310.835 310.835v-828.006h-102.4z"
        ],
        "attrs": [],
        "isMulticolor": false,
        "isMulticolor2": false,
        "tags": [
          "arrow-thin-down"
        ],
        "grid": 20
      },
      "attrs": [],
      "properties": {
        "id": 24,
        "order": 87,
        "prevSize": 20,
        "code": 59656,
        "name": "arrow-thin-down"
      },
      "setIdx": 0,
      "setId": 4,
      "iconIdx": 23
    },
    {
      "icon": {
        "paths": [
          "M195.994 460.8l310.835-310.835-72.397-72.397-434.432 434.432 434.432 434.432 72.397-72.397-310.835-310.835h828.006v-102.4h-828.006z"
        ],
        "attrs": [],
        "isMulticolor": false,
        "isMulticolor2": false,
        "tags": [
          "arrow-thin-left"
        ],
        "grid": 20
      },
      "attrs": [],
      "properties": {
        "id": 25,
        "order": 86,
        "prevSize": 20,
        "code": 59657,
        "name": "arrow-thin-left"
      },
      "setIdx": 0,
      "setId": 4,
      "iconIdx": 24
    },
    {
      "icon": {
        "paths": [
          "M828.006 460.8l-310.835-310.835 72.397-72.397 434.432 434.432-434.432 434.432-72.397-72.397 310.835-310.835h-828.006v-102.4z"
        ],
        "attrs": [],
        "isMulticolor": false,
        "isMulticolor2": false,
        "tags": [
          "arrow-thin-right"
        ],
        "grid": 20
      },
      "attrs": [],
      "properties": {
        "id": 26,
        "order": 15,
        "prevSize": 20,
        "code": 59658,
        "name": "arrow-thin-right"
      },
      "setIdx": 0,
      "setId": 4,
      "iconIdx": 25
    },
    {
      "icon": {
        "paths": [
          "M460.8 195.994l-310.835 310.835-72.397-72.397 434.432-434.432 434.432 434.432-72.397 72.397-310.835-310.835v828.006h-102.4v-828.006z"
        ],
        "attrs": [],
        "isMulticolor": false,
        "isMulticolor2": false,
        "tags": [
          "arrow-thin-up"
        ],
        "grid": 20
      },
      "attrs": [],
      "properties": {
        "id": 27,
        "order": 16,
        "prevSize": 20,
        "code": 59659,
        "name": "arrow-thin-up"
      },
      "setIdx": 0,
      "setId": 4,
      "iconIdx": 26
    },
    {
      "icon": {
        "paths": [
          "M475.802 663.040l36.198 36.198 289.638-289.638-72.397-72.397-217.242 217.19-217.242-217.19-72.397 72.397z"
        ],
        "attrs": [],
        "isMulticolor": false,
        "isMulticolor2": false,
        "tags": [
          "cheveron-down"
        ],
        "grid": 20
      },
      "attrs": [],
      "properties": {
        "id": 76,
        "order": 81,
        "prevSize": 20,
        "code": 59660,
        "name": "cheveron-down"
      },
      "setIdx": 0,
      "setId": 4,
      "iconIdx": 75
    },
    {
      "icon": {
        "paths": [
          "M360.96 475.802l-36.198 36.198 289.638 289.638 72.397-72.397-217.19-217.242 217.19-217.242-72.397-72.397z"
        ],
        "attrs": [],
        "isMulticolor": false,
        "isMulticolor2": false,
        "tags": [
          "cheveron-left"
        ],
        "grid": 20
      },
      "attrs": [],
      "properties": {
        "id": 77,
        "order": 31,
        "prevSize": 20,
        "code": 59661,
        "name": "cheveron-left"
      },
      "setIdx": 0,
      "setId": 4,
      "iconIdx": 76
    },
    {
      "icon": {
        "paths": [
          "M1024 512c0 282.77-229.23 512-512 512s-512-229.23-512-512v0c0-282.77 229.23-512 512-512s512 229.23 512 512v0zM512 102.4c-226.216 0-409.6 183.384-409.6 409.6s183.384 409.6 409.6 409.6v0c226.216 0 409.6-183.384 409.6-409.6s-183.384-409.6-409.6-409.6v0zM476.16 642.048l-181.76-181.248 72.192-72.192 145.408 143.872 144.896-144.384 72.192 72.704-217.088 217.088-35.84-35.84z"
        ],
        "attrs": [],
        "isMulticolor": false,
        "isMulticolor2": false,
        "tags": [
          "cheveron-outline-down"
        ],
        "grid": 20
      },
      "attrs": [],
      "properties": {
        "id": 78,
        "order": 32,
        "prevSize": 20,
        "code": 59662,
        "name": "cheveron-outline-down"
      },
      "setIdx": 0,
      "setId": 4,
      "iconIdx": 77
    },
    {
      "icon": {
        "paths": [
          "M512 1024c-282.77 0-512-229.23-512-512s229.23-512 512-512v0c282.77 0 512 229.23 512 512s-229.23 512-512 512v0zM921.6 512c0-226.216-183.384-409.6-409.6-409.6s-409.6 183.384-409.6 409.6v0c0 226.216 183.384 409.6 409.6 409.6s409.6-183.384 409.6-409.6v0zM381.952 476.16l181.248-181.76 72.192 72.192-143.872 145.408 144.384 144.896-72.704 72.192-217.088-217.088 35.84-35.84z"
        ],
        "attrs": [],
        "isMulticolor": false,
        "isMulticolor2": false,
        "tags": [
          "cheveron-outline-left"
        ],
        "grid": 20
      },
      "attrs": [],
      "properties": {
        "id": 79,
        "order": 33,
        "prevSize": 20,
        "code": 59663,
        "name": "cheveron-outline-left"
      },
      "setIdx": 0,
      "setId": 4,
      "iconIdx": 78
    },
    {
      "icon": {
        "paths": [
          "M512 0c282.77 0 512 229.23 512 512s-229.23 512-512 512v0c-282.77 0-512-229.23-512-512s229.23-512 512-512v0zM102.4 512c0 226.216 183.384 409.6 409.6 409.6s409.6-183.384 409.6-409.6v0c0-226.216-183.384-409.6-409.6-409.6s-409.6 183.384-409.6 409.6v0zM642.048 547.84l-181.248 181.76-72.192-72.192 143.872-145.408-143.36-144.896 71.68-72.192 217.088 217.088-35.84 35.84z"
        ],
        "attrs": [],
        "isMulticolor": false,
        "isMulticolor2": false,
        "tags": [
          "cheveron-outline-right"
        ],
        "grid": 20
      },
      "attrs": [],
      "properties": {
        "id": 80,
        "order": 34,
        "prevSize": 20,
        "code": 59664,
        "name": "cheveron-outline-right"
      },
      "setIdx": 0,
      "setId": 4,
      "iconIdx": 79
    },
    {
      "icon": {
        "paths": [
          "M0 512c0-282.77 229.23-512 512-512s512 229.23 512 512v0c0 282.77-229.23 512-512 512s-512-229.23-512-512v0zM512 921.6c226.216 0 409.6-183.384 409.6-409.6s-183.384-409.6-409.6-409.6v0c-226.216 0-409.6 183.384-409.6 409.6s183.384 409.6 409.6 409.6v0zM547.84 381.952l181.76 181.248-72.192 72.192-145.408-143.872-144.896 143.36-72.192-71.68 217.088-217.088 35.84 35.84z"
        ],
        "attrs": [],
        "isMulticolor": false,
        "isMulticolor2": false,
        "tags": [
          "cheveron-outline-up"
        ],
        "grid": 20
      },
      "attrs": [],
      "properties": {
        "id": 81,
        "order": 35,
        "prevSize": 20,
        "code": 59665,
        "name": "cheveron-outline-up"
      },
      "setIdx": 0,
      "setId": 4,
      "iconIdx": 80
    },
    {
      "icon": {
        "paths": [
          "M663.040 548.198l36.198-36.198-289.638-289.638-72.397 72.397 217.19 217.242-217.19 217.242 72.397 72.397 253.44-253.44z"
        ],
        "attrs": [],
        "isMulticolor": false,
        "isMulticolor2": false,
        "tags": [
          "cheveron-right"
        ],
        "grid": 20
      },
      "attrs": [],
      "properties": {
        "id": 82,
        "order": 36,
        "prevSize": 20,
        "code": 59666,
        "name": "cheveron-right"
      },
      "setIdx": 0,
      "setId": 4,
      "iconIdx": 81
    },
    {
      "icon": {
        "paths": [
          "M548.198 360.96l-36.198-36.198-289.638 289.638 72.397 72.397 217.242-217.19 217.242 217.19 72.397-72.397z"
        ],
        "attrs": [],
        "isMulticolor": false,
        "isMulticolor2": false,
        "tags": [
          "cheveron-up"
        ],
        "grid": 20
      },
      "attrs": [],
      "properties": {
        "id": 83,
        "order": 37,
        "prevSize": 20,
        "code": 59667,
        "name": "cheveron-up"
      },
      "setIdx": 0,
      "setId": 4,
      "iconIdx": 82
    },
    {
      "icon": {
        "paths": [
          "M854 470v84h-520l238 240-60 60-342-342 342-342 60 60-238 240h520z"
        ],
        "attrs": [],
        "isMulticolor": false,
        "isMulticolor2": false,
        "tags": [
          "arrow_back"
        ],
        "defaultCode": 58820,
        "grid": 24
      },
      "attrs": [],
      "properties": {
        "ligatures": "arrow_back",
        "id": 45,
        "order": 88,
        "prevSize": 24,
        "code": 58820,
        "name": "arrow_back"
      },
      "setIdx": 2,
      "setId": 2,
      "iconIdx": 45
    },
    {
      "icon": {
        "paths": [
          "M854 512l-342 342-342-342 62-60 238 238v-520h84v520l240-238z"
        ],
        "attrs": [],
        "isMulticolor": false,
        "isMulticolor2": false,
        "tags": [
          "arrow_downward"
        ],
        "defaultCode": 58843,
        "grid": 24
      },
      "attrs": [],
      "properties": {
        "ligatures": "arrow_downward",
        "id": 46,
        "order": 89,
        "prevSize": 24,
        "code": 58843,
        "name": "arrow_downward"
      },
      "setIdx": 2,
      "setId": 2,
      "iconIdx": 46
    },
    {
      "icon": {
        "paths": [
          "M512 170l342 342-342 342-60-60 238-240h-520v-84h520l-238-240z"
        ],
        "attrs": [],
        "isMulticolor": false,
        "isMulticolor2": false,
        "tags": [
          "arrow_forward"
        ],
        "defaultCode": 58824,
        "grid": 24
      },
      "attrs": [],
      "properties": {
        "ligatures": "arrow_forward",
        "id": 50,
        "order": 90,
        "prevSize": 24,
        "code": 58824,
        "name": "arrow_forward"
      },
      "setIdx": 2,
      "setId": 2,
      "iconIdx": 50
    },
    {
      "icon": {
        "paths": [
          "M170 512l342-342 342 342-62 60-238-238v520h-84v-520l-240 238z"
        ],
        "attrs": [],
        "isMulticolor": false,
        "isMulticolor2": false,
        "tags": [
          "arrow_upward"
        ],
        "defaultCode": 58840,
        "grid": 24
      },
      "attrs": [],
      "properties": {
        "ligatures": "arrow_upward",
        "id": 51,
        "order": 94,
        "prevSize": 24,
        "code": 58840,
        "name": "arrow_upward"
      },
      "setIdx": 2,
      "setId": 2,
      "iconIdx": 51
    },
    {
      "icon": {
        "paths": [
          "M316 334l196 196 196-196 60 60-256 256-256-256z"
        ],
        "attrs": [],
        "isMulticolor": false,
        "isMulticolor2": false,
        "tags": [
          "keyboard_arrow_down"
        ],
        "defaultCode": 58131,
        "grid": 24
      },
      "attrs": [],
      "properties": {
        "ligatures": "keyboard_arrow_down",
        "id": 411,
        "order": 101,
        "prevSize": 24,
        "code": 58131,
        "name": "keyboard_arrow_down"
      },
      "setIdx": 2,
      "setId": 2,
      "iconIdx": 411
    },
    {
      "icon": {
        "paths": [
          "M658 686l-60 60-256-256 256-256 60 60-196 196z"
        ],
        "attrs": [],
        "isMulticolor": false,
        "isMulticolor2": false,
        "tags": [
          "keyboard_arrow_left"
        ],
        "defaultCode": 58132,
        "grid": 24
      },
      "attrs": [],
      "properties": {
        "ligatures": "keyboard_arrow_left",
        "id": 412,
        "order": 102,
        "prevSize": 24,
        "code": 58132,
        "name": "keyboard_arrow_left"
      },
      "setIdx": 2,
      "setId": 2,
      "iconIdx": 412
    },
    {
      "icon": {
        "paths": [
          "M366 698l196-196-196-196 60-60 256 256-256 256z"
        ],
        "attrs": [],
        "isMulticolor": false,
        "isMulticolor2": false,
        "tags": [
          "keyboard_arrow_right"
        ],
        "defaultCode": 58133,
        "grid": 24
      },
      "attrs": [],
      "properties": {
        "ligatures": "keyboard_arrow_right",
        "id": 413,
        "order": 103,
        "prevSize": 24,
        "code": 58133,
        "name": "keyboard_arrow_right"
      },
      "setIdx": 2,
      "setId": 2,
      "iconIdx": 413
    },
    {
      "icon": {
        "paths": [
          "M316 658l-60-60 256-256 256 256-60 60-196-196z"
        ],
        "attrs": [],
        "isMulticolor": false,
        "isMulticolor2": false,
        "tags": [
          "keyboard_arrow_up"
        ],
        "defaultCode": 58134,
        "grid": 24
      },
      "attrs": [],
      "properties": {
        "ligatures": "keyboard_arrow_up",
        "id": 414,
        "order": 104,
        "prevSize": 24,
        "code": 58134,
        "name": "keyboard_arrow_up"
      },
      "setIdx": 2,
      "setId": 2,
      "iconIdx": 414
    },
    {
      "icon": {
        "paths": [
          "M669.143 172l-303.429 303.429 303.429 303.429c14.286 14.286 14.286 37.143 0 51.429l-94.857 94.857c-14.286 14.286-37.143 14.286-51.429 0l-424-424c-14.286-14.286-14.286-37.143 0-51.429l424-424c14.286-14.286 37.143-14.286 51.429 0l94.857 94.857c14.286 14.286 14.286 37.143 0 51.429z"
        ],
        "width": 768,
        "attrs": [],
        "isMulticolor": false,
        "isMulticolor2": false,
        "tags": [
          "chevron-left"
        ],
        "defaultCode": 61523,
        "grid": 14
      },
      "attrs": [],
      "properties": {
        "name": "chevron-left",
        "id": 82,
        "order": 107,
        "prevSize": 28,
        "code": 61523
      },
      "setIdx": 3,
      "setId": 1,
      "iconIdx": 82
    },
    {
      "icon": {
        "paths": [
          "M632.571 501.143l-424 424c-14.286 14.286-37.143 14.286-51.429 0l-94.857-94.857c-14.286-14.286-14.286-37.143 0-51.429l303.429-303.429-303.429-303.429c-14.286-14.286-14.286-37.143 0-51.429l94.857-94.857c14.286-14.286 37.143-14.286 51.429 0l424 424c14.286 14.286 14.286 37.143 0 51.429z"
        ],
        "width": 694.8571428571428,
        "attrs": [],
        "isMulticolor": false,
        "isMulticolor2": false,
        "tags": [
          "chevron-right"
        ],
        "defaultCode": 61524,
        "grid": 14
      },
      "attrs": [],
      "properties": {
        "name": "chevron-right",
        "id": 83,
        "order": 108,
        "prevSize": 28,
        "code": 61524
      },
      "setIdx": 3,
      "setId": 1,
      "iconIdx": 83
    },
    {
      "icon": {
        "paths": [
          "M877.714 512v73.143c0 38.857-25.714 73.143-66.857 73.143h-402.286l167.429 168c13.714 13.143 21.714 32 21.714 51.429s-8 38.286-21.714 51.429l-42.857 43.429c-13.143 13.143-32 21.143-51.429 21.143s-38.286-8-52-21.143l-372-372.571c-13.143-13.143-21.143-32-21.143-51.429s8-38.286 21.143-52l372-371.429c13.714-13.714 32.571-21.714 52-21.714s37.714 8 51.429 21.714l42.857 42.286c13.714 13.714 21.714 32.571 21.714 52s-8 38.286-21.714 52l-167.429 167.429h402.286c41.143 0 66.857 34.286 66.857 73.143z"
        ],
        "width": 914.2857142857142,
        "attrs": [],
        "isMulticolor": false,
        "isMulticolor2": false,
        "tags": [
          "arrow-left"
        ],
        "defaultCode": 61536,
        "grid": 14
      },
      "attrs": [],
      "properties": {
        "name": "arrow-left",
        "id": 94,
        "order": 110,
        "prevSize": 28,
        "code": 61536
      },
      "setIdx": 3,
      "setId": 1,
      "iconIdx": 94
    },
    {
      "icon": {
        "paths": [
          "M841.143 548.571c0 19.429-7.429 38.286-21.143 52l-372 372c-13.714 13.143-32.571 21.143-52 21.143s-37.714-8-51.429-21.143l-42.857-42.857c-13.714-13.714-21.714-32.571-21.714-52s8-38.286 21.714-52l167.429-167.429h-402.286c-41.143 0-66.857-34.286-66.857-73.143v-73.143c0-38.857 25.714-73.143 66.857-73.143h402.286l-167.429-168c-13.714-13.143-21.714-32-21.714-51.429s8-38.286 21.714-51.429l42.857-42.857c13.714-13.714 32-21.714 51.429-21.714s38.286 8 52 21.714l372 372c13.714 13.143 21.143 32 21.143 51.429z"
        ],
        "width": 841.1428571428571,
        "attrs": [],
        "isMulticolor": false,
        "isMulticolor2": false,
        "tags": [
          "arrow-right"
        ],
        "defaultCode": 61537,
        "grid": 14
      },
      "attrs": [],
      "properties": {
        "name": "arrow-right",
        "id": 95,
        "order": 109,
        "prevSize": 28,
        "code": 61537
      },
      "setIdx": 3,
      "setId": 1,
      "iconIdx": 95
    },
    {
      "icon": {
        "paths": [
          "M920.571 554.857c0 19.429-8 37.714-21.143 51.429l-42.857 42.857c-13.714 13.714-32.571 21.714-52 21.714s-38.286-8-51.429-21.714l-168-167.429v402.286c0 41.143-34.286 66.857-73.143 66.857h-73.143c-38.857 0-73.143-25.714-73.143-66.857v-402.286l-168 167.429c-13.143 13.714-32 21.714-51.429 21.714s-38.286-8-51.429-21.714l-42.857-42.857c-13.714-13.714-21.714-32-21.714-51.429s8-38.286 21.714-52l372-372c13.143-13.714 32-21.143 51.429-21.143s38.286 7.429 52 21.143l372 372c13.143 13.714 21.143 32.571 21.143 52z"
        ],
        "width": 950.8571428571428,
        "attrs": [],
        "isMulticolor": false,
        "isMulticolor2": false,
        "tags": [
          "arrow-up"
        ],
        "defaultCode": 61538,
        "grid": 14
      },
      "attrs": [],
      "properties": {
        "name": "arrow-up",
        "id": 96,
        "order": 111,
        "prevSize": 28,
        "code": 61538
      },
      "setIdx": 3,
      "setId": 1,
      "iconIdx": 96
    },
    {
      "icon": {
        "paths": [
          "M920.571 475.429c0 19.429-8 38.286-21.143 51.429l-372 372.571c-13.714 13.143-32.571 21.143-52 21.143s-38.286-8-51.429-21.143l-372-372.571c-13.714-13.143-21.714-32-21.714-51.429s8-38.286 21.714-52l42.286-42.857c13.714-13.143 32.571-21.143 52-21.143s38.286 8 51.429 21.143l168 168v-402.286c0-40 33.143-73.143 73.143-73.143h73.143c40 0 73.143 33.143 73.143 73.143v402.286l168-168c13.143-13.143 32-21.143 51.429-21.143s38.286 8 52 21.143l42.857 42.857c13.143 13.714 21.143 32.571 21.143 52z"
        ],
        "width": 950.8571428571428,
        "attrs": [],
        "isMulticolor": false,
        "isMulticolor2": false,
        "tags": [
          "arrow-down"
        ],
        "defaultCode": 61539,
        "grid": 14
      },
      "attrs": [],
      "properties": {
        "name": "arrow-down",
        "id": 97,
        "order": 112,
        "prevSize": 28,
        "code": 61539
      },
      "setIdx": 3,
      "setId": 1,
      "iconIdx": 97
    },
    {
      "icon": {
        "paths": [
          "M961.714 760.571l-94.857 94.286c-14.286 14.286-37.143 14.286-51.429 0l-303.429-303.429-303.429 303.429c-14.286 14.286-37.143 14.286-51.429 0l-94.857-94.286c-14.286-14.286-14.286-37.714 0-52l424-423.429c14.286-14.286 37.143-14.286 51.429 0l424 423.429c14.286 14.286 14.286 37.714 0 52z"
        ],
        "width": 1024,
        "attrs": [],
        "isMulticolor": false,
        "isMulticolor2": false,
        "tags": [
          "chevron-up"
        ],
        "defaultCode": 61559,
        "grid": 14
      },
      "attrs": [],
      "properties": {
        "name": "chevron-up",
        "id": 113,
        "order": 114,
        "prevSize": 28,
        "code": 61559
      },
      "setIdx": 3,
      "setId": 1,
      "iconIdx": 113
    },
    {
      "icon": {
        "paths": [
          "M961.714 461.714l-424 423.429c-14.286 14.286-37.143 14.286-51.429 0l-424-423.429c-14.286-14.286-14.286-37.714 0-52l94.857-94.286c14.286-14.286 37.143-14.286 51.429 0l303.429 303.429 303.429-303.429c14.286-14.286 37.143-14.286 51.429 0l94.857 94.286c14.286 14.286 14.286 37.714 0 52z"
        ],
        "width": 1024,
        "attrs": [],
        "isMulticolor": false,
        "isMulticolor2": false,
        "tags": [
          "chevron-down"
        ],
        "defaultCode": 61560,
        "grid": 14
      },
      "attrs": [],
      "properties": {
        "name": "chevron-down",
        "id": 114,
        "order": 113,
        "prevSize": 28,
        "code": 61560
      },
      "setIdx": 3,
      "setId": 1,
      "iconIdx": 114
    },
    {
      "icon": {
        "paths": [
          "M731.429 548.571v-73.143c0-20-16.571-36.571-36.571-36.571h-286.857l108-108c6.857-6.857 10.857-16 10.857-25.714s-4-18.857-10.857-25.714l-52-52c-6.857-6.857-16-10.286-25.714-10.286s-18.857 3.429-25.714 10.286l-258.857 258.857c-6.857 6.857-10.286 16-10.286 25.714s3.429 18.857 10.286 25.714l258.857 258.857c6.857 6.857 16 10.286 25.714 10.286s18.857-3.429 25.714-10.286l52-52c6.857-6.857 10.286-16 10.286-25.714s-3.429-18.857-10.286-25.714l-108-108h286.857c20 0 36.571-16.571 36.571-36.571zM877.714 512c0 242.286-196.571 438.857-438.857 438.857s-438.857-196.571-438.857-438.857 196.571-438.857 438.857-438.857 438.857 196.571 438.857 438.857z"
        ],
        "width": 877.7142857142857,
        "attrs": [],
        "isMulticolor": false,
        "isMulticolor2": false,
        "tags": [
          "arrow-circle-left"
        ],
        "defaultCode": 61608,
        "grid": 14
      },
      "attrs": [],
      "properties": {
        "name": "arrow-circle-left",
        "id": 159,
        "order": 115,
        "prevSize": 28,
        "code": 61608
      },
      "setIdx": 3,
      "setId": 1,
      "iconIdx": 159
    },
    {
      "icon": {
        "paths": [
          "M734.286 512c0-9.714-3.429-18.857-10.286-25.714l-258.857-258.857c-6.857-6.857-16-10.286-25.714-10.286s-18.857 3.429-25.714 10.286l-52 52c-6.857 6.857-10.286 16-10.286 25.714s3.429 18.857 10.286 25.714l108 108h-286.857c-20 0-36.571 16.571-36.571 36.571v73.143c0 20 16.571 36.571 36.571 36.571h286.857l-108 108c-6.857 6.857-10.857 16-10.857 25.714s4 18.857 10.857 25.714l52 52c6.857 6.857 16 10.286 25.714 10.286s18.857-3.429 25.714-10.286l258.857-258.857c6.857-6.857 10.286-16 10.286-25.714zM877.714 512c0 242.286-196.571 438.857-438.857 438.857s-438.857-196.571-438.857-438.857 196.571-438.857 438.857-438.857 438.857 196.571 438.857 438.857z"
        ],
        "width": 877.7142857142857,
        "attrs": [],
        "isMulticolor": false,
        "isMulticolor2": false,
        "tags": [
          "arrow-circle-right"
        ],
        "defaultCode": 61609,
        "grid": 14
      },
      "attrs": [],
      "properties": {
        "name": "arrow-circle-right",
        "id": 160,
        "order": 116,
        "prevSize": 28,
        "code": 61609
      },
      "setIdx": 3,
      "setId": 1,
      "iconIdx": 160
    },
    {
      "icon": {
        "paths": [
          "M733.714 511.429c0-9.714-3.429-18.857-10.286-25.714l-258.857-258.857c-6.857-6.857-16-10.286-25.714-10.286s-18.857 3.429-25.714 10.286l-258.857 258.857c-6.857 6.857-10.286 16-10.286 25.714s3.429 18.857 10.286 25.714l52 52c6.857 6.857 16 10.286 25.714 10.286s18.857-3.429 25.714-10.286l108-108v286.857c0 20 16.571 36.571 36.571 36.571h73.143c20 0 36.571-16.571 36.571-36.571v-286.857l108 108c6.857 6.857 16 10.857 25.714 10.857s18.857-4 25.714-10.857l52-52c6.857-6.857 10.286-16 10.286-25.714zM877.714 512c0 242.286-196.571 438.857-438.857 438.857s-438.857-196.571-438.857-438.857 196.571-438.857 438.857-438.857 438.857 196.571 438.857 438.857z"
        ],
        "width": 877.7142857142857,
        "attrs": [],
        "isMulticolor": false,
        "isMulticolor2": false,
        "tags": [
          "arrow-circle-up"
        ],
        "defaultCode": 61610,
        "grid": 14
      },
      "attrs": [],
      "properties": {
        "name": "arrow-circle-up",
        "id": 161,
        "order": 117,
        "prevSize": 28,
        "code": 61610
      },
      "setIdx": 3,
      "setId": 1,
      "iconIdx": 161
    },
    {
      "icon": {
        "paths": [
          "M733.714 512.571c0-9.714-3.429-18.857-10.286-25.714l-52-52c-6.857-6.857-16-10.286-25.714-10.286s-18.857 3.429-25.714 10.286l-108 108v-286.857c0-20-16.571-36.571-36.571-36.571h-73.143c-20 0-36.571 16.571-36.571 36.571v286.857l-108-108c-6.857-6.857-16-10.857-25.714-10.857s-18.857 4-25.714 10.857l-52 52c-6.857 6.857-10.286 16-10.286 25.714s3.429 18.857 10.286 25.714l258.857 258.857c6.857 6.857 16 10.286 25.714 10.286s18.857-3.429 25.714-10.286l258.857-258.857c6.857-6.857 10.286-16 10.286-25.714zM877.714 512c0 242.286-196.571 438.857-438.857 438.857s-438.857-196.571-438.857-438.857 196.571-438.857 438.857-438.857 438.857 196.571 438.857 438.857z"
        ],
        "width": 877.7142857142857,
        "attrs": [],
        "isMulticolor": false,
        "isMulticolor2": false,
        "tags": [
          "arrow-circle-down"
        ],
        "defaultCode": 61611,
        "grid": 14
      },
      "attrs": [],
      "properties": {
        "name": "arrow-circle-down",
        "id": 162,
        "order": 118,
        "prevSize": 28,
        "code": 61611
      },
      "setIdx": 3,
      "setId": 1,
      "iconIdx": 162
    },
    {
      "icon": {
        "paths": [
          "M585.143 402.286c0 9.714-4 18.857-10.857 25.714l-256 256c-6.857 6.857-16 10.857-25.714 10.857s-18.857-4-25.714-10.857l-256-256c-6.857-6.857-10.857-16-10.857-25.714 0-20 16.571-36.571 36.571-36.571h512c20 0 36.571 16.571 36.571 36.571z"
        ],
        "width": 585.1428571428571,
        "attrs": [],
        "isMulticolor": false,
        "isMulticolor2": false,
        "tags": [
          "caret-down"
        ],
        "defaultCode": 61655,
        "grid": 14
      },
      "attrs": [],
      "properties": {
        "name": "caret-down",
        "id": 191,
        "order": 119,
        "prevSize": 28,
        "code": 61655
      },
      "setIdx": 3,
      "setId": 1,
      "iconIdx": 191
    },
    {
      "icon": {
        "paths": [
          "M585.143 694.857c0 20-16.571 36.571-36.571 36.571h-512c-20 0-36.571-16.571-36.571-36.571 0-9.714 4-18.857 10.857-25.714l256-256c6.857-6.857 16-10.857 25.714-10.857s18.857 4 25.714 10.857l256 256c6.857 6.857 10.857 16 10.857 25.714z"
        ],
        "width": 585.1428571428571,
        "attrs": [],
        "isMulticolor": false,
        "isMulticolor2": false,
        "tags": [
          "caret-up"
        ],
        "defaultCode": 61656,
        "grid": 14
      },
      "attrs": [],
      "properties": {
        "name": "caret-up",
        "id": 192,
        "order": 120,
        "prevSize": 28,
        "code": 61656
      },
      "setIdx": 3,
      "setId": 1,
      "iconIdx": 192
    },
    {
      "icon": {
        "paths": [
          "M365.714 256v512c0 20-16.571 36.571-36.571 36.571-9.714 0-18.857-4-25.714-10.857l-256-256c-6.857-6.857-10.857-16-10.857-25.714s4-18.857 10.857-25.714l256-256c6.857-6.857 16-10.857 25.714-10.857 20 0 36.571 16.571 36.571 36.571z"
        ],
        "width": 402.2857142857143,
        "attrs": [],
        "isMulticolor": false,
        "isMulticolor2": false,
        "tags": [
          "caret-left"
        ],
        "defaultCode": 61657,
        "grid": 14
      },
      "attrs": [],
      "properties": {
        "name": "caret-left",
        "id": 193,
        "order": 121,
        "prevSize": 28,
        "code": 61657
      },
      "setIdx": 3,
      "setId": 1,
      "iconIdx": 193
    },
    {
      "icon": {
        "paths": [
          "M329.143 512c0 9.714-4 18.857-10.857 25.714l-256 256c-6.857 6.857-16 10.857-25.714 10.857-20 0-36.571-16.571-36.571-36.571v-512c0-20 16.571-36.571 36.571-36.571 9.714 0 18.857 4 25.714 10.857l256 256c6.857 6.857 10.857 16 10.857 25.714z"
        ],
        "width": 329.1428571428571,
        "attrs": [],
        "isMulticolor": false,
        "isMulticolor2": false,
        "tags": [
          "caret-right"
        ],
        "defaultCode": 61658,
        "grid": 14
      },
      "attrs": [],
      "properties": {
        "name": "caret-right",
        "id": 194,
        "order": 122,
        "prevSize": 28,
        "code": 61658
      },
      "setIdx": 3,
      "setId": 1,
      "iconIdx": 194
    },
    {
      "icon": {
        "paths": [
          "M358.286 786.286c0 4.571-2.286 9.714-5.714 13.143l-28.571 28.571c-3.429 3.429-8.571 5.714-13.143 5.714s-9.714-2.286-13.143-5.714l-266.286-266.286c-3.429-3.429-5.714-8.571-5.714-13.143s2.286-9.714 5.714-13.143l266.286-266.286c3.429-3.429 8.571-5.714 13.143-5.714s9.714 2.286 13.143 5.714l28.571 28.571c3.429 3.429 5.714 8.571 5.714 13.143s-2.286 9.714-5.714 13.143l-224.571 224.571 224.571 224.571c3.429 3.429 5.714 8.571 5.714 13.143zM577.714 786.286c0 4.571-2.286 9.714-5.714 13.143l-28.571 28.571c-3.429 3.429-8.571 5.714-13.143 5.714s-9.714-2.286-13.143-5.714l-266.286-266.286c-3.429-3.429-5.714-8.571-5.714-13.143s2.286-9.714 5.714-13.143l266.286-266.286c3.429-3.429 8.571-5.714 13.143-5.714s9.714 2.286 13.143 5.714l28.571 28.571c3.429 3.429 5.714 8.571 5.714 13.143s-2.286 9.714-5.714 13.143l-224.571 224.571 224.571 224.571c3.429 3.429 5.714 8.571 5.714 13.143z"
        ],
        "width": 603.4285714285714,
        "attrs": [],
        "isMulticolor": false,
        "isMulticolor2": false,
        "tags": [
          "angle-double-left"
        ],
        "defaultCode": 61696,
        "grid": 14
      },
      "attrs": [],
      "properties": {
        "name": "angle-double-left",
        "id": 229,
        "order": 123,
        "prevSize": 28,
        "code": 61696
      },
      "setIdx": 3,
      "setId": 1,
      "iconIdx": 229
    },
    {
      "icon": {
        "paths": [
          "M340 548.571c0 4.571-2.286 9.714-5.714 13.143l-266.286 266.286c-3.429 3.429-8.571 5.714-13.143 5.714s-9.714-2.286-13.143-5.714l-28.571-28.571c-3.429-3.429-5.714-8.571-5.714-13.143s2.286-9.714 5.714-13.143l224.571-224.571-224.571-224.571c-3.429-3.429-5.714-8.571-5.714-13.143s2.286-9.714 5.714-13.143l28.571-28.571c3.429-3.429 8.571-5.714 13.143-5.714s9.714 2.286 13.143 5.714l266.286 266.286c3.429 3.429 5.714 8.571 5.714 13.143zM559.429 548.571c0 4.571-2.286 9.714-5.714 13.143l-266.286 266.286c-3.429 3.429-8.571 5.714-13.143 5.714s-9.714-2.286-13.143-5.714l-28.571-28.571c-3.429-3.429-5.714-8.571-5.714-13.143s2.286-9.714 5.714-13.143l224.571-224.571-224.571-224.571c-3.429-3.429-5.714-8.571-5.714-13.143s2.286-9.714 5.714-13.143l28.571-28.571c3.429-3.429 8.571-5.714 13.143-5.714s9.714 2.286 13.143 5.714l266.286 266.286c3.429 3.429 5.714 8.571 5.714 13.143z"
        ],
        "width": 566.8571428571428,
        "attrs": [],
        "isMulticolor": false,
        "isMulticolor2": false,
        "tags": [
          "angle-double-right"
        ],
        "defaultCode": 61697,
        "grid": 14
      },
      "attrs": [],
      "properties": {
        "name": "angle-double-right",
        "id": 230,
        "order": 124,
        "prevSize": 28,
        "code": 61697
      },
      "setIdx": 3,
      "setId": 1,
      "iconIdx": 230
    },
    {
      "icon": {
        "paths": [
          "M614.286 749.714c0 4.571-2.286 9.714-5.714 13.143l-28.571 28.571c-3.429 3.429-8 5.714-13.143 5.714-4.571 0-9.714-2.286-13.143-5.714l-224.571-224.571-224.571 224.571c-3.429 3.429-8.571 5.714-13.143 5.714s-9.714-2.286-13.143-5.714l-28.571-28.571c-3.429-3.429-5.714-8.571-5.714-13.143s2.286-9.714 5.714-13.143l266.286-266.286c3.429-3.429 8.571-5.714 13.143-5.714s9.714 2.286 13.143 5.714l266.286 266.286c3.429 3.429 5.714 8.571 5.714 13.143zM614.286 530.286c0 4.571-2.286 9.714-5.714 13.143l-28.571 28.571c-3.429 3.429-8 5.714-13.143 5.714-4.571 0-9.714-2.286-13.143-5.714l-224.571-224.571-224.571 224.571c-3.429 3.429-8.571 5.714-13.143 5.714s-9.714-2.286-13.143-5.714l-28.571-28.571c-3.429-3.429-5.714-8.571-5.714-13.143s2.286-9.714 5.714-13.143l266.286-266.286c3.429-3.429 8.571-5.714 13.143-5.714s9.714 2.286 13.143 5.714l266.286 266.286c3.429 3.429 5.714 8.571 5.714 13.143z"
        ],
        "width": 658.2857142857142,
        "attrs": [],
        "isMulticolor": false,
        "isMulticolor2": false,
        "tags": [
          "angle-double-up"
        ],
        "defaultCode": 61698,
        "grid": 14
      },
      "attrs": [],
      "properties": {
        "name": "angle-double-up",
        "id": 231,
        "order": 126,
        "prevSize": 28,
        "code": 61698
      },
      "setIdx": 3,
      "setId": 1,
      "iconIdx": 231
    },
    {
      "icon": {
        "paths": [
          "M614.286 493.714c0 4.571-2.286 9.714-5.714 13.143l-266.286 266.286c-3.429 3.429-8.571 5.714-13.143 5.714s-9.714-2.286-13.143-5.714l-266.286-266.286c-3.429-3.429-5.714-8.571-5.714-13.143s2.286-9.714 5.714-13.143l28.571-28.571c3.429-3.429 8-5.714 13.143-5.714 4.571 0 9.714 2.286 13.143 5.714l224.571 224.571 224.571-224.571c3.429-3.429 8.571-5.714 13.143-5.714s9.714 2.286 13.143 5.714l28.571 28.571c3.429 3.429 5.714 8.571 5.714 13.143zM614.286 274.286c0 4.571-2.286 9.714-5.714 13.143l-266.286 266.286c-3.429 3.429-8.571 5.714-13.143 5.714s-9.714-2.286-13.143-5.714l-266.286-266.286c-3.429-3.429-5.714-8.571-5.714-13.143s2.286-9.714 5.714-13.143l28.571-28.571c3.429-3.429 8-5.714 13.143-5.714 4.571 0 9.714 2.286 13.143 5.714l224.571 224.571 224.571-224.571c3.429-3.429 8.571-5.714 13.143-5.714s9.714 2.286 13.143 5.714l28.571 28.571c3.429 3.429 5.714 8.571 5.714 13.143z"
        ],
        "width": 658.2857142857142,
        "attrs": [],
        "isMulticolor": false,
        "isMulticolor2": false,
        "tags": [
          "angle-double-down"
        ],
        "defaultCode": 61699,
        "grid": 14
      },
      "attrs": [],
      "properties": {
        "name": "angle-double-down",
        "id": 232,
        "order": 125,
        "prevSize": 28,
        "code": 61699
      },
      "setIdx": 3,
      "setId": 1,
      "iconIdx": 232
    },
    {
      "icon": {
        "paths": [
          "M358.286 310.857c0 4.571-2.286 9.714-5.714 13.143l-224.571 224.571 224.571 224.571c3.429 3.429 5.714 8.571 5.714 13.143s-2.286 9.714-5.714 13.143l-28.571 28.571c-3.429 3.429-8.571 5.714-13.143 5.714s-9.714-2.286-13.143-5.714l-266.286-266.286c-3.429-3.429-5.714-8.571-5.714-13.143s2.286-9.714 5.714-13.143l266.286-266.286c3.429-3.429 8.571-5.714 13.143-5.714s9.714 2.286 13.143 5.714l28.571 28.571c3.429 3.429 5.714 8 5.714 13.143z"
        ],
        "width": 384,
        "attrs": [],
        "isMulticolor": false,
        "isMulticolor2": false,
        "tags": [
          "angle-left"
        ],
        "defaultCode": 61700,
        "grid": 14
      },
      "attrs": [],
      "properties": {
        "name": "angle-left",
        "id": 233,
        "order": 127,
        "prevSize": 28,
        "code": 61700
      },
      "setIdx": 3,
      "setId": 1,
      "iconIdx": 233
    },
    {
      "icon": {
        "paths": [
          "M340 548.571c0 4.571-2.286 9.714-5.714 13.143l-266.286 266.286c-3.429 3.429-8.571 5.714-13.143 5.714s-9.714-2.286-13.143-5.714l-28.571-28.571c-3.429-3.429-5.714-8-5.714-13.143 0-4.571 2.286-9.714 5.714-13.143l224.571-224.571-224.571-224.571c-3.429-3.429-5.714-8.571-5.714-13.143s2.286-9.714 5.714-13.143l28.571-28.571c3.429-3.429 8.571-5.714 13.143-5.714s9.714 2.286 13.143 5.714l266.286 266.286c3.429 3.429 5.714 8.571 5.714 13.143z"
        ],
        "width": 347.4285714285714,
        "attrs": [],
        "isMulticolor": false,
        "isMulticolor2": false,
        "tags": [
          "angle-right"
        ],
        "defaultCode": 61701,
        "grid": 14
      },
      "attrs": [],
      "properties": {
        "name": "angle-right",
        "id": 234,
        "order": 128,
        "prevSize": 28,
        "code": 61701
      },
      "setIdx": 3,
      "setId": 1,
      "iconIdx": 234
    },
    {
      "icon": {
        "paths": [
          "M614.286 676.571c0 4.571-2.286 9.714-5.714 13.143l-28.571 28.571c-3.429 3.429-8 5.714-13.143 5.714-4.571 0-9.714-2.286-13.143-5.714l-224.571-224.571-224.571 224.571c-3.429 3.429-8.571 5.714-13.143 5.714s-9.714-2.286-13.143-5.714l-28.571-28.571c-3.429-3.429-5.714-8.571-5.714-13.143s2.286-9.714 5.714-13.143l266.286-266.286c3.429-3.429 8.571-5.714 13.143-5.714s9.714 2.286 13.143 5.714l266.286 266.286c3.429 3.429 5.714 8.571 5.714 13.143z"
        ],
        "width": 658.2857142857142,
        "attrs": [],
        "isMulticolor": false,
        "isMulticolor2": false,
        "tags": [
          "angle-up"
        ],
        "defaultCode": 61702,
        "grid": 14
      },
      "attrs": [],
      "properties": {
        "name": "angle-up",
        "id": 235,
        "order": 129,
        "prevSize": 28,
        "code": 61702
      },
      "setIdx": 3,
      "setId": 1,
      "iconIdx": 235
    },
    {
      "icon": {
        "paths": [
          "M614.286 420.571c0 4.571-2.286 9.714-5.714 13.143l-266.286 266.286c-3.429 3.429-8.571 5.714-13.143 5.714s-9.714-2.286-13.143-5.714l-266.286-266.286c-3.429-3.429-5.714-8.571-5.714-13.143s2.286-9.714 5.714-13.143l28.571-28.571c3.429-3.429 8-5.714 13.143-5.714 4.571 0 9.714 2.286 13.143 5.714l224.571 224.571 224.571-224.571c3.429-3.429 8.571-5.714 13.143-5.714s9.714 2.286 13.143 5.714l28.571 28.571c3.429 3.429 5.714 8.571 5.714 13.143z"
        ],
        "width": 658.2857142857142,
        "attrs": [],
        "isMulticolor": false,
        "isMulticolor2": false,
        "tags": [
          "angle-down"
        ],
        "defaultCode": 61703,
        "grid": 14
      },
      "attrs": [],
      "properties": {
        "name": "angle-down",
        "id": 236,
        "order": 130,
        "prevSize": 28,
        "code": 61703
      },
      "setIdx": 3,
      "setId": 1,
      "iconIdx": 236
    },
    {
      "icon": {
        "paths": [
          "M437.143 742.286c2.857 6.857 1.714 14.286-2.857 20l-200 219.429c-3.429 3.429-8 5.714-13.143 5.714v0c-5.143 0-10.286-2.286-13.714-5.714l-202.857-219.429c-4.571-5.714-5.714-13.143-2.857-20 2.857-6.286 9.143-10.857 16.571-10.857h128v-713.143c0-10.286 8-18.286 18.286-18.286h109.714c10.286 0 18.286 8 18.286 18.286v713.143h128c7.429 0 13.714 4 16.571 10.857z"
        ],
        "width": 438.85714285714283,
        "attrs": [],
        "isMulticolor": false,
        "isMulticolor2": false,
        "tags": [
          "long-arrow-down"
        ],
        "defaultCode": 61813,
        "grid": 14
      },
      "attrs": [],
      "properties": {
        "name": "long-arrow-down",
        "id": 336,
        "order": 131,
        "prevSize": 28,
        "code": 61813
      },
      "setIdx": 3,
      "setId": 1,
      "iconIdx": 336
    },
    {
      "icon": {
        "paths": [
          "M437.143 281.714c-2.857 6.286-9.143 10.857-16.571 10.857h-128v713.143c0 10.286-8 18.286-18.286 18.286h-109.714c-10.286 0-18.286-8-18.286-18.286v-713.143h-128c-7.429 0-13.714-4-16.571-10.857s-1.714-14.286 2.857-20l200-219.429c3.429-3.429 8-5.714 13.143-5.714v0c5.143 0 10.286 2.286 13.714 5.714l202.857 219.429c4.571 5.714 5.714 13.143 2.857 20z"
        ],
        "width": 438.85714285714283,
        "attrs": [],
        "isMulticolor": false,
        "isMulticolor2": false,
        "tags": [
          "long-arrow-up"
        ],
        "defaultCode": 61814,
        "grid": 14
      },
      "attrs": [],
      "properties": {
        "name": "long-arrow-up",
        "id": 337,
        "order": 132,
        "prevSize": 28,
        "code": 61814
      },
      "setIdx": 3,
      "setId": 1,
      "iconIdx": 337
    },
    {
      "icon": {
        "paths": [
          "M1024 457.143v109.714c0 10.286-8 18.286-18.286 18.286h-713.143v128c0 7.429-4 13.714-10.857 16.571s-14.286 1.714-20-2.857l-219.429-200c-3.429-3.429-5.714-8-5.714-13.143v0c0-5.143 2.286-10.286 5.714-13.714l219.429-202.286c5.714-5.143 13.143-6.286 20-3.429 6.286 2.857 10.857 9.143 10.857 16.571v128h713.143c10.286 0 18.286 8 18.286 18.286z"
        ],
        "width": 1060.5714285714284,
        "attrs": [],
        "isMulticolor": false,
        "isMulticolor2": false,
        "tags": [
          "long-arrow-left"
        ],
        "defaultCode": 61815,
        "grid": 14
      },
      "attrs": [],
      "properties": {
        "name": "long-arrow-left",
        "id": 338,
        "order": 133,
        "prevSize": 28,
        "code": 61815
      },
      "setIdx": 3,
      "setId": 1,
      "iconIdx": 338
    },
    {
      "icon": {
        "paths": [
          "M987.429 510.286c0 5.143-2.286 10.286-5.714 13.714l-219.429 202.286c-5.714 5.143-13.143 6.286-20 3.429-6.286-2.857-10.857-9.143-10.857-16.571v-128h-713.143c-10.286 0-18.286-8-18.286-18.286v-109.714c0-10.286 8-18.286 18.286-18.286h713.143v-128c0-7.429 4-13.714 10.857-16.571s14.286-1.714 20 2.857l219.429 200c3.429 3.429 5.714 8 5.714 13.143v0z"
        ],
        "width": 987.4285714285713,
        "attrs": [],
        "isMulticolor": false,
        "isMulticolor2": false,
        "tags": [
          "long-arrow-right"
        ],
        "defaultCode": 61816,
        "grid": 14
      },
      "attrs": [],
      "properties": {
        "name": "long-arrow-right",
        "id": 339,
        "order": 134,
        "prevSize": 28,
        "code": 61816
      },
      "setIdx": 3,
      "setId": 1,
      "iconIdx": 339
    },
    {
      "icon": {
        "paths": [
          "M761.862 1024c113.726-206.032 132.888-520.306-313.862-509.824v253.824l-384-384 384-384v248.372c534.962-13.942 594.57 472.214 313.862 775.628z"
        ],
        "attrs": [],
        "isMulticolor": false,
        "isMulticolor2": false,
        "tags": [
          "undo",
          "left",
          "arrow-left"
        ],
        "defaultCode": 59751,
        "grid": 16
      },
      "attrs": [],
      "properties": {
        "ligatures": "undo2, left",
        "name": "undo2",
        "id": 103,
        "order": 135,
        "prevSize": 32,
        "code": 59751
      },
      "setIdx": 4,
      "setId": 0,
      "iconIdx": 103
    },
    {
      "icon": {
        "paths": [
          "M576 248.372v-248.372l384 384-384 384v-253.824c-446.75-10.482-427.588 303.792-313.86 509.824-280.712-303.414-221.1-789.57 313.86-775.628z"
        ],
        "attrs": [],
        "isMulticolor": false,
        "isMulticolor2": false,
        "tags": [
          "redo",
          "right",
          "arrow-right"
        ],
        "defaultCode": 59752,
        "grid": 16
      },
      "attrs": [],
      "properties": {
        "ligatures": "redo2, right",
        "name": "redo2",
        "id": 104,
        "order": 136,
        "prevSize": 32,
        "code": 59752
      },
      "setIdx": 4,
      "setId": 0,
      "iconIdx": 104
    },
    {
      "icon": {
        "paths": [
          "M262.14 0c-113.728 206.032-132.89 520.304 313.86 509.824v-253.824l384 384-384 384v-248.372c-534.96 13.942-594.572-472.214-313.86-775.628z"
        ],
        "attrs": [],
        "isMulticolor": false,
        "isMulticolor2": false,
        "tags": [
          "forward",
          "right",
          "arrow-right"
        ],
        "defaultCode": 59753,
        "grid": 16
      },
      "attrs": [],
      "properties": {
        "ligatures": "forward, right2",
        "name": "forward",
        "id": 105,
        "order": 137,
        "prevSize": 32,
        "code": 59753
      },
      "setIdx": 4,
      "setId": 0,
      "iconIdx": 105
    },
    {
      "icon": {
        "paths": [
          "M448 775.628v248.372l-384-384 384-384v253.824c446.75 10.48 427.588-303.792 313.862-509.824 280.71 303.414 221.1 789.57-313.862 775.628z"
        ],
        "attrs": [],
        "isMulticolor": false,
        "isMulticolor2": false,
        "tags": [
          "reply",
          "left",
          "arrow-left"
        ],
        "defaultCode": 59754,
        "grid": 16
      },
      "attrs": [],
      "properties": {
        "ligatures": "reply, left2",
        "name": "reply",
        "id": 106,
        "order": 138,
        "prevSize": 32,
        "code": 59754
      },
      "setIdx": 4,
      "setId": 0,
      "iconIdx": 106
    },
    {
      "icon": {
        "paths": [
          "M0 736l256-256 544 544 224-224-544-544 255.998-256h-735.998v736z"
        ],
        "attrs": [],
        "isMulticolor": false,
        "isMulticolor2": false,
        "tags": [
          "arrow-up-left",
          "up-left",
          "arrow-top-left"
        ],
        "defaultCode": 59953,
        "grid": 16
      },
      "attrs": [],
      "properties": {
        "ligatures": "arrow-up-left, up-left",
        "name": "arrow-up-left",
        "id": 305,
        "order": 139,
        "prevSize": 32,
        "code": 59953
      },
      "setIdx": 4,
      "setId": 0,
      "iconIdx": 305
    },
    {
      "icon": {
        "paths": [
          "M512 32l-480 480h288v512h384v-512h288z"
        ],
        "attrs": [],
        "isMulticolor": false,
        "isMulticolor2": false,
        "tags": [
          "arrow-up",
          "up",
          "upload",
          "top"
        ],
        "defaultCode": 59954,
        "grid": 16
      },
      "attrs": [],
      "properties": {
        "ligatures": "arrow-up, up",
        "name": "arrow-up2",
        "id": 306,
        "order": 140,
        "prevSize": 32,
        "code": 59954
      },
      "setIdx": 4,
      "setId": 0,
      "iconIdx": 306
    },
    {
      "icon": {
        "paths": [
          "M288 0l256 256-544 544 224 224 544-544 256 255.998v-735.998h-736z"
        ],
        "attrs": [],
        "isMulticolor": false,
        "isMulticolor2": false,
        "tags": [
          "arrow-up-right",
          "up-right",
          "arrow-top-right"
        ],
        "defaultCode": 59955,
        "grid": 16
      },
      "attrs": [],
      "properties": {
        "ligatures": "arrow-up-right, up-right",
        "name": "arrow-up-right",
        "id": 307,
        "order": 141,
        "prevSize": 32,
        "code": 59955
      },
      "setIdx": 4,
      "setId": 0,
      "iconIdx": 307
    },
    {
      "icon": {
        "paths": [
          "M992 512l-480-480v288h-512v384h512v288z"
        ],
        "attrs": [],
        "isMulticolor": false,
        "isMulticolor2": false,
        "tags": [
          "arrow-right",
          "right",
          "next"
        ],
        "defaultCode": 59956,
        "grid": 16
      },
      "attrs": [],
      "properties": {
        "ligatures": "arrow-right, right3",
        "name": "arrow-right2",
        "id": 308,
        "order": 142,
        "prevSize": 32,
        "code": 59956
      },
      "setIdx": 4,
      "setId": 0,
      "iconIdx": 308
    },
    {
      "icon": {
        "paths": [
          "M1024 288l-256 256-544-544-224 224 544 544-255.998 256h735.998v-736z"
        ],
        "attrs": [],
        "isMulticolor": false,
        "isMulticolor2": false,
        "tags": [
          "arrow-down-right",
          "down-right",
          "arrow-bottom-right"
        ],
        "defaultCode": 59957,
        "grid": 16
      },
      "attrs": [],
      "properties": {
        "ligatures": "arrow-down-right, down-right",
        "name": "arrow-down-right",
        "id": 309,
        "order": 143,
        "prevSize": 32,
        "code": 59957
      },
      "setIdx": 4,
      "setId": 0,
      "iconIdx": 309
    },
    {
      "icon": {
        "paths": [
          "M512 992l480-480h-288v-512h-384v512h-288z"
        ],
        "attrs": [],
        "isMulticolor": false,
        "isMulticolor2": false,
        "tags": [
          "arrow-down",
          "down",
          "download",
          "bottom"
        ],
        "defaultCode": 59958,
        "grid": 16
      },
      "attrs": [],
      "properties": {
        "ligatures": "arrow-down, down",
        "name": "arrow-down2",
        "id": 310,
        "order": 144,
        "prevSize": 32,
        "code": 59958
      },
      "setIdx": 4,
      "setId": 0,
      "iconIdx": 310
    },
    {
      "icon": {
        "paths": [
          "M736 1024l-256-256 544-544-224-224-544 544-256-255.998v735.998h736z"
        ],
        "attrs": [],
        "isMulticolor": false,
        "isMulticolor2": false,
        "tags": [
          "arrow-down-left",
          "down-left",
          "arrow-bottom-left"
        ],
        "defaultCode": 59959,
        "grid": 16
      },
      "attrs": [],
      "properties": {
        "ligatures": "arrow-down-left, down-left",
        "name": "arrow-down-left",
        "id": 311,
        "order": 145,
        "prevSize": 32,
        "code": 59959
      },
      "setIdx": 4,
      "setId": 0,
      "iconIdx": 311
    },
    {
      "icon": {
        "paths": [
          "M32 512l480 480v-288h512v-384h-512v-288z"
        ],
        "attrs": [],
        "isMulticolor": false,
        "isMulticolor2": false,
        "tags": [
          "arrow-left",
          "left",
          "previous"
        ],
        "defaultCode": 59960,
        "grid": 16
      },
      "attrs": [],
      "properties": {
        "ligatures": "arrow-left, left3",
        "name": "arrow-left2",
        "id": 312,
        "order": 146,
        "prevSize": 32,
        "code": 59960
      },
      "setIdx": 4,
      "setId": 0,
      "iconIdx": 312
    },
    {
      "icon": {
        "paths": [
          "M877.254 786.746l-530.744-530.746h229.49c35.346 0 64-28.654 64-64s-28.654-64-64-64h-384c-25.886 0-49.222 15.592-59.128 39.508-3.282 7.924-4.84 16.242-4.838 24.492h-0.034v384c0 35.346 28.654 64 64 64s64-28.654 64-64v-229.49l530.746 530.744c12.496 12.498 28.876 18.746 45.254 18.746s32.758-6.248 45.254-18.746c24.994-24.992 24.994-65.516 0-90.508z"
        ],
        "attrs": [],
        "isMulticolor": false,
        "isMulticolor2": false,
        "tags": [
          "arrow-up-left",
          "up-left",
          "arrow-top-left"
        ],
        "defaultCode": 59961,
        "grid": 16
      },
      "attrs": [],
      "properties": {
        "ligatures": "arrow-up-left2, up-left2",
        "name": "arrow-up-left2",
        "id": 313,
        "order": 147,
        "prevSize": 32,
        "code": 59961
      },
      "setIdx": 4,
      "setId": 0,
      "iconIdx": 313
    },
    {
      "icon": {
        "paths": [
          "M877.254 402.746l-320-320c-24.992-24.994-65.514-24.994-90.508 0l-320 320c-24.994 24.994-24.994 65.516 0 90.51 24.994 24.996 65.516 24.996 90.51 0l210.744-210.746v613.49c0 35.346 28.654 64 64 64s64-28.654 64-64v-613.49l210.746 210.746c12.496 12.496 28.876 18.744 45.254 18.744s32.758-6.248 45.254-18.746c24.994-24.994 24.994-65.514 0-90.508z"
        ],
        "attrs": [],
        "isMulticolor": false,
        "isMulticolor2": false,
        "tags": [
          "arrow-up",
          "up",
          "upload",
          "top"
        ],
        "defaultCode": 59962,
        "grid": 16
      },
      "attrs": [],
      "properties": {
        "ligatures": "arrow-up2, up2",
        "name": "arrow-up22",
        "id": 314,
        "order": 148,
        "prevSize": 32,
        "code": 59962
      },
      "setIdx": 4,
      "setId": 0,
      "iconIdx": 314
    },
    {
      "icon": {
        "paths": [
          "M237.254 877.254l530.746-530.744v229.49c0 35.346 28.654 64 64 64s64-28.654 64-64v-384c0-25.884-15.594-49.222-39.508-59.126-7.924-3.284-16.242-4.84-24.492-4.838v-0.036h-384c-35.346 0-64 28.654-64 64 0 35.348 28.654 64 64 64h229.49l-530.744 530.746c-12.498 12.496-18.746 28.876-18.746 45.254s6.248 32.758 18.746 45.254c24.992 24.994 65.516 24.994 90.508 0z"
        ],
        "attrs": [],
        "isMulticolor": false,
        "isMulticolor2": false,
        "tags": [
          "arrow-up-right",
          "up-right",
          "arrow-top-right"
        ],
        "defaultCode": 59963,
        "grid": 16
      },
      "attrs": [],
      "properties": {
        "ligatures": "arrow-up-right2, up-right2",
        "name": "arrow-up-right2",
        "id": 315,
        "order": 149,
        "prevSize": 32,
        "code": 59963
      },
      "setIdx": 4,
      "setId": 0,
      "iconIdx": 315
    },
    {
      "icon": {
        "paths": [
          "M621.254 877.254l320-320c24.994-24.992 24.994-65.516 0-90.51l-320-320c-24.994-24.992-65.516-24.992-90.51 0-24.994 24.994-24.994 65.516 0 90.51l210.746 210.746h-613.49c-35.346 0-64 28.654-64 64s28.654 64 64 64h613.49l-210.746 210.746c-12.496 12.496-18.744 28.876-18.744 45.254s6.248 32.758 18.744 45.254c24.994 24.994 65.516 24.994 90.51 0z"
        ],
        "attrs": [],
        "isMulticolor": false,
        "isMulticolor2": false,
        "tags": [
          "arrow-right",
          "right",
          "next"
        ],
        "defaultCode": 59964,
        "grid": 16
      },
      "attrs": [],
      "properties": {
        "ligatures": "arrow-right2, right4",
        "name": "arrow-right22",
        "id": 316,
        "order": 150,
        "prevSize": 32,
        "code": 59964
      },
      "setIdx": 4,
      "setId": 0,
      "iconIdx": 316
    },
    {
      "icon": {
        "paths": [
          "M146.746 237.254l530.742 530.746h-229.488c-35.346 0-64 28.654-64 64s28.654 64 64 64h384c25.884 0 49.222-15.594 59.126-39.508 3.284-7.924 4.84-16.242 4.838-24.492h0.036v-384c0-35.346-28.654-64-64-64-35.348 0-64 28.654-64 64v229.49l-530.746-530.744c-12.496-12.498-28.874-18.746-45.254-18.746s-32.758 6.248-45.254 18.746c-24.994 24.992-24.994 65.516 0 90.508z"
        ],
        "attrs": [],
        "isMulticolor": false,
        "isMulticolor2": false,
        "tags": [
          "arrow-down-right",
          "down-right",
          "arrow-bottom-right"
        ],
        "defaultCode": 59965,
        "grid": 16
      },
      "attrs": [],
      "properties": {
        "ligatures": "arrow-down-right2, down-right2",
        "name": "arrow-down-right2",
        "id": 317,
        "order": 151,
        "prevSize": 32,
        "code": 59965
      },
      "setIdx": 4,
      "setId": 0,
      "iconIdx": 317
    },
    {
      "icon": {
        "paths": [
          "M877.254 621.254l-320 320c-24.992 24.994-65.514 24.994-90.508 0l-320-320c-24.994-24.994-24.994-65.516 0-90.51 24.994-24.996 65.516-24.996 90.51 0l210.744 210.746v-613.49c0-35.346 28.654-64 64-64s64 28.654 64 64v613.49l210.746-210.746c12.496-12.496 28.876-18.744 45.254-18.744s32.758 6.248 45.254 18.746c24.994 24.994 24.994 65.514 0 90.508z"
        ],
        "attrs": [],
        "isMulticolor": false,
        "isMulticolor2": false,
        "tags": [
          "arrow-down",
          "down",
          "download",
          "bottom"
        ],
        "defaultCode": 59966,
        "grid": 16
      },
      "attrs": [],
      "properties": {
        "ligatures": "arrow-down2, down2",
        "name": "arrow-down22",
        "id": 318,
        "order": 152,
        "prevSize": 32,
        "code": 59966
      },
      "setIdx": 4,
      "setId": 0,
      "iconIdx": 318
    },
    {
      "icon": {
        "paths": [
          "M786.744 146.744l-530.744 530.744v-229.49c0-35.346-28.654-64-64-64s-64 28.654-64 64v384.002c0 25.886 15.592 49.222 39.508 59.128 7.924 3.282 16.242 4.84 24.492 4.836v0.036l384-0.002c35.344 0 64-28.654 64-63.998 0-35.348-28.656-64-64-64h-229.49l530.744-530.746c12.496-12.496 18.746-28.876 18.746-45.256 0-16.376-6.25-32.758-18.746-45.254-24.992-24.992-65.518-24.992-90.51 0v0z"
        ],
        "attrs": [],
        "isMulticolor": false,
        "isMulticolor2": false,
        "tags": [
          "arrow-down-left",
          "down-left",
          "arrow-bottom-left"
        ],
        "defaultCode": 59967,
        "grid": 16
      },
      "attrs": [],
      "properties": {
        "ligatures": "arrow-down-left2, down-left2",
        "name": "arrow-down-left2",
        "id": 319,
        "order": 153,
        "prevSize": 32,
        "code": 59967
      },
      "setIdx": 4,
      "setId": 0,
      "iconIdx": 319
    },
    {
      "icon": {
        "paths": [
          "M402.746 877.254l-320-320c-24.994-24.992-24.994-65.516 0-90.51l320-320c24.994-24.992 65.516-24.992 90.51 0 24.994 24.994 24.994 65.516 0 90.51l-210.746 210.746h613.49c35.346 0 64 28.654 64 64s-28.654 64-64 64h-613.49l210.746 210.746c12.496 12.496 18.744 28.876 18.744 45.254s-6.248 32.758-18.744 45.254c-24.994 24.994-65.516 24.994-90.51 0z"
        ],
        "attrs": [],
        "isMulticolor": false,
        "isMulticolor2": false,
        "tags": [
          "arrow-left",
          "left",
          "previous"
        ],
        "defaultCode": 59968,
        "grid": 16
      },
      "attrs": [],
      "properties": {
        "ligatures": "arrow-left2, left4",
        "name": "arrow-left22",
        "id": 320,
        "order": 154,
        "prevSize": 32,
        "code": 59968
      },
      "setIdx": 4,
      "setId": 0,
      "iconIdx": 320
    },
    {
      "icon": {
        "paths": [
          "M0 512c0 282.77 229.23 512 512 512s512-229.23 512-512-229.23-512-512-512-512 229.23-512 512zM928 512c0 229.75-186.25 416-416 416s-416-186.25-416-416 186.25-416 416-416 416 186.25 416 416z",
          "M706.744 669.256l90.512-90.512-285.256-285.254-285.254 285.256 90.508 90.508 194.746-194.744z"
        ],
        "attrs": [],
        "isMulticolor": false,
        "isMulticolor2": false,
        "tags": [
          "circle-up",
          "up",
          "circle-top",
          "arrow"
        ],
        "defaultCode": 59969,
        "grid": 16
      },
      "attrs": [],
      "properties": {
        "ligatures": "circle-up, up3",
        "name": "circle-up",
        "id": 321,
        "order": 155,
        "prevSize": 32,
        "code": 59969
      },
      "setIdx": 4,
      "setId": 0,
      "iconIdx": 321
    },
    {
      "icon": {
        "paths": [
          "M512 0c-282.77 0-512 229.23-512 512s229.23 512 512 512 512-229.23 512-512-229.23-512-512-512zM512 928c-229.75 0-416-186.25-416-416s186.25-416 416-416 416 186.25 416 416-186.25 416-416 416z",
          "M354.744 706.744l90.512 90.512 285.254-285.256-285.256-285.254-90.508 90.508 194.744 194.746z"
        ],
        "attrs": [],
        "isMulticolor": false,
        "isMulticolor2": false,
        "tags": [
          "circle-right",
          "right",
          "circle-next",
          "arrow"
        ],
        "defaultCode": 59970,
        "grid": 16
      },
      "attrs": [],
      "properties": {
        "ligatures": "circle-right, right5",
        "name": "circle-right",
        "id": 322,
        "order": 156,
        "prevSize": 32,
        "code": 59970
      },
      "setIdx": 4,
      "setId": 0,
      "iconIdx": 322
    },
    {
      "icon": {
        "paths": [
          "M1024 512c0-282.77-229.23-512-512-512s-512 229.23-512 512 229.23 512 512 512 512-229.23 512-512zM96 512c0-229.75 186.25-416 416-416s416 186.25 416 416-186.25 416-416 416-416-186.25-416-416z",
          "M317.256 354.744l-90.512 90.512 285.256 285.254 285.254-285.256-90.508-90.508-194.746 194.744z"
        ],
        "attrs": [],
        "isMulticolor": false,
        "isMulticolor2": false,
        "tags": [
          "circle-down",
          "down",
          "circle-bottom",
          "arrow"
        ],
        "defaultCode": 59971,
        "grid": 16
      },
      "attrs": [],
      "properties": {
        "ligatures": "circle-down, down3",
        "name": "circle-down",
        "id": 323,
        "order": 157,
        "prevSize": 32,
        "code": 59971
      },
      "setIdx": 4,
      "setId": 0,
      "iconIdx": 323
    },
    {
      "icon": {
        "paths": [
          "M512 1024c282.77 0 512-229.23 512-512s-229.23-512-512-512-512 229.23-512 512 229.23 512 512 512zM512 96c229.75 0 416 186.25 416 416s-186.25 416-416 416-416-186.25-416-416 186.25-416 416-416z",
          "M669.256 317.256l-90.512-90.512-285.254 285.256 285.256 285.254 90.508-90.508-194.744-194.746z"
        ],
        "attrs": [],
        "isMulticolor": false,
        "isMulticolor2": false,
        "tags": [
          "circle-left",
          "left",
          "circle-previous",
          "arrow"
        ],
        "defaultCode": 59972,
        "grid": 16
      },
      "attrs": [],
      "properties": {
        "ligatures": "circle-left, left5",
        "name": "circle-left",
        "id": 324,
        "order": 158,
        "prevSize": 32,
        "code": 59972
      },
      "setIdx": 4,
      "setId": 0,
      "iconIdx": 324
    }
  ],
  "height": 1024,
  "metadata": {
    "name": "icomoon"
  },
  "preferences": {
    "showGlyphs": true,
    "showCodes": true,
    "showQuickUse": true,
    "showQuickUse2": true,
    "showSVGs": true,
    "fontPref": {
      "prefix": "icon-",
      "metadata": {
        "fontFamily": "icomoon"
      },
      "metrics": {
        "emSize": 1024,
        "baseline": 6.25,
        "whitespace": 50
      },
      "embed": false
    },
    "imagePref": {
      "prefix": "icon-",
      "png": true,
      "useClassSelector": true,
      "color": 0,
      "bgColor": 16777215
    },
    "historySize": 50
  }
}