{
  "IcoMoonType": "selection",
  "icons": [
    {
      "icon": {
        "paths": [
          "M504 466c96 26 200 64 200 186 0 88-66 136-150 152v92h-128v-92c-82-18-150-70-156-164h94c4 50 38 90 126 90 94 0 116-46 116-76 0-40-22-78-128-104-120-28-200-78-200-176 0-82 66-136 148-154v-92h128v94c90 22 136 88 138 162h-94c-2-54-32-90-108-90-72 0-114 34-114 80 0 40 32 66 128 92z"
        ],
        "attrs": [],
        "isMulticolor": false,
        "isMulticolor2": false,
        "tags": [
          "attach_money"
        ],
        "defaultCode": 57895,
        "grid": 24
      },
      "attrs": [],
      "properties": {
        "ligatures": "attach_money",
        "id": 64,
        "order": 19,
        "prevSize": 24,
        "code": 57895,
        "name": "attach_money"
      },
      "setIdx": 0,
      "setId": 2,
      "iconIdx": 64
    },
    {
      "icon": {
        "paths": [
          "M896 810v-128h-768v128h768zM896 128c46 0 86 40 86 86v596c0 46-40 86-86 86h-768c-46 0-86-40-86-86v-596c0-46 40-86 86-86h768z"
        ],
        "attrs": [],
        "isMulticolor": false,
        "isMulticolor2": false,
        "tags": [
          "call_to_action"
        ],
        "defaultCode": 57452,
        "grid": 24
      },
      "attrs": [],
      "properties": {
        "ligatures": "call_to_action",
        "id": 128,
        "order": 20,
        "prevSize": 24,
        "code": 57452,
        "name": "call_to_action"
      },
      "setIdx": 0,
      "setId": 2,
      "iconIdx": 128
    },
    {
      "icon": {
        "paths": [
          "M640 790c70 0 132-26 180-68l76 76c-68 62-158 98-256 98-168 0-310-108-362-256h-150v-86h130c-2-14-2-28-2-42s0-28 2-42h-130v-86h150c52-148 194-256 362-256 98 0 188 36 256 98l-76 76c-48-42-112-68-180-68-106 0-200 62-246 150h246v86h-274c-2 14-4 28-4 42s2 28 4 42h274v86h-246c46 88 138 150 246 150z"
        ],
        "attrs": [],
        "isMulticolor": false,
        "isMulticolor2": false,
        "tags": [
          "euro_symbol"
        ],
        "defaultCode": 59686,
        "grid": 24
      },
      "attrs": [],
      "properties": {
        "ligatures": "euro_symbol",
        "id": 247,
        "order": 21,
        "prevSize": 24,
        "code": 59686,
        "name": "euro_symbol"
      },
      "setIdx": 0,
      "setId": 2,
      "iconIdx": 247
    },
    {
      "icon": {
        "paths": [
          "M636 938h-6c-68-18-112-44-158-90-60-60-92-138-92-222 0-70 58-126 130-126s132 56 132 126c0 46 38 82 88 82s90-36 90-82c0-160-140-292-310-292-122 0-232 68-282 172-16 34-24 76-24 120 0 34 2 86 28 154 9.157 27.471-30.939 36.654-40 14-20-56-32-110-32-168 0-52 10-98 30-138 56-120 182-198 320-198 194 0 352 152 352 336 0 70-60 124-132 124s-130-54-130-124c0-46-40-84-90-84s-88 38-88 84c0 72 28 140 80 192 40 40 80 62 140 78 12 2 16 14 14 26-2 10-12 16-20 16zM530 626c0 97.515 80.578 182 192 182 19.928 0 65.546-14.722 70 12 2 12-6 24-18 26-24 4-46 4-52 4-50 0-96-12-132-38-64-44-102-112-102-186 0-12 10-22 22-22s20 10 20 22zM416 930c-6 0-10-2-14-6-38-38-58-62-86-114-30-52-46-116-46-184 0-126 108-230 242-230s242 104 242 230c0 12-10 20-22 20s-22-8-22-20c0-104-88-188-198-188s-198 84-198 188c0 62 12 118 38 164 28 50 48 70 80 104 8 8 8 22 0 30-4 4-10 6-16 6zM150 414c-17.624 0-27.785-15.691-18-32 42-60 96-108 160-140 134-70 306-70 440 0 64 32 118 78 160 138 6 10 4 24-6 30s-24 4-30-6c-38-54-86-94-144-124-122-62-278-64-400 0-58 30-108 72-146 126-4 6-10 8-16 8zM760 190c-4 0-8 0-10-2-82-42-154-60-238-60s-166 20-238 60c-23.381 14.029-43.278-24.033-20-38 80-44 166-64 258-64 90 0 170 20 258 64 18.211 10.927 10.406 40-10 40z"
        ],
        "attrs": [],
        "isMulticolor": false,
        "isMulticolor2": false,
        "tags": [
          "fingerprint"
        ],
        "defaultCode": 59661,
        "grid": 24
      },
      "attrs": [],
      "properties": {
        "ligatures": "fingerprint",
        "id": 303,
        "order": 22,
        "prevSize": 24,
        "code": 59661,
        "name": "fingerprint"
      },
      "setIdx": 0,
      "setId": 2,
      "iconIdx": 303
    },
    {
      "icon": {
        "paths": [
          "M644 342v-86c0-72-60-132-132-132s-132 60-132 132v86h264zM512 726c46 0 86-40 86-86s-40-86-86-86-86 40-86 86 40 86 86 86zM768 342c46 0 86 38 86 84v428c0 46-40 84-86 84h-512c-46 0-86-38-86-84v-428c0-46 40-84 86-84h42v-86c0-118 96-214 214-214s214 96 214 214v86h42z"
        ],
        "attrs": [],
        "isMulticolor": false,
        "isMulticolor2": false,
        "tags": [
          "lock"
        ],
        "defaultCode": 59543,
        "grid": 24
      },
      "attrs": [],
      "properties": {
        "ligatures": "https, lock",
        "id": 392,
        "order": 23,
        "prevSize": 24,
        "code": 59543,
        "name": "lock"
      },
      "setIdx": 0,
      "setId": 2,
      "iconIdx": 392
    },
    {
      "icon": {
        "paths": [
          "M854 768v-512h-684v512h684zM854 170c48 0 84 38 84 86v512c0 48-36 86-84 86h-684c-48 0-84-38-84-86v-512c0-48 36-86 84-86h684zM470 726v-44h-86v-84h170v-44h-128c-24 0-42-18-42-42v-128c0-24 18-42 42-42h44v-44h84v44h86v84h-170v44h128c24 0 42 18 42 42v128c0 24-18 42-42 42h-44v44h-84z"
        ],
        "attrs": [],
        "isMulticolor": false,
        "isMulticolor2": false,
        "tags": [
          "local_atm"
        ],
        "defaultCode": 58686,
        "grid": 24
      },
      "attrs": [],
      "properties": {
        "ligatures": "local_atm",
        "id": 447,
        "order": 25,
        "prevSize": 24,
        "code": 58686,
        "name": "local_atm"
      },
      "setIdx": 0,
      "setId": 2,
      "iconIdx": 447
    },
    {
      "icon": {
        "paths": [
          "M726 768c46 0 84 40 84 86s-38 84-84 84-86-38-86-84 40-86 86-86zM42 86h140l40 84h632c24 0 42 20 42 44 0 8-2 14-6 20l-152 276c-14 26-42 44-74 44h-318l-38 70-2 6c0 6 4 10 10 10h494v86h-512c-46 0-84-40-84-86 0-14 4-28 10-40l58-106-154-324h-86v-84zM298 768c46 0 86 40 86 86s-40 84-86 84-84-38-84-84 38-86 84-86z"
        ],
        "attrs": [],
        "isMulticolor": false,
        "isMulticolor2": false,
        "tags": [
          "shopping_cart"
        ],
        "defaultCode": 59596,
        "grid": 24
      },
      "attrs": [],
      "properties": {
        "ligatures": "local_grocery_store, shopping_cart",
        "id": 456,
        "order": 26,
        "prevSize": 24,
        "code": 59596,
        "name": "shopping_cart"
      },
      "setIdx": 0,
      "setId": 2,
      "iconIdx": 456
    },
    {
      "icon": {
        "paths": [
          "M234 298c36 0 64-28 64-64s-28-64-64-64-64 28-64 64 28 64 64 64zM914 494c16 16 24 36 24 60s-8 44-24 60l-300 300c-16 16-36 24-60 24s-44-8-60-24l-384-384c-16-16-24-36-24-60v-300c0-46 38-84 84-84h300c24 0 44 8 60 24z"
        ],
        "attrs": [],
        "isMulticolor": false,
        "isMulticolor2": false,
        "tags": [
          "local_offer"
        ],
        "defaultCode": 58702,
        "grid": 24
      },
      "attrs": [],
      "properties": {
        "ligatures": "local_offer",
        "id": 462,
        "order": 27,
        "prevSize": 24,
        "code": 58702,
        "name": "local_offer"
      },
      "setIdx": 0,
      "setId": 2,
      "iconIdx": 462
    },
    {
      "icon": {
        "paths": [
          "M768 854v-428h-512v428h512zM768 342c46 0 86 38 86 84v428c0 46-40 84-86 84h-512c-46 0-86-38-86-84v-428c0-46 40-84 86-84h388v-86c0-72-60-132-132-132s-132 60-132 132h-82c0-118 96-214 214-214s214 96 214 214v86h42zM512 726c-46 0-86-40-86-86s40-86 86-86 86 40 86 86-40 86-86 86z"
        ],
        "attrs": [],
        "isMulticolor": false,
        "isMulticolor2": false,
        "tags": [
          "lock_open"
        ],
        "defaultCode": 59544,
        "grid": 24
      },
      "attrs": [],
      "properties": {
        "ligatures": "lock_open",
        "id": 472,
        "order": 29,
        "prevSize": 24,
        "code": 59544,
        "name": "lock_open"
      },
      "setIdx": 0,
      "setId": 2,
      "iconIdx": 472
    },
    {
      "icon": {
        "paths": [
          "M768 854v-428h-512v428h512zM380 256v86h264v-86c0-72-60-132-132-132s-132 60-132 132zM768 342c46 0 86 38 86 84v428c0 46-40 84-86 84h-512c-46 0-86-38-86-84v-428c0-46 40-84 86-84h42v-86c0-118 96-214 214-214s214 96 214 214v86h42zM512 726c-46 0-86-40-86-86s40-86 86-86 86 40 86 86-40 86-86 86z"
        ],
        "attrs": [],
        "isMulticolor": false,
        "isMulticolor2": false,
        "tags": [
          "lock_outline"
        ],
        "defaultCode": 59545,
        "grid": 24
      },
      "attrs": [],
      "properties": {
        "ligatures": "lock_outline",
        "id": 473,
        "order": 28,
        "prevSize": 24,
        "code": 59545,
        "name": "lock_outline"
      },
      "setIdx": 0,
      "setId": 2,
      "iconIdx": 473
    },
    {
      "icon": {
        "paths": [
          "M736 652c20-20 32-46 32-76 0-58-48-106-106-106-30 0-56 10-76 30l-32 32-30-32c-20-20-46-30-76-30-58 0-106 48-106 106 0 30 10 56 30 76l182 182zM234 298c36 0 64-28 64-64s-28-64-64-64-64 28-64 64 28 64 64 64zM914 494c16 16 24 36 24 60s-8 44-24 60l-300 300c-16 16-36 24-60 24s-44-8-60-24l-384-384c-16-16-24-36-24-60v-300c0-46 38-84 84-84h300c24 0 44 8 60 24z"
        ],
        "attrs": [],
        "isMulticolor": false,
        "isMulticolor2": false,
        "tags": [
          "loyalty"
        ],
        "defaultCode": 59546,
        "grid": 24
      },
      "attrs": [],
      "properties": {
        "ligatures": "loyalty",
        "id": 484,
        "order": 30,
        "prevSize": 24,
        "code": 59546,
        "name": "loyalty"
      },
      "setIdx": 0,
      "setId": 2,
      "iconIdx": 484
    },
    {
      "icon": {
        "paths": [
          "M572 772c74-14 134-56 134-134 0-108-94-146-180-168s-112-46-112-82c0-40 38-70 102-70 68 0 92 32 94 80h84c-2-66-42-124-122-144v-84h-114v84c-74 16-132 62-132 136 0 88 72 130 178 156 96 22 114 56 114 92 0 26-18 68-102 68-78 0-110-36-114-80h-84c4 82 68 128 140 144v84h114v-82zM512 86c236 0 426 190 426 426s-190 426-426 426-426-190-426-426 190-426 426-426z"
        ],
        "attrs": [],
        "isMulticolor": false,
        "isMulticolor2": false,
        "tags": [
          "monetization_on"
        ],
        "defaultCode": 57955,
        "grid": 24
      },
      "attrs": [],
      "properties": {
        "ligatures": "monetization_on",
        "id": 496,
        "order": 31,
        "prevSize": 24,
        "code": 57955,
        "name": "monetization_on"
      },
      "setIdx": 0,
      "setId": 2,
      "iconIdx": 496
    },
    {
      "icon": {
        "paths": [
          "M250 842v-270l148 356h-62c-46 0-86-40-86-86zM336 374c24 0 42-20 42-44s-18-42-42-42-42 18-42 42 18 44 42 44zM940 680c18 44-2 94-46 112l-314 130c-10 4-22 6-34 6-34 0-64-20-78-52l-212-512c-4-12-6-22-6-34 0-32 20-62 52-76l316-130c12-4 22-6 34-6 32 0 62 20 76 52zM108 838c-44-18-64-66-46-110l104-250v384z"
        ],
        "attrs": [],
        "isMulticolor": false,
        "isMulticolor2": false,
        "tags": [
          "style"
        ],
        "defaultCode": 58397,
        "grid": 24
      },
      "attrs": [],
      "properties": {
        "ligatures": "style",
        "id": 727,
        "order": 32,
        "prevSize": 24,
        "code": 58397,
        "name": "style"
      },
      "setIdx": 0,
      "setId": 2,
      "iconIdx": 727
    },
    {
      "icon": {
        "paths": [
          "M36 877.714h-36v-804.571h36v804.571zM72 877.143h-18.286v-804h18.286v804zM125.714 877.143h-17.714v-804h17.714v804zM215.429 877.143h-17.714v-804h17.714v804zM305.143 877.143h-35.429v-804h35.429v804zM377.143 877.143h-17.714v-804h17.714v804zM413.143 877.143h-17.714v-804h17.714v804zM449.143 877.143h-17.714v-804h17.714v804zM538.857 877.143h-36v-804h36v804zM628.571 877.143h-36v-804h36v804zM700.571 877.143h-36v-804h36v804zM772.571 877.143h-36v-804h36v804zM826.286 877.143h-36v-804h36v804zM934.286 877.143h-53.714v-804h53.714v804zM970.286 877.143h-18.286v-804h18.286v804zM1024 877.714h-36v-804.571h36v804.571z"
        ],
        "width": 1024,
        "attrs": [],
        "isMulticolor": false,
        "isMulticolor2": false,
        "tags": [
          "barcode"
        ],
        "defaultCode": 61482,
        "grid": 14
      },
      "attrs": [],
      "properties": {
        "name": "barcode2",
        "id": 43,
        "order": 34,
        "prevSize": 28,
        "code": 61482
      },
      "setIdx": 1,
      "setId": 1,
      "iconIdx": 43
    },
    {
      "icon": {
        "paths": [
          "M256 256c0-40.571-32.571-73.143-73.143-73.143s-73.143 32.571-73.143 73.143 32.571 73.143 73.143 73.143 73.143-32.571 73.143-73.143zM865.714 585.143c0 19.429-8 38.286-21.143 51.429l-280.571 281.143c-13.714 13.143-32.571 21.143-52 21.143s-38.286-8-51.429-21.143l-408.571-409.143c-29.143-28.571-52-84-52-124.571v-237.714c0-40 33.143-73.143 73.143-73.143h237.714c40.571 0 96 22.857 125.143 52l408.571 408c13.143 13.714 21.143 32.571 21.143 52z"
        ],
        "width": 865.7188571428571,
        "attrs": [],
        "isMulticolor": false,
        "isMulticolor2": false,
        "tags": [
          "tag"
        ],
        "defaultCode": 61483,
        "grid": 14
      },
      "attrs": [],
      "properties": {
        "name": "tag",
        "id": 44,
        "order": 33,
        "prevSize": 28,
        "code": 61483
      },
      "setIdx": 1,
      "setId": 1,
      "iconIdx": 44
    },
    {
      "icon": {
        "paths": [
          "M256 256c0-40.571-32.571-73.143-73.143-73.143s-73.143 32.571-73.143 73.143 32.571 73.143 73.143 73.143 73.143-32.571 73.143-73.143zM865.714 585.143c0 19.429-8 38.286-21.143 51.429l-280.571 281.143c-13.714 13.143-32.571 21.143-52 21.143s-38.286-8-51.429-21.143l-408.571-409.143c-29.143-28.571-52-84-52-124.571v-237.714c0-40 33.143-73.143 73.143-73.143h237.714c40.571 0 96 22.857 125.143 52l408.571 408c13.143 13.714 21.143 32.571 21.143 52zM1085.143 585.143c0 19.429-8 38.286-21.143 51.429l-280.571 281.143c-13.714 13.143-32.571 21.143-52 21.143-29.714 0-44.571-13.714-64-33.714l268.571-268.571c13.143-13.143 21.143-32 21.143-51.429s-8-38.286-21.143-52l-408.571-408c-29.143-29.143-84.571-52-125.143-52h128c40.571 0 96 22.857 125.143 52l408.571 408c13.143 13.714 21.143 32.571 21.143 52z"
        ],
        "width": 1085.1474285714285,
        "attrs": [],
        "isMulticolor": false,
        "isMulticolor2": false,
        "tags": [
          "tags"
        ],
        "defaultCode": 61484,
        "grid": 14
      },
      "attrs": [],
      "properties": {
        "name": "tags",
        "id": 45,
        "order": 35,
        "prevSize": 28,
        "code": 61484
      },
      "setIdx": 1,
      "setId": 1,
      "iconIdx": 45
    },
    {
      "icon": {
        "paths": [
          "M950.857 329.143v146.286c0 20-16.571 36.571-36.571 36.571h-36.571c-20 0-36.571-16.571-36.571-36.571v-146.286c0-80.571-65.714-146.286-146.286-146.286s-146.286 65.714-146.286 146.286v109.714h54.857c30.286 0 54.857 24.571 54.857 54.857v329.143c0 30.286-24.571 54.857-54.857 54.857h-548.571c-30.286 0-54.857-24.571-54.857-54.857v-329.143c0-30.286 24.571-54.857 54.857-54.857h384v-109.714c0-141.143 114.857-256 256-256s256 114.857 256 256z"
        ],
        "width": 950.8571428571428,
        "attrs": [],
        "isMulticolor": false,
        "isMulticolor2": false,
        "tags": [
          "unlock"
        ],
        "defaultCode": 61596,
        "grid": 14
      },
      "attrs": [],
      "properties": {
        "name": "unlock",
        "id": 148,
        "order": 37,
        "prevSize": 28,
        "code": 61596
      },
      "setIdx": 1,
      "setId": 1,
      "iconIdx": 148
    },
    {
      "icon": {
        "paths": [
          "M1005.714 73.143c50.286 0 91.429 41.143 91.429 91.429v694.857c0 50.286-41.143 91.429-91.429 91.429h-914.286c-50.286 0-91.429-41.143-91.429-91.429v-694.857c0-50.286 41.143-91.429 91.429-91.429h914.286zM91.429 146.286c-9.714 0-18.286 8.571-18.286 18.286v128h950.857v-128c0-9.714-8.571-18.286-18.286-18.286h-914.286zM1005.714 877.714c9.714 0 18.286-8.571 18.286-18.286v-347.429h-950.857v347.429c0 9.714 8.571 18.286 18.286 18.286h914.286zM146.286 804.571v-73.143h146.286v73.143h-146.286zM365.714 804.571v-73.143h219.429v73.143h-219.429z"
        ],
        "width": 1097.142857142857,
        "attrs": [],
        "isMulticolor": false,
        "isMulticolor2": false,
        "tags": [
          "credit-card"
        ],
        "defaultCode": 61597,
        "grid": 14
      },
      "attrs": [],
      "properties": {
        "name": "credit-card2",
        "id": 149,
        "order": 36,
        "prevSize": 28,
        "code": 61597
      },
      "setIdx": 1,
      "setId": 1,
      "iconIdx": 149
    },
    {
      "icon": {
        "paths": [
          "M219.429 877.714c0-40.571-32.571-73.143-73.143-73.143s-73.143 32.571-73.143 73.143 32.571 73.143 73.143 73.143 73.143-32.571 73.143-73.143zM438.857 877.714c0-40.571-32.571-73.143-73.143-73.143s-73.143 32.571-73.143 73.143 32.571 73.143 73.143 73.143 73.143-32.571 73.143-73.143zM219.429 658.286c0-40.571-32.571-73.143-73.143-73.143s-73.143 32.571-73.143 73.143 32.571 73.143 73.143 73.143 73.143-32.571 73.143-73.143zM658.286 877.714c0-40.571-32.571-73.143-73.143-73.143s-73.143 32.571-73.143 73.143 32.571 73.143 73.143 73.143 73.143-32.571 73.143-73.143zM438.857 658.286c0-40.571-32.571-73.143-73.143-73.143s-73.143 32.571-73.143 73.143 32.571 73.143 73.143 73.143 73.143-32.571 73.143-73.143zM219.429 438.857c0-40.571-32.571-73.143-73.143-73.143s-73.143 32.571-73.143 73.143 32.571 73.143 73.143 73.143 73.143-32.571 73.143-73.143zM658.286 658.286c0-40.571-32.571-73.143-73.143-73.143s-73.143 32.571-73.143 73.143 32.571 73.143 73.143 73.143 73.143-32.571 73.143-73.143zM438.857 438.857c0-40.571-32.571-73.143-73.143-73.143s-73.143 32.571-73.143 73.143 32.571 73.143 73.143 73.143 73.143-32.571 73.143-73.143zM877.714 877.714v-219.429c0-40-33.143-73.143-73.143-73.143v0c-40 0-73.143 33.143-73.143 73.143v219.429c0 40 33.143 73.143 73.143 73.143v0c40 0 73.143-33.143 73.143-73.143zM658.286 438.857c0-40.571-32.571-73.143-73.143-73.143s-73.143 32.571-73.143 73.143 32.571 73.143 73.143 73.143 73.143-32.571 73.143-73.143zM877.714 256v-146.286c0-20-16.571-36.571-36.571-36.571h-731.429c-20 0-36.571 16.571-36.571 36.571v146.286c0 20 16.571 36.571 36.571 36.571h731.429c20 0 36.571-16.571 36.571-36.571zM877.714 438.857c0-40.571-32.571-73.143-73.143-73.143s-73.143 32.571-73.143 73.143 32.571 73.143 73.143 73.143 73.143-32.571 73.143-73.143zM950.857 73.143v877.714c0 40-33.143 73.143-73.143 73.143h-804.571c-40 0-73.143-33.143-73.143-73.143v-877.714c0-40 33.143-73.143 73.143-73.143h804.571c40 0 73.143 33.143 73.143 73.143z"
        ],
        "width": 950.8571428571428,
        "attrs": [],
        "isMulticolor": false,
        "isMulticolor2": false,
        "tags": [
          "calculator"
        ],
        "defaultCode": 61932,
        "grid": 14
      },
      "attrs": [],
      "properties": {
        "name": "calculator2",
        "id": 448,
        "order": 44,
        "prevSize": 28,
        "code": 61932
      },
      "setIdx": 1,
      "setId": 1,
      "iconIdx": 448
    },
    {
      "icon": {
        "paths": [
          "M868 369.143v0c7.429 34.286 5.714 73.714-2.286 116.571-37.143 188.571-162.286 253.714-322.857 253.714h-25.143c-19.429 0-35.429 14.286-38.857 33.714l-2.286 10.857-31.429 197.714-1.143 8.571c-4 19.429-20 33.714-39.429 33.714h-143.429c-16 0-26.286-13.143-24-29.143 10.286-64 20-128 30.286-192s20.571-127.429 30.857-191.429c1.714-13.714 10.857-21.143 24.571-21.143 22.857 0 45.714-0.571 74.857 0 41.143 0.571 88.571-1.714 134.857-12 61.714-13.714 117.714-38.857 164-82.286 41.714-38.857 69.714-86.857 88.571-140.571 8.571-25.143 15.429-50.286 20-76 1.143-6.857 2.857-5.714 6.857-2.857 31.429 23.429 49.143 54.857 56 92.571zM769.714 208c0 46.857-10.857 91.429-26.286 134.857-29.714 86.286-85.714 148-172.571 180-46.286 16.571-94.857 23.429-144 24-34.286 0.571-68.571 0-102.857 0-37.143 0-60.571 18.286-67.429 54.857-8 43.429-39.429 245.714-48.571 302.857-0.571 4-2.286 5.714-6.857 5.714h-168.571c-17.143 0-29.714-14.857-27.429-31.429l132.571-840.571c3.429-21.714 22.857-38.286 45.143-38.286h341.714c24.571 0 81.143 10.857 119.429 25.714 81.143 31.429 125.714 95.429 125.714 182.286z"
        ],
        "width": 878.2994285714285,
        "attrs": [],
        "isMulticolor": false,
        "isMulticolor2": false,
        "tags": [
          "paypal"
        ],
        "defaultCode": 61933,
        "grid": 14
      },
      "attrs": [],
      "properties": {
        "name": "paypal",
        "id": 449,
        "order": 45,
        "prevSize": 28,
        "code": 61933
      },
      "setIdx": 1,
      "setId": 1,
      "iconIdx": 449
    },
    {
      "icon": {
        "paths": [
          "M252 384c11.429 0 22.857 5.714 29.714 14.857 100 136.571 169.714 282.857 206.857 442.286h-254.857c-45.714-158.857-113.143-304-209.714-428-9.143-12 0-29.143 14.857-29.143h213.143zM571.429 588c-18.857 77.143-42.857 152-71.429 224.571-30.286-119.429-78.857-231.429-146.286-339.429 14.857-82.857 23.429-168 25.143-256.571 80.571 129.714 144.571 253.143 192.571 371.429zM628 182.857c170.857 235.429 297.714 525.714 325.143 841.143h-257.714c-18.857-305.143-159.429-594.286-316-841.143h248.571zM1024 512c0 158.857-21.714 325.714-57.714 464-25.143-211.429-94.857-421.714-205.143-618.857-9.714-115.429-30.286-227.429-60.571-333.714-2.857-12 5.714-23.429 17.714-23.429h205.143c16 0 30.857 10.857 34.857 26.286 43.429 154.286 65.714 317.714 65.714 485.714z"
        ],
        "width": 1038.848,
        "attrs": [],
        "isMulticolor": false,
        "isMulticolor2": false,
        "tags": [
          "google-wallet"
        ],
        "defaultCode": 61934,
        "grid": 14
      },
      "attrs": [],
      "properties": {
        "name": "google-wallet",
        "id": 450,
        "order": 46,
        "prevSize": 28,
        "code": 61934
      },
      "setIdx": 1,
      "setId": 1,
      "iconIdx": 450
    },
    {
      "icon": {
        "paths": [
          "M1128.571 565.714h-78.857c0 0 8-21.143 37.714-102.286-0.571 0.571 8-21.143 12.571-34.857l6.857 31.429c17.714 87.429 21.714 105.714 21.714 105.714zM303.429 528.571l-33.143-168.571c-4.571-23.429-22.286-30.857-42.857-30.857h-153.143l-1.143 7.429c105.143 26.857 191.429 84 230.286 192zM405.714 329.143l-92.571 250.286-9.714-50.857c-20-53.143-68.571-102.286-123.429-124.571l77.143 291.429h100l149.143-366.286h-100.571zM485.143 696h94.857l59.429-366.857h-94.857zM924 338.286c-18.857-7.429-48.571-15.429-85.143-15.429-93.714 0-159.429 49.714-160 121.143-0.571 52.571 46.857 81.714 82.857 99.429 37.143 17.714 49.143 29.714 49.143 45.714 0 24.571-29.714 35.429-56.571 35.429-38.286 0-58.857-4.571-89.143-18.857l-12.571-6.286-13.143 82.286c22.286 10.286 62.857 19.429 105.714 19.429 99.429 0.571 164-49.143 165.143-125.143 0-41.714-25.714-73.143-80-99.429-33.143-16.571-53.143-28.571-53.143-45.714 0-15.429 17.143-31.429 54.286-31.429 30.857-0.571 53.714 5.714 70.857 13.714l8.571 4.571zM1166.857 329.143h-73.143c-22.857 0-40 6.857-49.714 30.857l-140.571 336h99.429c16-45.143 20-54.857 20-54.857h121.143c0 0 2.857 12.571 11.429 54.857h88zM1316.571 146.286v731.429c0 40-33.143 73.143-73.143 73.143h-1170.286c-40 0-73.143-33.143-73.143-73.143v-731.429c0-40 33.143-73.143 73.143-73.143h1170.286c40 0 73.143 33.143 73.143 73.143z"
        ],
        "width": 1316.5714285714284,
        "attrs": [],
        "isMulticolor": false,
        "isMulticolor2": false,
        "tags": [
          "cc-visa"
        ],
        "defaultCode": 61936,
        "grid": 14
      },
      "attrs": [],
      "properties": {
        "name": "cc-visa",
        "id": 451,
        "order": 38,
        "prevSize": 28,
        "code": 61936
      },
      "setIdx": 1,
      "setId": 1,
      "iconIdx": 451
    },
    {
      "icon": {
        "paths": [
          "M639.429 194.857c-47.429-31.429-103.429-48.571-160.571-48.571-160.571 0-290.857 130.286-290.857 290.286 0 160.571 130.286 290.857 290.857 290.857 57.143 0 113.143-17.143 160.571-48.571-153.143-124.571-152-359.429 0-484zM658.286 208.571c-147.429 116-148 341.143 0 456.571 148-115.429 147.429-340.571 0-456.571zM677.143 194.857c151.429 124.571 153.714 360 0 484 47.429 31.429 104 48.571 160.571 48.571 160.571 0 290.857-130.286 290.857-290.857 0-160-130.286-290.286-290.857-290.286-57.143 0-113.143 17.143-160.571 48.571zM1100.571 607.429h4v-1.714h-9.714v1.714h4v9.714h1.714v-9.714zM1117.143 617.143h2.286v-11.429h-2.857l-3.429 7.429-3.429-7.429h-2.857v11.429h1.714v-8.571l3.429 7.429h2.286l2.857-7.429v8.571zM1112.571 868.571v1.143h-2.857v-1.714h2.857v0.571zM1112.571 873.714h1.714l-2.286-2.857c1.143 0 1.143-0.571 1.714-0.571 0.571-0.571 0.571-1.143 0.571-1.714s0-1.143-0.571-1.714c-0.571 0-1.143-0.571-2.286-0.571h-3.429v7.429h1.714v-2.857h0.571zM391.429 834.857c0-13.714 8.571-24.571 23.429-24.571 13.714 0 22.857 10.857 22.857 24.571 0 14.286-9.143 24.571-22.857 24.571-14.857 0-23.429-10.857-23.429-24.571zM661.714 809.714c10.857 0 18.286 6.286 20 18.286h-40c1.714-10.857 8.571-18.286 20-18.286zM865.143 834.857c0-13.714 8.571-24.571 22.857-24.571s23.429 10.857 23.429 24.571c0 14.286-9.143 24.571-23.429 24.571s-22.857-10.857-22.857-24.571zM1020.571 834.857c0-13.714 9.143-24.571 23.429-24.571 13.714 0 23.429 10.857 23.429 24.571 0 14.286-9.714 24.571-23.429 24.571-14.286 0-23.429-10.857-23.429-24.571zM1110.857 876c-0.571 0-1.143 0-2.286-0.571-0.571 0-1.143-0.571-1.714-1.143s-1.143-1.143-1.143-1.714-0.571-1.714-0.571-2.286 0-1.714 0.571-2.286c0-1.143 0.571-1.714 1.143-2.286s1.143-0.571 1.714-1.143 1.714-0.571 2.286-0.571 1.714 0 2.286 0.571 1.714 0.571 2.286 1.143 0.571 1.143 1.143 2.286c0 0.571 0.571 1.143 0.571 2.286 0 0.571-0.571 1.143-0.571 2.286-0.571 0.571-0.571 1.143-1.143 1.714s-1.143 1.143-2.286 1.143c-0.571 0.571-1.143 0.571-2.286 0.571zM342.286 873.714h17.143v-48.571c0-18.286-12-30.286-30.857-30.857-9.714 0-20 2.857-26.857 13.714-5.143-8.571-13.714-13.714-25.714-13.714-8 0-16 2.857-22.286 11.429v-9.143h-17.143v77.143h17.143v-42.857c0-13.714 7.429-20.571 18.857-20.571s17.143 7.429 17.143 20.571v42.857h16.571v-42.857c0-13.714 8-20.571 18.857-20.571 11.429 0 17.143 7.429 17.143 20.571v42.857zM437.143 873.714h16.571v-77.143h-16.571v9.143c-5.714-6.857-13.714-11.429-24.571-11.429-21.714 0-38.286 17.143-38.286 40.571s16.571 40.571 38.286 40.571c10.857 0 18.857-4 24.571-11.429v9.714zM538.857 850.286c0-13.714-10.286-20.571-26.857-22.857l-8-1.143c-7.429-1.143-13.143-2.857-13.143-8s5.143-8.571 14.286-8.571c10.286 0 19.429 3.429 24.571 6.286l6.857-13.714c-8-5.143-18.857-8-31.429-8-19.429 0-32 9.714-32 25.143 0 12.571 9.143 20 26.857 22.286l7.429 1.143c9.714 1.714 13.714 4 13.714 8 0 6.286-6.286 9.714-17.714 9.714s-20-4-25.714-8l-7.429 13.143c9.143 6.286 20.571 9.714 33.143 9.714 22.286 0 35.429-10.286 35.429-25.143zM613.143 869.714l-4.571-14.286c-5.143 2.857-10.286 4-14.857 4-8.571 0-10.857-5.143-10.857-12.571v-34.857h27.429v-15.429h-27.429v-23.429h-17.143v23.429h-16v15.429h16v34.857c0 17.714 6.857 28.571 26.857 28.571 6.857 0 15.429-2.286 20.571-5.714zM662.286 794.286c-22.286 0-38.286 16.571-38.286 40.571 0 24.571 16.571 40.571 39.429 40.571 11.429 0 22.286-2.857 31.429-10.857l-8-12.571c-6.286 5.143-14.857 8.571-22.286 8.571-10.857 0-20.571-5.143-23.429-18.857h57.714v-6.857c0-24-14.857-40.571-36.571-40.571zM753.143 794.286c-9.714 0-16 4.571-20 11.429v-9.143h-17.143v77.143h17.143v-43.429c0-12.571 5.143-20 16.571-20 3.429 0 6.857 0.571 10.286 2.286l5.143-16c-4-1.714-8.571-2.286-12-2.286zM770.286 834.857c0 23.429 16 40.571 41.143 40.571 11.429 0 19.429-2.286 27.429-9.143l-8-13.714c-6.286 4.571-12.571 7.429-20 6.857-13.714 0-23.429-9.714-23.429-24.571s9.714-24.571 23.429-24.571c7.429 0 13.714 2.286 20 6.857l8-13.714c-8-6.286-16-9.143-27.429-9.143-25.143 0-41.143 17.143-41.143 40.571zM910.286 873.714h17.143v-77.143h-17.143v9.143c-5.143-6.857-13.143-11.429-24-11.429-21.714 0-38.857 17.143-38.857 40.571s17.143 40.571 38.857 40.571c10.857 0 18.857-4 24-11.429v9.714zM986.286 794.286c-9.714 0-16 4.571-20 11.429v-9.143h-16.571v77.143h16.571v-43.429c0-12.571 5.714-20 16.571-20 3.429 0 6.857 0.571 10.286 2.286l5.143-16c-3.429-1.714-8.571-2.286-12-2.286zM1066.286 873.714h16.571v-108.571h-16.571v40.571c-5.143-6.857-13.143-11.429-24.571-11.429-21.143 0-38.286 17.143-38.286 40.571s17.143 40.571 38.286 40.571c11.429 0 19.429-4 24.571-11.429v9.714zM1110.857 862.286c-0.571 0-1.714 0.571-2.857 0.571-1.143 0.571-1.714 1.143-2.286 1.714-1.143 0.571-1.714 1.714-1.714 2.286-0.571 1.143-0.571 2.286-0.571 3.429 0 0.571 0 1.714 0.571 2.857 0 0.571 0.571 1.714 1.714 2.286 0.571 0.571 1.143 1.143 2.286 1.714s2.286 0.571 2.857 0.571c1.143 0 2.286 0 3.429-0.571 0.571-0.571 1.714-1.143 2.286-1.714s1.143-1.714 1.714-2.286c0.571-1.143 0.571-2.286 0.571-2.857 0-1.143 0-2.286-0.571-3.429-0.571-0.571-1.143-1.714-1.714-2.286s-1.714-1.143-2.286-1.714c-1.143 0-2.286-0.571-3.429-0.571zM1316.571 146.286v731.429c0 40-33.143 73.143-73.143 73.143h-1170.286c-40 0-73.143-33.143-73.143-73.143v-731.429c0-40 33.143-73.143 73.143-73.143h1170.286c40 0 73.143 33.143 73.143 73.143z"
        ],
        "width": 1316.5714285714284,
        "attrs": [],
        "isMulticolor": false,
        "isMulticolor2": false,
        "tags": [
          "cc-mastercard"
        ],
        "defaultCode": 61937,
        "grid": 14
      },
      "attrs": [],
      "properties": {
        "name": "cc-mastercard",
        "id": 452,
        "order": 39,
        "prevSize": 28,
        "code": 61937
      },
      "setIdx": 1,
      "setId": 1,
      "iconIdx": 452
    },
    {
      "icon": {
        "paths": [
          "M178.857 444c0 18.286-7.429 36-20.571 48-11.429 10.286-26.857 14.857-50.857 14.857h-9.714v-125.714h9.714c24 0 38.857 4 50.857 15.429 13.143 11.429 20.571 29.143 20.571 47.429zM1193.714 406.857c0 19.429-12.571 29.714-36.571 29.714h-10.857v-57.714h11.429c23.429 0 36 9.714 36 28zM217.143 444c0-56-41.714-95.429-102.286-95.429h-54.286v190.286h54.286c28.571 0 49.714-6.286 68-21.714 21.714-18.286 34.286-45.143 34.286-73.143zM234.286 538.857h37.143v-190.286h-37.143v190.286zM417.143 481.143c0-30.286-12.571-44-54.857-59.429-22.286-8-28.571-13.714-28.571-24 0-12 11.429-21.143 27.429-21.143 11.429 0 20.571 4.571 30.286 15.429l19.429-25.143c-16-14.286-35.429-21.143-56-21.143-33.714 0-59.429 23.429-59.429 54.286 0 26.286 12 40 46.857 52.571 14.286 5.143 21.714 8 25.714 10.857 7.429 4.571 10.857 11.429 10.857 19.429 0 15.429-12 26.857-28.571 26.857-17.714 0-32-8.571-40.571-25.143l-24 22.857c17.143 25.143 37.714 36.571 65.714 36.571 38.857 0 65.714-25.714 65.714-62.857zM576 532.571v-44c-14.857 14.857-28 21.143-44.571 21.143-37.714 0-64-27.429-64-65.714 0-36.571 27.429-65.714 62.286-65.714 17.714 0 30.857 6.286 46.286 21.714v-44c-16-8-29.714-11.429-45.714-11.429-56 0-101.143 44-101.143 99.429 0 56 44 99.429 100.571 99.429 16 0 29.714-2.857 46.286-10.857zM1280 877.714v-301.143c-91.429 57.143-413.143 240-933.143 337.714h896.571c20 0 36.571-16.571 36.571-36.571zM793.714 445.143c0-57.143-46.286-103.429-103.429-103.429s-103.429 46.286-103.429 103.429 46.286 103.429 103.429 103.429 103.429-46.286 103.429-103.429zM880.571 544l82.286-195.429h-40.571l-51.429 128-50.857-128h-40.571l81.143 195.429h20zM979.429 538.857h105.143v-32h-68v-51.429h65.714v-32h-65.714v-42.286h68v-32.571h-105.143v190.286zM1202.857 538.857h45.714l-60-80c28-5.714 43.429-24.571 43.429-53.714 0-36-24.571-56.571-67.429-56.571h-55.429v190.286h37.143v-76h5.143zM1316.571 149.714v724.571c0 42.286-33.714 76.571-75.429 76.571h-1165.714c-41.714 0-75.429-34.286-75.429-76.571v-724.571c0-42.286 33.714-76.571 75.429-76.571h1165.714c41.714 0 75.429 34.286 75.429 76.571z"
        ],
        "width": 1316.5714285714284,
        "attrs": [],
        "isMulticolor": false,
        "isMulticolor2": false,
        "tags": [
          "cc-discover"
        ],
        "defaultCode": 61938,
        "grid": 14
      },
      "attrs": [],
      "properties": {
        "name": "cc-discover",
        "id": 453,
        "order": 40,
        "prevSize": 28,
        "code": 61938
      },
      "setIdx": 1,
      "setId": 1,
      "iconIdx": 453
    },
    {
      "icon": {
        "paths": [
          "M68 389.714h50.857l-25.714-61.714zM422.857 690.286l42.286-45.143-40-45.143h-93.143v28h81.143v31.429h-81.143v30.857h90.857zM513.143 645.714l56.571 62.857v-124zM677.714 618.857c0-13.714-10.286-18.857-22.857-18.857h-48v39.429h47.429c13.143 0 23.429-6.286 23.429-20.571zM842.857 616.571c0-14.286-12.571-16.571-24-16.571h-46.857v34.857h46.286c12.571 0 24.571-2.857 24.571-18.286zM684 350.286c0-14.286-12.571-16.571-24-16.571h-46.857v34.286h46.286c12.571 0 24.571-2.857 24.571-17.714zM946.286 389.714h50.857l-25.143-61.714zM399.429 301.143v154.857h-37.714v-121.143l-53.714 121.143h-32.571l-53.714-121.143v121.143h-75.429l-14.286-34.286h-77.143l-14.286 34.286h-40l66.286-154.857h54.857l62.857 146.857v-146.857h60.571l48.571 105.143 44-105.143h61.714zM717.143 618.857c0 62.286-68 52-110.286 52v52h-72l-45.714-51.429-47.429 51.429h-146.286v-154.857h148.571l45.714 50.857 46.857-50.857h118.286c34.857 0 62.286 12 62.286 50.857zM550.857 424v32h-124v-154.857h124v32.571h-86.857v28h84.571v31.429h-84.571v30.857h86.857zM1316.571 743.429v130.857c0 41.714-33.714 76.571-75.429 76.571h-1165.714c-41.714 0-75.429-34.857-75.429-76.571v-387.429h63.429l14.286-34.857h31.429l14.286 34.857h124.571v-26.286l10.857 26.286h64.571l11.429-26.857v26.857h309.143v-56.571l5.714-0.571c5.143 0 5.714 4 5.714 8v49.143h159.429v-13.143c37.143 19.429 88 13.143 126.857 13.143l14.286-34.857h32l14.286 34.857h129.714v-33.143l19.429 33.143h104v-216h-102.857v25.143l-14.286-25.143h-105.714v25.143l-13.143-25.143h-142.286c-21.143 0-43.429 2.286-62.286 12.571v-12.571h-98.286v12.571c-11.429-10.286-26.857-12.571-41.714-12.571h-358.857l-24.571 55.429-24.571-55.429h-113.143v25.143l-12.571-25.143h-96.571l-44.571 102.286v-223.429c0-41.714 33.714-76.571 75.429-76.571h1165.714c41.714 0 75.429 34.857 75.429 76.571v387.429h-68.571c-16 0-33.143 2.857-46.286 12.571v-12.571h-101.143c-14.286 0-33.714 2.286-44.571 12.571v-12.571h-180.571v12.571c-13.714-9.714-33.714-12.571-49.714-12.571h-119.429v12.571c-12-11.429-36.571-12.571-52-12.571h-133.714l-30.857 33.143-28.571-33.143h-199.429v216h196l31.429-33.714 29.714 33.714h120.571v-50.857h12c17.143 0 34.857-0.571 51.429-7.429v58.286h99.429v-56.571h4.571c5.714 0 6.857 0.571 6.857 6.857v49.714h302.286c16.571 0 37.143-3.429 50.286-13.714v13.714h96c18.286 0 37.714-1.714 54.286-9.714zM883.429 609.714c0 17.143-9.143 34.286-26.286 41.143 20.571 7.429 24.571 21.143 24.571 41.143v30.857h-37.143v-25.714c0-26.286-8.571-30.857-33.143-30.857h-39.429v56.571h-37.143v-154.857h88c29.143 0 60.571 5.143 60.571 41.714zM725.143 342.857c0 17.714-9.714 34.857-26.286 41.714 21.143 7.429 24.571 20.571 24.571 41.143v30.286h-37.143c-0.571-33.143 8-56-33.143-56h-40v56h-36.571v-154.857l87.429 0.571c29.714 0 61.143 4.571 61.143 41.143zM1027.429 690.857v32h-123.429v-154.857h123.429v32h-86.286v28h84.571v31.429h-84.571v30.857zM784 301.143v154.857h-37.714v-154.857h37.714zM1180 673.714c0 36.571-25.143 49.143-58.286 49.143h-72v-33.143h72c9.143 0 19.429-2.286 19.429-14.286 0-33.143-95.429 12.571-95.429-61.143 0-31.429 24-46.286 52.571-46.286h74.286v32.571h-68c-9.714 0-20.571 1.714-20.571 14.286 0 33.714 96-15.429 96 58.857zM1316.571 645.143v57.714c-10.857 16-32 20-50.286 20h-71.429v-33.143h71.429c9.143 0 18.857-2.857 18.857-14.286 0-32.571-95.429 12.571-95.429-61.143 0-31.429 24.571-46.286 53.143-46.286h73.714v32.571h-67.429c-10.286 0-20.571 1.714-20.571 14.286 0 27.429 64.571-0.571 88 30.286zM1222.286 301.714v154.286h-52.571l-69.714-116v116h-75.429l-14.857-34.286h-76.571l-14.286 34.286h-42.857c-50.857 0-73.714-26.286-73.714-76 0-52 23.429-78.857 76-78.857h36v33.714c-38.857-0.571-74.286-9.143-74.286 44 0 26.286 6.286 44.571 36 44.571h16.571l52.571-121.714h55.429l62.286 146.286v-146.286h56.571l65.143 107.429v-107.429h37.714z"
        ],
        "width": 1316.5714285714284,
        "attrs": [],
        "isMulticolor": false,
        "isMulticolor2": false,
        "tags": [
          "cc-amex"
        ],
        "defaultCode": 61939,
        "grid": 14
      },
      "attrs": [],
      "properties": {
        "name": "cc-amex",
        "id": 454,
        "order": 41,
        "prevSize": 28,
        "code": 61939
      },
      "setIdx": 1,
      "setId": 1,
      "iconIdx": 454
    },
    {
      "icon": {
        "paths": [
          "M425.714 517.714c0 28-22.286 49.143-50.286 49.143-21.143 0-36.571-12-36.571-34.286 0-28 21.714-50.286 49.714-50.286 21.143 0 37.143 13.143 37.143 35.429zM874.286 432.571c0 34.286-20.571 41.143-50.286 41.143l-18.286 0.571 9.714-61.143c0.571-4 3.429-6.286 7.429-6.286h10.286c19.429 0 41.143 1.143 41.143 25.714zM1074.857 517.714c0 28-22.286 49.143-49.714 49.143-21.143 0-37.143-12-37.143-34.286 0-28 21.714-50.286 49.714-50.286 21.143 0 37.143 13.143 37.143 35.429zM293.143 420c0-48-37.143-64-79.429-64h-91.429c-5.714 0-11.429 4.571-12 10.857l-37.143 233.143c-0.571 4.571 2.857 9.143 7.429 9.143h43.429c6.286 0 12-4.571 12.571-10.857l10.286-62.857c2.286-16.571 30.286-10.857 41.143-10.857 65.143 0 105.143-38.857 105.143-104.571zM469.714 598.286l23.429-149.143c0.571-4.571-2.857-9.143-7.429-9.143h-43.429c-8.571 0-9.143 12.571-9.714 18.857-13.143-19.429-32.571-22.857-54.286-22.857-56 0-98.857 49.143-98.857 103.429 0 44.571 28 73.714 72.571 73.714 20.571 0 46.286-9.143 60.571-25.143-1.143 3.429-2.286 8.571-2.286 12 0 5.143 2.286 9.143 7.429 9.143h39.429c6.286 0 11.429-4.571 12.571-10.857zM725.143 448c0-4-3.429-8-7.429-8h-44c-4 0-8 2.286-10.286 5.714l-60.571 89.143-25.143-85.714c-1.714-5.143-6.857-9.143-12.571-9.143h-42.857c-4 0-7.429 4-7.429 8 0 2.857 44.571 132 48.571 144-6.286 8.571-46.857 61.714-46.857 68.571 0 4 3.429 7.429 7.429 7.429h44c4 0 8-2.286 10.286-5.714l145.714-210.286c1.143-1.143 1.143-2.286 1.143-4zM942.286 420c0-48-37.143-64-79.429-64h-90.857c-6.286 0-12 4.571-12.571 10.857l-37.143 233.143c-0.571 4.571 2.857 9.143 7.429 9.143h46.857c4.571 0 8-3.429 9.143-7.429l10.286-66.286c2.286-16.571 30.286-10.857 41.143-10.857 65.143 0 105.143-38.857 105.143-104.571zM1118.857 598.286l23.429-149.143c0.571-4.571-2.857-9.143-7.429-9.143h-43.429c-8.571 0-9.143 12.571-9.714 18.857-12.571-19.429-32-22.857-54.286-22.857-56 0-98.857 49.143-98.857 103.429 0 44.571 28 73.714 72.571 73.714 21.143 0 46.857-9.143 60.571-25.143-0.571 3.429-2.286 8.571-2.286 12 0 5.143 2.286 9.143 7.429 9.143h39.429c6.286 0 11.429-4.571 12.571-10.857zM1243.429 364.571v-0.571c0-4.571-3.429-8-7.429-8h-42.286c-3.429 0-6.857 2.857-7.429 6.286l-37.143 237.714-0.571 1.143c0 4 3.429 8 8 8h37.714c5.714 0 11.429-4.571 12-10.857zM224 441.143c-4.571 29.143-24 32.571-49.143 32.571l-18.857 0.571 9.714-61.143c0.571-4 4-6.286 7.429-6.286h10.857c25.714 0 45.143 3.429 40 34.286zM1316.571 146.286v731.429c0 40-33.143 73.143-73.143 73.143h-1170.286c-40 0-73.143-33.143-73.143-73.143v-731.429c0-40 33.143-73.143 73.143-73.143h1170.286c40 0 73.143 33.143 73.143 73.143z"
        ],
        "width": 1316.5714285714284,
        "attrs": [],
        "isMulticolor": false,
        "isMulticolor2": false,
        "tags": [
          "cc-paypal"
        ],
        "defaultCode": 61940,
        "grid": 14
      },
      "attrs": [],
      "properties": {
        "name": "cc-paypal",
        "id": 455,
        "order": 42,
        "prevSize": 28,
        "code": 61940
      },
      "setIdx": 1,
      "setId": 1,
      "iconIdx": 455
    },
    {
      "icon": {
        "paths": [
          "M912.571 516c0 26.286-4 46.286-12 60.571-6.857 12.571-17.714 20-29.714 20-8.571 0-16.571-1.714-23.429-5.143v-128c14.857-15.429 28-17.143 32.571-17.143 21.714 0 32.571 24 32.571 69.714zM1162.857 495.429h-62.857c2.286-38.286 12.571-56 32-56s29.714 18.286 30.857 56zM272 572.571c0-48-29.143-68-76.571-85.143v0c-25.143-9.143-38.857-16.571-38.857-28 0-9.714 8-14.857 21.714-14.857 26.286 0 52.571 9.714 70.857 18.857l10.286-64c-14.286-6.857-44-18.286-85.143-18.286-29.143 0-53.143 7.429-70.286 21.714-18.286 14.857-27.429 36.571-27.429 62.286 0 46.857 28.571 67.429 75.429 84 29.714 10.857 40 18.286 40 30.286 0 11.429-9.714 17.714-27.429 17.714-21.714 0-57.714-10.857-81.143-24.571l-10.286 64.571c20 11.429 57.143 23.429 96 23.429 30.857 0 56-7.429 73.714-21.143 19.429-15.429 29.143-37.714 29.143-66.857zM440.571 449.714l10.857-63.429h-54.857v-77.143l-73.714 12-10.286 65.143-26.286 4.571-9.714 58.857h35.429v125.143c0 32.571 8.571 54.857 25.143 68.571 14.286 11.429 34.857 17.143 63.429 17.143 22.286 0 35.429-4 45.143-6.286v-67.429c-5.143 1.143-17.143 4-25.143 4-16.571 0-24-9.143-24-28.571v-112.571h44zM621.143 464v-79.429c-5.714-1.143-10.857-1.714-16-1.714-24 0-43.429 12.571-50.857 35.429l-5.714-32h-74.857v269.143h85.714v-174.857c10.857-13.143 26.286-17.714 46.857-17.714 4.571 0 9.143 0 14.857 1.143zM642.286 655.429h85.714v-269.143h-85.714v269.143zM997.714 513.143c0-45.714-8.571-80.571-25.714-102.286-15.429-20-36.571-29.714-63.429-29.714-24.571 0-46.286 10.286-66.857 32l-4.571-26.857h-75.429v368.571l85.714-14.286v-86.286c13.143 4 26.857 6.286 38.857 6.286 21.143 0 52.571-5.714 76.571-32 23.429-25.143 34.857-64 34.857-115.429zM730.286 314.286c0-25.143-20-45.143-45.143-45.143s-45.143 20-45.143 45.143 20 45.714 45.143 45.714 45.143-20.571 45.143-45.714zM1243.429 518.286c0-42.857-9.143-76.571-27.429-100.571-18.857-24-46.857-36.571-82.286-36.571-73.143 0-118.286 53.714-118.286 140.571 0 48 12 84.571 36 107.429 21.143 21.143 52 31.429 92 31.429 36.571 0 70.286-8.571 91.429-22.857l-9.143-58.857c-21.143 11.429-45.714 17.714-73.143 17.714-16.571 0-28-3.429-36-10.857-9.143-7.429-14.286-20-16-37.714h141.714c0.571-4 1.143-23.429 1.143-29.714zM1316.571 146.286v731.429c0 40-33.143 73.143-73.143 73.143h-1170.286c-40 0-73.143-33.143-73.143-73.143v-731.429c0-40 33.143-73.143 73.143-73.143h1170.286c40 0 73.143 33.143 73.143 73.143z"
        ],
        "width": 1316.5714285714284,
        "attrs": [],
        "isMulticolor": false,
        "isMulticolor2": false,
        "tags": [
          "cc-stripe"
        ],
        "defaultCode": 61941,
        "grid": 14
      },
      "attrs": [],
      "properties": {
        "name": "cc-stripe",
        "id": 456,
        "order": 43,
        "prevSize": 28,
        "code": 61941
      },
      "setIdx": 1,
      "setId": 1,
      "iconIdx": 456
    },
    {
      "icon": {
        "paths": [
          "M976 0h-384c-26.4 0-63.274 15.274-81.942 33.942l-476.116 476.116c-18.668 18.668-18.668 49.214 0 67.882l412.118 412.118c18.668 18.668 49.214 18.668 67.882 0l476.118-476.118c18.666-18.666 33.94-55.54 33.94-81.94v-384c0-26.4-21.6-48-48-48zM736 384c-53.020 0-96-42.98-96-96s42.98-96 96-96 96 42.98 96 96-42.98 96-96 96z"
        ],
        "attrs": [],
        "isMulticolor": false,
        "isMulticolor2": false,
        "tags": [
          "price-tag"
        ],
        "defaultCode": 59701,
        "grid": 16
      },
      "attrs": [],
      "properties": {
        "ligatures": "price-tag",
        "name": "price-tag",
        "id": 53,
        "order": 9,
        "prevSize": 32,
        "code": 59701
      },
      "setIdx": 2,
      "setId": 0,
      "iconIdx": 53
    },
    {
      "icon": {
        "paths": [
          "M1232 0h-384c-26.4 0-63.274 15.274-81.942 33.942l-476.116 476.116c-18.668 18.668-18.668 49.214 0 67.882l412.118 412.118c18.668 18.668 49.214 18.668 67.882 0l476.118-476.118c18.666-18.666 33.94-55.54 33.94-81.94v-384c0-26.4-21.6-48-48-48zM992 384c-53.020 0-96-42.98-96-96s42.98-96 96-96 96 42.98 96 96-42.98 96-96 96z",
          "M128 544l544-544h-80c-26.4 0-63.274 15.274-81.942 33.942l-476.116 476.116c-18.668 18.668-18.668 49.214 0 67.882l412.118 412.118c18.668 18.668 49.214 18.668 67.882 0l30.058-30.058-416-416z"
        ],
        "width": 1280,
        "attrs": [],
        "isMulticolor": false,
        "isMulticolor2": false,
        "tags": [
          "price-tags"
        ],
        "defaultCode": 59702,
        "grid": 16
      },
      "attrs": [],
      "properties": {
        "ligatures": "price-tags",
        "name": "price-tags",
        "id": 54,
        "order": 8,
        "prevSize": 32,
        "code": 59702
      },
      "setIdx": 2,
      "setId": 0,
      "iconIdx": 54
    },
    {
      "icon": {
        "paths": [
          "M0 128h128v640h-128zM192 128h64v640h-64zM320 128h64v640h-64zM512 128h64v640h-64zM768 128h64v640h-64zM960 128h64v640h-64zM640 128h32v640h-32zM448 128h32v640h-32zM864 128h32v640h-32zM0 832h64v64h-64zM192 832h64v64h-64zM320 832h64v64h-64zM640 832h64v64h-64zM960 832h64v64h-64zM768 832h128v64h-128zM448 832h128v64h-128z"
        ],
        "attrs": [],
        "isMulticolor": false,
        "isMulticolor2": false,
        "tags": [
          "barcode"
        ],
        "defaultCode": 59703,
        "grid": 16
      },
      "attrs": [],
      "properties": {
        "ligatures": "barcode",
        "name": "barcode",
        "id": 55,
        "order": 10,
        "prevSize": 32,
        "code": 59703
      },
      "setIdx": 2,
      "setId": 0,
      "iconIdx": 55
    },
    {
      "icon": {
        "paths": [
          "M320 64h-256v256h256v-256zM384 0v0 384h-384v-384h384zM128 128h128v128h-128zM960 64h-256v256h256v-256zM1024 0v0 384h-384v-384h384zM768 128h128v128h-128zM320 704h-256v256h256v-256zM384 640v0 384h-384v-384h384zM128 768h128v128h-128zM448 0h64v64h-64zM512 64h64v64h-64zM448 128h64v64h-64zM512 192h64v64h-64zM448 256h64v64h-64zM512 320h64v64h-64zM448 384h64v64h-64zM448 512h64v64h-64zM512 576h64v64h-64zM448 640h64v64h-64zM512 704h64v64h-64zM448 768h64v64h-64zM512 832h64v64h-64zM448 896h64v64h-64zM512 960h64v64h-64zM960 512h64v64h-64zM64 512h64v64h-64zM128 448h64v64h-64zM0 448h64v64h-64zM256 448h64v64h-64zM320 512h64v64h-64zM384 448h64v64h-64zM576 512h64v64h-64zM640 448h64v64h-64zM704 512h64v64h-64zM768 448h64v64h-64zM832 512h64v64h-64zM896 448h64v64h-64zM960 640h64v64h-64zM576 640h64v64h-64zM640 576h64v64h-64zM704 640h64v64h-64zM832 640h64v64h-64zM896 576h64v64h-64zM960 768h64v64h-64zM576 768h64v64h-64zM640 704h64v64h-64zM768 704h64v64h-64zM832 768h64v64h-64zM896 704h64v64h-64zM960 896h64v64h-64zM640 832h64v64h-64zM704 896h64v64h-64zM768 832h64v64h-64zM832 896h64v64h-64zM640 960h64v64h-64zM768 960h64v64h-64zM896 960h64v64h-64z"
        ],
        "attrs": [],
        "isMulticolor": false,
        "isMulticolor2": false,
        "tags": [
          "qrcode"
        ],
        "defaultCode": 59704,
        "grid": 16
      },
      "attrs": [],
      "properties": {
        "ligatures": "qrcode",
        "name": "qrcode",
        "id": 56,
        "order": 12,
        "prevSize": 32,
        "code": 59704
      },
      "setIdx": 2,
      "setId": 0,
      "iconIdx": 56
    },
    {
      "icon": {
        "paths": [
          "M575.996 320l127.998 127.998-255.994 255.994-127.998-127.998zM1001.526 297.504l-73.516-73.516-32.008 32.008c-16.378 16.38-39.010 26.51-64 26.51-49.988 0-90.514-40.522-90.514-90.51 0-25.002 10.14-47.638 26.534-64.018l31.988-31.986-73.518-73.516c-29.968-29.968-79.008-29.968-108.976 0l-595.040 595.038c-29.966 29.968-29.966 79.010 0 108.976l73.52 73.518 31.962-31.964c16.382-16.406 39.030-26.552 64.044-26.552 49.988 0 90.51 40.524 90.51 90.51 0 25.006-10.14 47.64-26.534 64.022l-31.984 31.986 73.516 73.518c29.966 29.966 79.008 29.966 108.976 0l595.040-595.040c29.964-29.976 29.964-79.016 0-108.984zM448.002 831.996l-256-256 384-384 256 256-384 384z"
        ],
        "attrs": [],
        "isMulticolor": false,
        "isMulticolor2": false,
        "tags": [
          "ticket",
          "theater",
          "cinema"
        ],
        "defaultCode": 59705,
        "grid": 16
      },
      "attrs": [],
      "properties": {
        "ligatures": "ticket, theater",
        "name": "ticket",
        "id": 57,
        "order": 11,
        "prevSize": 32,
        "code": 59705
      },
      "setIdx": 2,
      "setId": 0,
      "iconIdx": 57
    },
    {
      "icon": {
        "paths": [
          "M384 928c0 53.019-42.981 96-96 96s-96-42.981-96-96c0-53.019 42.981-96 96-96s96 42.981 96 96z",
          "M1024 928c0 53.019-42.981 96-96 96s-96-42.981-96-96c0-53.019 42.981-96 96-96s96 42.981 96 96z",
          "M1024 512v-384h-768c0-35.346-28.654-64-64-64h-192v64h128l48.074 412.054c-29.294 23.458-48.074 59.5-48.074 99.946 0 70.696 57.308 128 128 128h768v-64h-768c-35.346 0-64-28.654-64-64 0-0.218 0.014-0.436 0.016-0.656l831.984-127.344z"
        ],
        "attrs": [],
        "isMulticolor": false,
        "isMulticolor2": false,
        "tags": [
          "cart",
          "purchase",
          "ecommerce",
          "shopping"
        ],
        "defaultCode": 59706,
        "grid": 16
      },
      "attrs": [],
      "properties": {
        "ligatures": "cart, purchase",
        "name": "cart",
        "id": 58,
        "order": 7,
        "prevSize": 32,
        "code": 59706
      },
      "setIdx": 2,
      "setId": 0,
      "iconIdx": 58
    },
    {
      "icon": {
        "paths": [
          "M480 64c-265.096 0-480 214.904-480 480 0 265.098 214.904 480 480 480 265.098 0 480-214.902 480-480 0-265.096-214.902-480-480-480zM480 928c-212.078 0-384-171.922-384-384s171.922-384 384-384c212.078 0 384 171.922 384 384s-171.922 384-384 384zM512 512v-128h128v-64h-128v-64h-64v64h-128v256h128v128h-128v64h128v64h64v-64h128.002l-0.002-256h-128zM448 512h-64v-128h64v128zM576.002 704h-64.002v-128h64.002v128z"
        ],
        "attrs": [],
        "isMulticolor": false,
        "isMulticolor2": false,
        "tags": [
          "coin-dollar",
          "money",
          "cash",
          "currency-dollar"
        ],
        "defaultCode": 59707,
        "grid": 16
      },
      "attrs": [],
      "properties": {
        "ligatures": "coin-dollar, money",
        "name": "coin-dollar",
        "id": 59,
        "order": 13,
        "prevSize": 32,
        "code": 59707
      },
      "setIdx": 2,
      "setId": 0,
      "iconIdx": 59
    },
    {
      "icon": {
        "paths": [
          "M480 64c-265.096 0-480 214.904-480 480s214.904 480 480 480c265.098 0 480-214.902 480-480s-214.902-480-480-480zM480 928c-212.078 0-384-171.922-384-384s171.922-384 384-384c212.076 0 384 171.922 384 384s-171.924 384-384 384z",
          "M670.824 644.34c-15.27-8.884-34.862-3.708-43.75 11.57-17.256 29.662-49.088 48.090-83.074 48.090h-128c-41.716 0-77.286-26.754-90.496-64h154.496c17.672 0 32-14.326 32-32s-14.328-32-32-32h-160v-64h160c17.672 0 32-14.328 32-32s-14.328-32-32-32h-154.496c13.21-37.246 48.78-64 90.496-64h128c33.986 0 65.818 18.426 83.074 48.090 8.888 15.276 28.478 20.456 43.752 11.568 15.276-8.888 20.456-28.476 11.568-43.752-28.672-49.288-81.702-79.906-138.394-79.906h-128c-77.268 0-141.914 55.056-156.78 128h-35.22c-17.672 0-32 14.328-32 32s14.328 32 32 32h32v64h-32c-17.672 0-32 14.326-32 32s14.328 32 32 32h35.22c14.866 72.944 79.512 128 156.78 128h128c56.692 0 109.72-30.62 138.394-79.91 8.888-15.276 3.708-34.864-11.57-43.75z"
        ],
        "attrs": [],
        "isMulticolor": false,
        "isMulticolor2": false,
        "tags": [
          "coin-euro",
          "money",
          "cash",
          "currency-euro"
        ],
        "defaultCode": 59708,
        "grid": 16
      },
      "attrs": [],
      "properties": {
        "ligatures": "coin-euro, money2",
        "name": "coin-euro",
        "id": 60,
        "order": 14,
        "prevSize": 32,
        "code": 59708
      },
      "setIdx": 2,
      "setId": 0,
      "iconIdx": 60
    },
    {
      "icon": {
        "paths": [
          "M480 64c-265.096 0-480 214.904-480 480s214.904 480 480 480c265.098 0 480-214.902 480-480s-214.902-480-480-480zM480 928c-212.078 0-384-171.922-384-384s171.922-384 384-384c212.074 0 384 171.922 384 384s-171.926 384-384 384z",
          "M608 704h-224v-128h96c17.672 0 32-14.326 32-32s-14.328-32-32-32h-96v-32c0-52.934 43.066-96 96-96 34.17 0 66.042 18.404 83.18 48.030 8.85 15.298 28.426 20.526 43.722 11.676 15.296-8.848 20.526-28.424 11.676-43.722-28.538-49.336-81.638-79.984-138.578-79.984-88.224 0-160 71.776-160 160v32h-32c-17.672 0-32 14.326-32 32s14.328 32 32 32h32v192h288c17.674 0 32-14.326 32-32s-14.326-32-32-32z"
        ],
        "attrs": [],
        "isMulticolor": false,
        "isMulticolor2": false,
        "tags": [
          "coin-pound",
          "money",
          "cash",
          "currency-pound"
        ],
        "defaultCode": 59709,
        "grid": 16
      },
      "attrs": [],
      "properties": {
        "ligatures": "coin-pound, money3",
        "name": "coin-pound",
        "id": 61,
        "order": 15,
        "prevSize": 32,
        "code": 59709
      },
      "setIdx": 2,
      "setId": 0,
      "iconIdx": 61
    },
    {
      "icon": {
        "paths": [
          "M480 64c-265.096 0-480 214.904-480 480s214.904 480 480 480c265.098 0 480-214.902 480-480s-214.902-480-480-480zM480 928c-212.078 0-384-171.922-384-384s171.922-384 384-384c212.076 0 384 171.922 384 384s-171.924 384-384 384z",
          "M608 576c17.674 0 32-14.326 32-32s-14.326-32-32-32h-68.208l94.832-142.25c9.804-14.704 5.83-34.572-8.876-44.376-14.704-9.802-34.572-5.83-44.376 8.876l-101.372 152.062-101.374-152.062c-9.804-14.706-29.672-18.68-44.376-8.876-14.706 9.804-18.678 29.672-8.876 44.376l94.834 142.25h-68.208c-17.672 0-32 14.326-32 32s14.328 32 32 32h96v64h-96c-17.672 0-32 14.326-32 32s14.328 32 32 32h96v96c0 17.674 14.328 32 32 32s32-14.326 32-32v-96h96c17.674 0 32-14.326 32-32s-14.326-32-32-32h-96v-64h96z"
        ],
        "attrs": [],
        "isMulticolor": false,
        "isMulticolor2": false,
        "tags": [
          "coin-yen",
          "money",
          "cash",
          "currency-yen"
        ],
        "defaultCode": 59710,
        "grid": 16
      },
      "attrs": [],
      "properties": {
        "ligatures": "coin-yen, money4",
        "name": "coin-yen",
        "id": 62,
        "order": 16,
        "prevSize": 32,
        "code": 59710
      },
      "setIdx": 2,
      "setId": 0,
      "iconIdx": 62
    },
    {
      "icon": {
        "paths": [
          "M928 128h-832c-52.8 0-96 43.2-96 96v576c0 52.8 43.2 96 96 96h832c52.8 0 96-43.2 96-96v-576c0-52.8-43.2-96-96-96zM96 192h832c17.346 0 32 14.654 32 32v96h-896v-96c0-17.346 14.654-32 32-32zM928 832h-832c-17.346 0-32-14.654-32-32v-288h896v288c0 17.346-14.654 32-32 32zM128 640h64v128h-64zM256 640h64v128h-64zM384 640h64v128h-64z"
        ],
        "attrs": [],
        "isMulticolor": false,
        "isMulticolor2": false,
        "tags": [
          "credit-card",
          "money",
          "payment",
          "ecommerce"
        ],
        "defaultCode": 59711,
        "grid": 16
      },
      "attrs": [],
      "properties": {
        "ligatures": "credit-card, money5",
        "name": "credit-card",
        "id": 63,
        "order": 17,
        "prevSize": 32,
        "code": 59711
      },
      "setIdx": 2,
      "setId": 0,
      "iconIdx": 63
    },
    {
      "icon": {
        "paths": [
          "M384 64h-320c-35.2 0-64 28.8-64 64v320c0 35.2 28.796 64 64 64h320c35.2 0 64-28.8 64-64v-320c0-35.2-28.8-64-64-64zM384 320h-320v-64h320v64zM896 64h-320c-35.204 0-64 28.8-64 64v832c0 35.2 28.796 64 64 64h320c35.2 0 64-28.8 64-64v-832c0-35.2-28.8-64-64-64zM896 640h-320v-64h320v64zM896 448h-320v-64h320v64zM384 576h-320c-35.2 0-64 28.8-64 64v320c0 35.2 28.796 64 64 64h320c35.2 0 64-28.8 64-64v-320c0-35.2-28.8-64-64-64zM384 832h-128v128h-64v-128h-128v-64h128v-128h64v128h128v64z"
        ],
        "attrs": [],
        "isMulticolor": false,
        "isMulticolor2": false,
        "tags": [
          "calculator",
          "compute",
          "math",
          "arithmetic",
          "sum"
        ],
        "defaultCode": 59712,
        "grid": 16
      },
      "attrs": [],
      "properties": {
        "ligatures": "calculator, compute",
        "name": "calculator",
        "id": 64,
        "order": 18,
        "prevSize": 32,
        "code": 59712
      },
      "setIdx": 2,
      "setId": 0,
      "iconIdx": 64
    }
  ],
  "height": 1024,
  "metadata": {
    "name": "icomoon"
  },
  "preferences": {
    "showGlyphs": true,
    "showCodes": true,
    "showQuickUse": true,
    "showQuickUse2": true,
    "showSVGs": true,
    "fontPref": {
      "prefix": "icon-",
      "metadata": {
        "fontFamily": "icomoon"
      },
      "metrics": {
        "emSize": 1024,
        "baseline": 6.25,
        "whitespace": 50
      },
      "embed": false
    },
    "imagePref": {
      "prefix": "icon-",
      "png": true,
      "useClassSelector": true,
      "color": 0,
      "bgColor": 16777215
    },
    "historySize": 50
  }
}